# Blender v2.77 (sub 0) OBJ File: 'firepit.blend'
# www.blender.org
mtllib firepit.mtl
o Firepit_Cylinder.009
v -0.591282 0.131662 -0.161550
v 0.305618 1.322986 0.683133
v -0.493666 0.039557 -0.134771
v 0.398587 1.235266 0.708637
v -0.469670 -0.049372 -0.033553
v 0.421440 1.150571 0.805037
v -0.533352 -0.083031 0.082813
v 0.360790 1.118513 0.915863
v -0.647407 -0.041705 0.146161
v 0.252165 1.157872 0.976195
v -0.745023 0.050400 0.119382
v 0.159196 1.245592 0.950691
v -0.769019 0.139328 0.018163
v 0.136343 1.330287 0.854291
v -0.705337 0.172988 -0.098203
v 0.196993 1.362345 0.743465
v 0.018051 0.937097 0.426624
v 0.104748 0.855296 0.450407
v 0.126059 0.776315 0.540303
v 0.069501 0.746421 0.643651
v -0.031795 0.783124 0.699912
v -0.118491 0.864925 0.676129
v -0.139802 0.943906 0.586233
v -0.083245 0.973800 0.482885
v -0.176996 0.430021 0.116609
v -0.148695 0.325134 0.235991
v -0.223804 0.285434 0.373238
v -0.358326 0.334177 0.447952
v -0.473459 0.442809 0.416368
v -0.501760 0.547695 0.296986
v -0.426651 0.587395 0.159739
v -0.292130 0.538653 0.085025
v -0.296429 0.168399 3.142932
v 0.199432 1.276217 1.251312
v -0.409198 0.139227 3.097179
v 0.062367 1.240760 1.195701
v -0.455908 0.043726 3.031158
v 0.005593 1.124684 1.115456
v -0.409198 -0.062161 2.983543
v 0.062367 0.995983 1.057583
v -0.296429 -0.116407 2.982227
v 0.199432 0.930050 1.055983
v -0.183661 -0.087235 3.027980
v 0.336496 0.965507 1.111594
v -0.136950 0.008266 3.094001
v 0.393270 1.081584 1.191839
v -0.183661 0.114153 3.141615
v 0.336496 1.210284 1.249712
v 0.059036 0.959563 1.785210
v -0.068781 0.926498 1.733351
v -0.121724 0.818253 1.658520
v -0.068781 0.698237 1.604552
v 0.059036 0.636752 1.603060
v 0.186852 0.669817 1.654918
v 0.239795 0.778062 1.729749
v 0.186852 0.898078 1.783718
v -0.267114 0.628834 2.348346
v -0.337423 0.485085 2.248971
v -0.267114 0.325702 2.177300
v -0.097373 0.244050 2.175319
v 0.072368 0.287960 2.244187
v 0.142676 0.431710 2.343563
v 0.072368 0.591092 2.415233
v -0.097373 0.672744 2.417215
v 1.392283 0.288415 -0.010947
v -0.245061 1.102369 1.295938
v 1.460552 0.261087 0.090314
v -0.162084 1.069154 1.419015
v 1.472591 0.161076 0.164569
v -0.147451 0.947596 1.509269
v 1.421347 0.046966 0.168322
v -0.209734 0.808900 1.513831
v 1.336840 -0.014399 0.099374
v -0.312449 0.734314 1.430028
v 1.268571 0.012928 -0.001886
v -0.395427 0.767529 1.306951
v 1.256532 0.112940 -0.076142
v -0.410060 0.889088 1.216697
v 1.307775 0.227050 -0.079895
v -0.347776 1.027783 1.212135
v 0.217948 0.868728 0.927071
v 0.295326 0.837755 1.041844
v 0.308972 0.724398 1.126008
v 0.250891 0.595061 1.130262
v 0.155106 0.525508 1.052113
v 0.077727 0.556481 0.937340
v 0.064082 0.669838 0.853176
v 0.122163 0.799175 0.848922
v 0.849362 0.637429 0.643004
v 0.867484 0.486891 0.754775
v 0.790352 0.315131 0.760424
v 0.663149 0.222763 0.656642
v 0.560390 0.263896 0.504224
v 0.542269 0.414435 0.392453
v 0.619401 0.586195 0.386804
v 0.746603 0.678562 0.490586
v 0.659971 0.393213 -0.547171
v -0.240696 0.428441 1.511693
v 0.765897 0.345322 -0.500833
v -0.111948 0.370232 1.568015
v 0.809773 0.229704 -0.481639
v -0.058619 0.229704 1.591344
v 0.765897 0.114086 -0.500833
v -0.111948 0.089176 1.568015
v 0.659971 0.066195 -0.547171
v -0.240696 0.030967 1.511693
v 0.554045 0.114086 -0.593509
v -0.369444 0.089176 1.455371
v 0.510169 0.229704 -0.612703
v -0.422773 0.229704 1.432042
v 0.554045 0.345322 -0.593509
v -0.369444 0.370232 1.455371
v 0.014315 0.415032 0.928755
v 0.134376 0.360750 0.981276
v 0.184107 0.229704 1.003031
v 0.134376 0.098658 0.981276
v 0.014315 0.044377 0.928755
v -0.105746 0.098658 0.876233
v -0.155477 0.229704 0.854478
v -0.105746 0.360750 0.876233
v 0.457853 0.403734 0.349079
v 0.523896 0.229704 0.377970
v 0.457853 0.055674 0.349079
v 0.298411 -0.016412 0.279330
v 0.138970 0.055674 0.209581
v 0.072927 0.229704 0.180690
v 0.138970 0.403734 0.209581
v 0.298412 0.475820 0.279330
v -1.045651 0.130011 -0.521027
v -0.782942 1.516163 0.896600
v -0.897001 0.155843 -0.573404
v -0.641370 1.540765 0.846716
v -0.753208 0.095101 -0.539624
v -0.504422 1.482915 0.878888
v -0.698502 -0.016633 -0.439475
v -0.452321 1.376500 0.974269
v -0.764930 -0.113907 -0.331621
v -0.515586 1.283857 1.076988
v -0.913579 -0.139740 -0.279244
v -0.657158 1.259255 1.126872
v -1.057373 -0.078998 -0.313024
v -0.794106 1.317105 1.094700
v -1.112079 0.032737 -0.413174
v -0.846208 1.423519 0.999318
v -0.855374 1.065490 0.453118
v -0.723354 1.088433 0.406600
v -0.595647 1.034486 0.436601
v -0.547061 0.935251 0.525547
v -0.606058 0.848859 0.621335
v -0.738078 0.825916 0.667853
v -0.865785 0.879863 0.637852
v -0.914371 0.979098 0.548906
v -0.811681 0.638144 -0.137088
v -0.642085 0.566502 -0.097246
v -0.577563 0.434718 0.020875
v -0.655911 0.319988 0.148081
v -0.831234 0.289520 0.209857
v -1.000830 0.361162 0.170016
v -1.065353 0.492946 0.051895
v -0.987004 0.607676 -0.075312
v -1.758809 0.229630 0.609221
v -0.383600 1.529851 1.256001
v -1.665542 0.193369 0.484747
v -0.294773 1.495317 1.137453
v -1.550309 0.086220 0.457402
v -0.185026 1.393269 1.111411
v -1.480612 -0.029051 0.543205
v -0.118648 1.283485 1.193129
v -1.497279 -0.084920 0.691894
v -0.134521 1.230276 1.334738
v -1.590545 -0.048659 0.816367
v -0.223347 1.264811 1.453286
v -1.705778 0.058490 0.843712
v -0.333094 1.366859 1.479329
v -1.775475 0.173761 0.757909
v -0.399473 1.476642 1.397611
v -0.810723 1.103712 1.053518
v -0.727890 1.071508 0.942969
v -0.625548 0.976345 0.918683
v -0.563648 0.873970 0.994888
v -0.578450 0.824351 1.126942
v -0.661283 0.856555 1.237492
v -0.763625 0.951718 1.261777
v -0.825525 1.054093 1.185573
v -1.224013 0.643278 0.666130
v -1.088103 0.516902 0.633878
v -1.005899 0.380946 0.735078
v -1.025556 0.315052 0.910448
v -1.135559 0.357820 1.057257
v -1.271470 0.484196 1.089509
v -1.353673 0.620152 0.988309
v -1.334016 0.686046 0.812939
v -1.328438 0.229630 2.390955
v -0.040195 1.529851 1.584758
v -1.382612 0.193369 2.245155
v -0.091790 1.495317 1.445899
v -1.343227 0.086220 2.133463
v -0.054280 1.393269 1.339524
v -1.233354 -0.029051 2.121306
v 0.050362 1.283485 1.327946
v -1.117355 -0.084920 2.215806
v 0.160839 1.230276 1.417947
v -1.063181 -0.048659 2.361606
v 0.212434 1.264811 1.556806
v -1.102566 0.058490 2.473298
v 0.174924 1.366859 1.663181
v -1.212439 0.173761 2.485455
v 0.070281 1.476642 1.674759
v -0.441654 1.103712 1.834286
v -0.489767 1.071508 1.704797
v -0.454788 0.976345 1.605599
v -0.357207 0.873970 1.594802
v -0.254184 0.824351 1.678731
v -0.206071 0.856555 1.808220
v -0.241050 0.951718 1.907418
v -0.338632 1.054093 1.918214
v -0.991097 0.643278 1.972092
v -0.944644 0.516902 1.840358
v -0.815056 0.380946 1.826020
v -0.678242 0.315052 1.937477
v -0.614346 0.357820 2.109439
v -0.660799 0.484196 2.241174
v -0.790388 0.620152 2.255512
v -0.927202 0.686046 2.144055
v -1.892736 0.130011 1.179500
v -0.558556 1.516163 1.725985
v -1.856310 0.155843 1.026160
v -0.523865 1.540766 1.579946
v -1.750070 0.095101 0.923541
v -0.422683 1.482915 1.482212
v -1.636249 -0.016633 0.931756
v -0.314281 1.376500 1.490035
v -1.581522 -0.113908 1.045992
v -0.262159 1.283857 1.598833
v -1.617947 -0.139740 1.199332
v -0.296850 1.259255 1.744873
v -1.724187 -0.078998 1.301951
v -0.398032 1.317105 1.842606
v -1.838008 0.032736 1.293737
v -0.506434 1.423520 1.834783
v -0.970654 1.065490 1.546827
v -0.938303 1.088433 1.410641
v -0.843948 1.034486 1.319501
v -0.742860 0.935251 1.326797
v -0.694255 0.848859 1.428254
v -0.726606 0.825916 1.564440
v -0.820961 0.879863 1.655579
v -0.922049 0.979098 1.648284
v -1.443261 0.638144 1.190604
v -1.317957 0.566502 1.069570
v -1.183712 0.434718 1.079259
v -1.119164 0.319988 1.213994
v -1.162125 0.289520 1.394850
v -1.287430 0.361162 1.515883
v -1.421675 0.492946 1.506195
v -1.486222 0.607676 1.371460
v 0.999043 0.130011 2.710885
v 0.501484 1.516163 1.357698
v 0.861331 0.155843 2.787534
v 0.370328 1.540766 1.430698
v 0.713903 0.095101 2.778437
v 0.229918 1.482915 1.422034
v 0.643122 -0.016633 2.688924
v 0.162507 1.376500 1.336782
v 0.690449 -0.113907 2.571429
v 0.207582 1.283857 1.224881
v 0.828162 -0.139740 2.494780
v 0.338738 1.259255 1.151881
v 0.975590 -0.078998 2.503876
v 0.479147 1.317105 1.160544
v 1.046371 0.032737 2.593390
v 0.546559 1.423520 1.245796
v 0.647525 1.065490 1.782662
v 0.525218 1.088433 1.850736
v 0.394282 1.034486 1.842657
v 0.331419 0.935251 1.763157
v 0.373453 0.848859 1.658806
v 0.495760 0.825916 1.590732
v 0.626695 0.879863 1.598811
v 0.689558 0.979098 1.678311
v 0.703792 0.638144 2.371802
v 0.529909 0.566502 2.361073
v 0.446427 0.434718 2.255497
v 0.502247 0.319988 2.116919
v 0.664672 0.289521 2.026515
v 0.838555 0.361162 2.037244
v 0.922037 0.492946 2.142820
v 0.866216 0.607676 2.281399
v 1.511798 0.229630 1.476731
v 0.047349 1.529851 1.070635
v 1.440812 0.193369 1.615126
v -0.020257 1.495317 1.202442
v 1.331825 0.086220 1.661475
v -0.124056 1.393269 1.246584
v 1.248681 -0.029051 1.588627
v -0.203241 1.283485 1.177204
v 1.240084 -0.084920 1.439255
v -0.211429 1.230276 1.034943
v 1.311071 -0.048659 1.300859
v -0.143822 1.264811 0.903136
v 1.420057 0.058490 1.254510
v -0.040024 1.366859 0.858994
v 1.503201 0.173761 1.327359
v 0.039162 1.476642 0.928374
v 0.502459 1.103712 1.198342
v 0.439414 1.071508 1.321255
v 0.342619 0.976345 1.362419
v 0.268776 0.873970 1.297720
v 0.261141 0.824351 1.165058
v 0.324186 0.856555 1.042145
v 0.420981 0.951718 1.000981
v 0.494824 1.054093 1.065680
v 0.975054 0.643278 1.510644
v 0.846510 0.516902 1.565310
v 0.748446 0.380946 1.479389
v 0.738307 0.315052 1.303213
v 0.822031 0.357820 1.139983
v 0.950575 0.484196 1.085317
v 1.048639 0.620152 1.171238
v 1.058778 0.686046 1.347414
vn 0.4550 0.2323 -0.8596
vn 0.8230 -0.3155 -0.4723
vn 0.7029 -0.6865 0.1861
vn 0.1651 -0.6633 0.7300
vn -0.4754 -0.2595 0.8406
vn -0.8434 0.2883 0.4533
vn 0.5241 0.6975 0.4886
vn -0.7234 0.6593 -0.2051
vn -0.1855 0.6361 -0.7490
vn -0.5241 -0.6975 -0.4886
vn -0.1334 0.7029 -0.6987
vn -0.6697 0.7260 -0.1565
vn -0.7894 0.3561 0.5000
vn -0.4225 -0.1901 0.8862
vn 0.2162 -0.5927 0.7759
vn 0.7525 -0.6158 0.2337
vn 0.8722 -0.2459 -0.4228
vn 0.5053 0.3003 -0.8090
vn 0.4370 0.2088 -0.8749
vn 0.8046 -0.3383 -0.4880
vn 0.6846 -0.7089 0.1696
vn 0.1474 -0.6857 0.7128
vn -0.4923 -0.2824 0.8233
vn -0.8599 0.2648 0.4365
vn -0.7399 0.6353 -0.2212
vn -0.2027 0.6121 -0.7643
vn -0.3775 0.8366 0.3969
vn -0.9052 0.4241 0.0271
vn -0.9052 -0.2424 -0.3490
vn -0.3775 -0.7723 -0.5109
vn 0.3689 -0.8553 -0.3639
vn 0.8966 -0.4427 0.0060
vn 0.2207 0.4793 -0.8495
vn 0.8966 0.2237 0.3821
vn 0.3689 0.7537 0.5440
vn -0.2207 -0.4793 0.8495
vn 0.3895 0.7986 0.4588
vn 0.9157 0.2702 0.2974
vn 0.9157 -0.3943 -0.0776
vn 0.3895 -0.8056 -0.4464
vn -0.3547 -0.7229 -0.5930
vn -0.8809 -0.1945 -0.4316
vn -0.8809 0.4700 -0.0566
vn -0.3547 0.8813 0.3122
vn -0.3905 0.8027 0.4507
vn -0.9165 0.3915 0.0821
vn -0.9165 -0.2727 -0.2927
vn -0.3905 -0.8008 -0.4541
vn 0.3533 -0.8835 -0.3075
vn 0.8793 -0.4723 0.0611
vn 0.8793 0.1919 0.4359
vn 0.3533 0.7200 0.5973
vn 0.4236 0.9049 -0.0414
vn 0.6894 0.4835 0.5394
vn 0.5597 -0.2251 0.7976
vn 0.1104 -0.8058 0.5818
vn -0.3952 -0.9184 0.0186
vn -0.6609 -0.4970 -0.5623
vn -0.7313 0.3477 0.5868
vn -0.5312 0.2116 -0.8204
vn -0.0819 0.7922 -0.6047
vn 0.7313 -0.3477 -0.5868
vn -0.1537 0.8241 -0.5452
vn -0.6016 0.2451 -0.7603
vn -0.7309 -0.4614 -0.5029
vn -0.4659 -0.8815 0.0762
vn 0.0381 -0.7692 0.6379
vn 0.4861 -0.1902 0.8530
vn 0.6154 0.5163 0.5956
vn 0.3504 0.9364 0.0165
vn 0.4697 0.8793 -0.0794
vn 0.7345 0.4593 0.4995
vn 0.6052 -0.2469 0.7568
vn 0.1575 -0.8256 0.5418
vn -0.3464 -0.9379 -0.0196
vn -0.6112 -0.5179 -0.5985
vn -0.4819 0.1883 -0.8557
vn -0.0342 0.7670 -0.6407
vn 0.3583 0.9237 0.1355
vn 0.8541 0.3826 0.3524
vn 0.8541 -0.3826 0.3524
vn 0.3583 -0.9237 0.1355
vn -0.3427 -0.9237 -0.1712
vn -0.8385 -0.3826 -0.3880
vn -0.4008 0.0000 0.9162
vn -0.8385 0.3826 -0.3880
vn -0.3427 0.9237 -0.1712
vn 0.4008 -0.0000 -0.9162
vn -0.3812 0.9210 -0.0805
vn -0.8754 0.3815 -0.2968
vn -0.8754 -0.3815 -0.2968
vn -0.3812 -0.9210 -0.0805
vn 0.3179 -0.9210 0.2253
vn 0.8121 -0.3815 0.4415
vn 0.8121 0.3815 0.4415
vn 0.3179 0.9210 0.2253
vn 0.3831 0.9206 0.0756
vn 0.8772 0.3813 0.2917
vn 0.8772 -0.3813 0.2917
vn 0.3831 -0.9206 0.0756
vn -0.3156 -0.9206 -0.2301
vn -0.8096 -0.3813 -0.4462
vn -0.8096 0.3813 -0.4462
vn -0.3156 0.9206 -0.2301
vn -0.3450 0.6859 -0.6407
vn 0.4134 0.5954 -0.6889
vn 0.9281 0.1482 -0.3416
vn 0.8977 -0.3938 0.1977
vn 0.3400 -0.7130 0.6132
vn -0.4183 -0.6225 0.6614
vn 0.1280 0.6960 0.7066
vn -0.9331 -0.1753 0.3141
vn -0.9027 0.3667 -0.2252
vn -0.1280 -0.6960 -0.7066
vn -0.8874 0.4341 -0.1550
vn -0.9177 -0.1063 0.3827
vn -0.4045 -0.5522 0.7290
vn 0.3516 -0.6425 0.6809
vn 0.9076 -0.3242 0.2667
vn 0.9379 0.2162 -0.2711
vn 0.4247 0.6621 -0.6174
vn -0.3314 0.7524 -0.5693
vn -0.3488 0.6619 -0.6635
vn 0.4086 0.5715 -0.7116
vn 0.9227 0.1248 -0.3648
vn 0.8923 -0.4165 0.1739
vn 0.3353 -0.7353 0.5889
vn -0.4221 -0.6449 0.6371
vn -0.9362 -0.1982 0.2902
vn -0.9058 0.3431 -0.2485
vn -0.4496 0.7089 -0.5434
vn 0.0910 0.3370 -0.9371
vn 0.5705 -0.2397 -0.7855
vn 0.7081 -0.6835 -0.1775
vn 0.4230 -0.7343 0.5309
vn -0.1177 -0.3625 0.9245
vn 0.6845 0.6539 0.3224
vn -0.5972 0.2143 0.7730
vn -0.7347 0.6580 0.1649
vn -0.6845 -0.6539 -0.3224
vn -0.6652 0.7204 0.1961
vn -0.5281 0.2780 0.8024
vn -0.0500 -0.2971 0.9535
vn 0.4891 -0.6679 0.5610
vn 0.7733 -0.6172 -0.1452
vn 0.6362 -0.1747 -0.7515
vn 0.1581 0.4004 -0.9026
vn -0.3810 0.7711 -0.5101
vn -0.4719 0.6863 -0.5535
vn 0.0681 0.3148 -0.9467
vn 0.5471 -0.2612 -0.7953
vn 0.6844 -0.7045 -0.1880
vn 0.3997 -0.7552 0.5195
vn -0.1403 -0.3838 0.9127
vn -0.6193 0.1922 0.7613
vn -0.7566 0.6355 0.1540
vn -0.7003 0.7089 0.0839
vn -0.7387 0.3370 -0.5838
vn -0.3516 -0.2397 -0.9049
vn 0.2341 -0.6835 -0.6914
vn 0.6753 -0.7343 -0.0683
vn 0.7137 -0.3625 0.5994
vn 0.6416 0.6539 -0.4010
vn 0.3266 0.2143 0.9205
vn -0.2590 0.6580 0.7070
vn -0.6416 -0.6539 0.4010
vn -0.1952 0.7204 0.6655
vn 0.3888 0.2780 0.8784
vn 0.7747 -0.2971 0.5582
vn 0.7365 -0.6679 -0.1076
vn 0.2965 -0.6172 -0.7288
vn -0.2875 -0.1747 -0.9417
vn -0.6734 0.4004 -0.6215
vn -0.6351 0.7711 0.0442
vn -0.7208 0.6863 0.0972
vn -0.7591 0.3148 -0.5697
vn -0.3726 -0.2612 -0.8905
vn 0.2124 -0.7045 -0.6772
vn 0.6531 -0.7552 -0.0549
vn 0.6915 -0.3838 0.6120
vn 0.3049 0.1922 0.9328
vn -0.2801 0.6355 0.7195
vn -0.7255 0.6859 -0.0568
vn -0.3555 0.5954 -0.7205
vn 0.2151 0.1482 -0.9653
vn 0.6522 -0.3938 -0.6478
vn 0.6996 -0.7130 0.0461
vn 0.3297 -0.6225 0.7098
vn 0.6634 0.6960 0.2748
vn -0.2409 -0.1753 0.9546
vn -0.6780 0.3667 0.6371
vn -0.6634 -0.6960 -0.2748
vn -0.6107 0.4341 0.6622
vn -0.1750 -0.1063 0.9788
vn 0.3940 -0.5522 0.7347
vn 0.7628 -0.6425 0.0730
vn 0.7155 -0.3242 -0.6188
vn 0.2798 0.2162 -0.9354
vn -0.2892 0.6621 -0.6913
vn -0.6581 0.7524 -0.0296
vn -0.7467 0.6619 -0.0659
vn -0.3772 0.5715 -0.7288
vn 0.1928 0.1248 -0.9733
vn 0.6293 -0.4165 -0.6561
vn 0.6767 -0.7353 0.0369
vn 0.3072 -0.6449 0.6998
vn -0.2627 -0.1982 0.9443
vn -0.6993 0.3431 0.6271
vn 0.4479 0.6859 0.5735
vn -0.2915 0.5954 0.7487
vn -0.8573 0.1482 0.4930
vn -0.9182 -0.3938 -0.0438
vn -0.4383 -0.7130 -0.5472
vn 0.3010 -0.6225 -0.7224
vn -0.2451 0.6960 -0.6749
vn 0.8669 -0.1753 -0.4667
vn 0.9277 0.3667 0.0701
vn 0.2451 -0.6960 0.6749
vn 0.9009 0.4341 0.0035
vn 0.8402 -0.1063 -0.5317
vn 0.2761 -0.5522 -0.7867
vn -0.4612 -0.6425 -0.6120
vn -0.9396 -0.3242 -0.1101
vn -0.8789 0.2162 0.4251
vn -0.3148 0.6621 0.6801
vn 0.4224 0.7524 0.5054
vn 0.4555 0.6619 0.5953
vn -0.2830 0.5715 0.7703
vn -0.8481 0.1248 0.5149
vn -0.9089 -0.4165 -0.0213
vn -0.4296 -0.7353 -0.5241
vn 0.3089 -0.6449 -0.6990
vn 0.8740 -0.1982 -0.4437
vn 0.9347 0.3431 0.0925
vn 0.5347 0.7089 0.4600
vn 0.0680 0.3370 0.9390
vn -0.4302 -0.2397 0.8703
vn -0.6681 -0.6835 0.2941
vn -0.5063 -0.7343 -0.4521
vn -0.0396 -0.3625 -0.9312
vn -0.7290 0.6539 -0.2026
vn 0.4586 0.2143 -0.8624
vn 0.6965 0.6580 -0.2862
vn 0.7290 -0.6539 0.2026
vn 0.6227 0.7204 -0.3053
vn 0.3855 0.2780 -0.8798
vn -0.1112 -0.2971 -0.9484
vn -0.5765 -0.6679 -0.4707
vn -0.7378 -0.6172 0.2733
vn -0.5007 -0.1747 0.8478
vn -0.0039 0.4004 0.9163
vn 0.4614 0.7711 0.4387
vn 0.5583 0.6863 0.4662
vn 0.0922 0.3148 0.9447
vn -0.4054 -0.2612 0.8760
vn -0.6430 -0.7045 0.3005
vn -0.4814 -0.7552 -0.4448
vn -0.0153 -0.3838 -0.9233
vn 0.4823 0.1922 -0.8546
vn 0.7199 0.6355 -0.2791
usemtl Pine_Wood
s off
f 17//1 2//1 4//1 18//1
f 18//2 4//2 6//2 19//2
f 19//3 6//3 8//3 20//3
f 20//4 8//4 10//4 21//4
f 21//5 10//5 12//5 22//5
f 22//6 12//6 14//6 23//6
f 4//7 2//7 16//7 14//7 12//7 10//7 8//7 6//7
f 23//8 14//8 16//8 24//8
f 24//9 16//9 2//9 17//9
f 1//10 3//10 5//10 7//10 9//10 11//10 13//10 15//10
f 31//11 24//11 17//11 32//11
f 30//12 23//12 24//12 31//12
f 29//13 22//13 23//13 30//13
f 28//14 21//14 22//14 29//14
f 27//15 20//15 21//15 28//15
f 26//16 19//16 20//16 27//16
f 25//17 18//17 19//17 26//17
f 32//18 17//18 18//18 25//18
f 1//19 32//19 25//19 3//19
f 3//20 25//20 26//20 5//20
f 5//21 26//21 27//21 7//21
f 7//22 27//22 28//22 9//22
f 9//23 28//23 29//23 11//23
f 11//24 29//24 30//24 13//24
f 13//25 30//25 31//25 15//25
f 15//26 31//26 32//26 1//26
f 49//27 34//27 36//27 50//27
f 50//28 36//28 38//28 51//28
f 51//29 38//29 40//29 52//29
f 52//30 40//30 42//30 53//30
f 53//31 42//31 44//31 54//31
f 54//32 44//32 46//32 55//32
f 36//33 34//33 48//33 46//33 44//33 42//33 40//33 38//33
f 55//34 46//34 48//34 56//34
f 56//35 48//35 34//35 49//35
f 33//36 35//36 37//36 39//36 41//36 43//36 45//36 47//36
f 63//37 56//37 49//37 64//37
f 62//38 55//38 56//38 63//38
f 61//39 54//39 55//39 62//39
f 60//40 53//40 54//40 61//40
f 59//41 52//41 53//41 60//41
f 58//42 51//42 52//42 59//42
f 57//43 50//43 51//43 58//43
f 64//44 49//44 50//44 57//44
f 33//45 64//45 57//45 35//45
f 35//46 57//46 58//46 37//46
f 37//47 58//47 59//47 39//47
f 39//48 59//48 60//48 41//48
f 41//49 60//49 61//49 43//49
f 43//50 61//50 62//50 45//50
f 45//51 62//51 63//51 47//51
f 47//52 63//52 64//52 33//52
f 81//53 66//53 68//53 82//53
f 82//54 68//54 70//54 83//54
f 83//55 70//55 72//55 84//55
f 84//56 72//56 74//56 85//56
f 85//57 74//57 76//57 86//57
f 86//58 76//58 78//58 87//58
f 68//59 66//59 80//59 78//59 76//59 74//59 72//59 70//59
f 87//60 78//60 80//60 88//60
f 88//61 80//61 66//61 81//61
f 65//62 67//62 69//62 71//62 73//62 75//62 77//62 79//62
f 95//63 88//63 81//63 96//63
f 94//64 87//64 88//64 95//64
f 93//65 86//65 87//65 94//65
f 92//66 85//66 86//66 93//66
f 91//67 84//67 85//67 92//67
f 90//68 83//68 84//68 91//68
f 89//69 82//69 83//69 90//69
f 96//70 81//70 82//70 89//70
f 65//71 96//71 89//71 67//71
f 67//72 89//72 90//72 69//72
f 69//73 90//73 91//73 71//73
f 71//74 91//74 92//74 73//74
f 73//75 92//75 93//75 75//75
f 75//76 93//76 94//76 77//76
f 77//77 94//77 95//77 79//77
f 79//78 95//78 96//78 65//78
f 113//79 98//79 100//79 114//79
f 114//80 100//80 102//80 115//80
f 115//81 102//81 104//81 116//81
f 116//82 104//82 106//82 117//82
f 117//83 106//83 108//83 118//83
f 118//84 108//84 110//84 119//84
f 100//85 98//85 112//85 110//85 108//85 106//85 104//85 102//85
f 119//86 110//86 112//86 120//86
f 120//87 112//87 98//87 113//87
f 97//88 99//88 101//88 103//88 105//88 107//88 109//88 111//88
f 127//89 120//89 113//89 128//89
f 126//90 119//90 120//90 127//90
f 125//91 118//91 119//91 126//91
f 124//92 117//92 118//92 125//92
f 123//93 116//93 117//93 124//93
f 122//94 115//94 116//94 123//94
f 121//95 114//95 115//95 122//95
f 128//96 113//96 114//96 121//96
f 97//97 128//97 121//97 99//97
f 99//98 121//98 122//98 101//98
f 101//99 122//99 123//99 103//99
f 103//100 123//100 124//100 105//100
f 105//101 124//101 125//101 107//101
f 107//102 125//102 126//102 109//102
f 109//103 126//103 127//103 111//103
f 111//104 127//104 128//104 97//104
f 145//105 130//105 132//105 146//105
f 146//106 132//106 134//106 147//106
f 147//107 134//107 136//107 148//107
f 148//108 136//108 138//108 149//108
f 149//109 138//109 140//109 150//109
f 150//110 140//110 142//110 151//110
f 132//111 130//111 144//111 142//111 140//111 138//111 136//111 134//111
f 151//112 142//112 144//112 152//112
f 152//113 144//113 130//113 145//113
f 129//114 131//114 133//114 135//114 137//114 139//114 141//114 143//114
f 159//115 152//115 145//115 160//115
f 158//116 151//116 152//116 159//116
f 157//117 150//117 151//117 158//117
f 156//118 149//118 150//118 157//118
f 155//119 148//119 149//119 156//119
f 154//120 147//120 148//120 155//120
f 153//121 146//121 147//121 154//121
f 160//122 145//122 146//122 153//122
f 129//123 160//123 153//123 131//123
f 131//124 153//124 154//124 133//124
f 133//125 154//125 155//125 135//125
f 135//126 155//126 156//126 137//126
f 137//127 156//127 157//127 139//127
f 139//128 157//128 158//128 141//128
f 141//129 158//129 159//129 143//129
f 143//130 159//130 160//130 129//130
f 177//131 162//131 164//131 178//131
f 178//132 164//132 166//132 179//132
f 179//133 166//133 168//133 180//133
f 180//134 168//134 170//134 181//134
f 181//135 170//135 172//135 182//135
f 182//136 172//136 174//136 183//136
f 164//137 162//137 176//137 174//137 172//137 170//137 168//137 166//137
f 183//138 174//138 176//138 184//138
f 184//139 176//139 162//139 177//139
f 161//140 163//140 165//140 167//140 169//140 171//140 173//140 175//140
f 191//141 184//141 177//141 192//141
f 190//142 183//142 184//142 191//142
f 189//143 182//143 183//143 190//143
f 188//144 181//144 182//144 189//144
f 187//145 180//145 181//145 188//145
f 186//146 179//146 180//146 187//146
f 185//147 178//147 179//147 186//147
f 192//148 177//148 178//148 185//148
f 161//149 192//149 185//149 163//149
f 163//150 185//150 186//150 165//150
f 165//151 186//151 187//151 167//151
f 167//152 187//152 188//152 169//152
f 169//153 188//153 189//153 171//153
f 171//154 189//154 190//154 173//154
f 173//155 190//155 191//155 175//155
f 175//156 191//156 192//156 161//156
f 209//157 194//157 196//157 210//157
f 210//158 196//158 198//158 211//158
f 211//159 198//159 200//159 212//159
f 212//160 200//160 202//160 213//160
f 213//161 202//161 204//161 214//161
f 214//162 204//162 206//162 215//162
f 196//163 194//163 208//163 206//163 204//163 202//163 200//163 198//163
f 215//164 206//164 208//164 216//164
f 216//165 208//165 194//165 209//165
f 193//166 195//166 197//166 199//166 201//166 203//166 205//166 207//166
f 223//167 216//167 209//167 224//167
f 222//168 215//168 216//168 223//168
f 221//169 214//169 215//169 222//169
f 220//170 213//170 214//170 221//170
f 219//171 212//171 213//171 220//171
f 218//172 211//172 212//172 219//172
f 217//173 210//173 211//173 218//173
f 224//174 209//174 210//174 217//174
f 193//175 224//175 217//175 195//175
f 195//176 217//176 218//176 197//176
f 197//177 218//177 219//177 199//177
f 199//178 219//178 220//178 201//178
f 201//179 220//179 221//179 203//179
f 203//180 221//180 222//180 205//180
f 205//181 222//181 223//181 207//181
f 207//182 223//182 224//182 193//182
f 241//183 226//183 228//183 242//183
f 242//184 228//184 230//184 243//184
f 243//185 230//185 232//185 244//185
f 244//186 232//186 234//186 245//186
f 245//187 234//187 236//187 246//187
f 246//188 236//188 238//188 247//188
f 228//189 226//189 240//189 238//189 236//189 234//189 232//189 230//189
f 247//190 238//190 240//190 248//190
f 248//191 240//191 226//191 241//191
f 225//192 227//192 229//192 231//192 233//192 235//192 237//192 239//192
f 255//193 248//193 241//193 256//193
f 254//194 247//194 248//194 255//194
f 253//195 246//195 247//195 254//195
f 252//196 245//196 246//196 253//196
f 251//197 244//197 245//197 252//197
f 250//198 243//198 244//198 251//198
f 249//199 242//199 243//199 250//199
f 256//200 241//200 242//200 249//200
f 225//201 256//201 249//201 227//201
f 227//202 249//202 250//202 229//202
f 229//203 250//203 251//203 231//203
f 231//204 251//204 252//204 233//204
f 233//205 252//205 253//205 235//205
f 235//206 253//206 254//206 237//206
f 237//207 254//207 255//207 239//207
f 239//208 255//208 256//208 225//208
f 273//209 258//209 260//209 274//209
f 274//210 260//210 262//210 275//210
f 275//211 262//211 264//211 276//211
f 276//212 264//212 266//212 277//212
f 277//213 266//213 268//213 278//213
f 278//214 268//214 270//214 279//214
f 260//215 258//215 272//215 270//215 268//215 266//215 264//215 262//215
f 279//216 270//216 272//216 280//216
f 280//217 272//217 258//217 273//217
f 257//218 259//218 261//218 263//218 265//218 267//218 269//218 271//218
f 287//219 280//219 273//219 288//219
f 286//220 279//220 280//220 287//220
f 285//221 278//221 279//221 286//221
f 284//222 277//222 278//222 285//222
f 283//223 276//223 277//223 284//223
f 282//224 275//224 276//224 283//224
f 281//225 274//225 275//225 282//225
f 288//226 273//226 274//226 281//226
f 257//227 288//227 281//227 259//227
f 259//228 281//228 282//228 261//228
f 261//229 282//229 283//229 263//229
f 263//230 283//230 284//230 265//230
f 265//231 284//231 285//231 267//231
f 267//232 285//232 286//232 269//232
f 269//233 286//233 287//233 271//233
f 271//234 287//234 288//234 257//234
f 305//235 290//235 292//235 306//235
f 306//236 292//236 294//236 307//236
f 307//237 294//237 296//237 308//237
f 308//238 296//238 298//238 309//238
f 309//239 298//239 300//239 310//239
f 310//240 300//240 302//240 311//240
f 292//241 290//241 304//241 302//241 300//241 298//241 296//241 294//241
f 311//242 302//242 304//242 312//242
f 312//243 304//243 290//243 305//243
f 289//244 291//244 293//244 295//244 297//244 299//244 301//244 303//244
f 319//245 312//245 305//245 320//245
f 318//246 311//246 312//246 319//246
f 317//247 310//247 311//247 318//247
f 316//248 309//248 310//248 317//248
f 315//249 308//249 309//249 316//249
f 314//250 307//250 308//250 315//250
f 313//251 306//251 307//251 314//251
f 320//252 305//252 306//252 313//252
f 289//253 320//253 313//253 291//253
f 291//254 313//254 314//254 293//254
f 293//255 314//255 315//255 295//255
f 295//256 315//256 316//256 297//256
f 297//257 316//257 317//257 299//257
f 299//258 317//258 318//258 301//258
f 301//259 318//259 319//259 303//259
f 303//260 319//260 320//260 289//260
