# Blender v2.77 (sub 0) OBJ File: 'leafTree.blend'
# www.blender.org
mtllib leafTree.mtl
o WhiteTreeWood_Cylinder
v 0.000000 0.013450 -0.277641
v 0.000000 1.585064 -0.186260
v 0.196322 0.013450 -0.196322
v 0.131706 1.585064 -0.131706
v 0.277641 0.013450 0.000000
v 0.186260 1.544072 0.000000
v 0.196322 0.013450 0.196322
v 0.131706 1.585064 0.131706
v -0.000000 0.013450 0.277641
v -0.000000 1.667052 0.186260
v -0.196322 0.013450 0.196322
v -0.131706 1.585064 0.131706
v -0.277641 0.013450 -0.000000
v -0.198762 1.539107 0.001854
v -0.196322 0.013450 -0.196322
v -0.131706 1.585064 -0.131706
v 0.381811 3.289649 -0.042391
v 0.339421 3.289649 -0.059950
v 0.399370 3.289649 -0.000000
v 0.381811 3.289649 0.042391
v 0.339421 3.289649 0.059949
v 0.297030 3.289649 0.042391
v 0.279471 3.289649 -0.000000
v 0.297030 3.289649 -0.042391
v 0.190911 2.420652 -0.000000
v 0.157748 2.435413 0.087635
v -0.002376 2.506688 0.087635
v -0.035539 2.521449 -0.000000
v 0.077686 2.471050 0.123935
v -0.002376 2.506688 -0.087635
v 0.157748 2.435413 -0.087635
v 0.077686 2.471050 -0.123935
v 0.000000 0.282870 -0.186260
v 0.131706 0.282870 -0.131706
v 0.186260 0.282870 0.000000
v 0.131706 0.282870 0.131706
v -0.000000 0.282870 0.186260
v -0.131706 0.282870 0.131706
v -0.186260 0.282870 -0.000000
v -0.131706 0.282870 -0.131706
v 0.143326 1.964495 0.112041
v -0.130722 1.972124 -0.006032
v 0.034664 1.980397 0.158450
v -0.104635 1.888943 -0.112041
v 0.034664 1.980397 -0.158450
v 0.188335 2.002627 0.000000
v -0.104635 1.888943 0.112041
v 0.143326 1.964495 -0.112041
v -1.262152 3.080303 0.305707
v -1.273222 3.077695 0.283781
v -1.258801 3.069660 0.264729
v -1.198292 3.124356 0.276474
v -1.203988 3.108174 0.262496
v -1.206839 3.117227 0.297356
v -0.690425 2.415919 0.193234
v -0.722045 2.190589 0.204009
v -0.690425 2.415919 0.070451
v -0.704719 2.461497 0.128537
v -0.758787 2.165408 0.132858
v -0.722045 2.190589 0.059676
v 0.000000 1.188053 -0.186260
v 0.131706 1.188053 -0.131706
v 0.186260 1.188053 0.000000
v 0.131706 1.188053 0.131706
v -0.000000 1.166190 0.186260
v -0.131706 1.188053 0.131706
v -0.194950 1.156108 0.001289
v -0.131706 1.188053 -0.131706
v 0.103775 2.788482 1.249439
v 0.073688 2.810977 1.249761
v 0.043601 2.788482 1.249439
v 0.103775 2.712265 1.298597
v 0.073688 2.714823 1.311777
v 0.043601 2.712265 1.298597
v 0.131586 1.848538 0.876075
v 0.055964 1.861092 0.844752
v 0.131586 2.136120 0.876075
v 0.207208 2.089045 0.844752
v 0.055964 2.089045 0.844752
v 0.207208 1.861092 0.844752
v 1.206357 2.763329 -0.482903
v 1.212247 2.758904 -0.468684
v 1.206357 2.763329 -0.454465
v 1.207612 2.804292 -0.456588
v 1.212471 2.808409 -0.468684
v 1.207612 2.804292 -0.480780
v 0.759047 2.242352 -0.158381
v 0.734113 2.221228 -0.220450
v 0.727675 2.011030 -0.231344
v 0.757898 1.988322 -0.158381
v 0.734113 2.221228 -0.096313
v 0.727675 2.011030 -0.085419
v 0.189524 2.195573 -0.000000
v -0.040940 2.231877 0.100776
v 0.149983 2.181855 -0.100776
v 0.149983 2.181855 0.100776
v -0.070293 2.283477 -0.003248
v 0.054521 2.206866 0.142519
v -0.040940 2.231877 -0.100776
v 0.054521 2.206866 -0.142519
v -0.616927 3.295161 -1.172982
v -0.613767 3.293754 -1.181332
v -0.606139 3.290359 -1.184790
v -0.620238 3.272486 -1.173291
v -0.617441 3.267570 -1.182584
v -0.608346 3.265187 -1.186561
v -0.251679 2.490620 -0.542280
v -0.232661 2.457188 -0.605469
v -0.170812 2.440984 -0.632514
v -0.155804 2.612149 -0.620473
v -0.207676 2.635238 -0.596955
v -0.229162 2.644802 -0.540176
vn 0.3827 0.0000 -0.9239
vn 0.9239 0.0000 -0.3827
vn 0.9239 0.0000 0.3827
vn 0.0688 0.4978 -0.8646
vn -0.3838 -0.4370 0.8135
vn -0.8936 -0.0047 0.4488
vn 0.9010 -0.2163 0.3760
vn -0.8979 -0.0041 -0.4401
vn -0.3827 0.0000 -0.9239
vn 0.0000 -1.0000 0.0000
vn 0.0000 1.0000 -0.0000
vn -0.8582 0.3509 0.3746
vn 0.3891 -0.0529 0.9197
vn -0.8582 0.3509 -0.3746
vn 0.9010 -0.2163 -0.3760
vn -0.3500 0.1852 0.9183
vn -0.3500 0.1852 -0.9183
vn 0.3891 -0.0529 -0.9197
vn 0.4150 0.0309 -0.9093
vn 0.7682 -0.0223 -0.6399
vn -0.3761 0.0973 0.9215
vn 0.9329 -0.0080 -0.3600
vn -0.8938 -0.4474 -0.0323
vn 0.4150 0.0309 0.9093
vn -0.9262 0.1392 0.3503
vn 0.9329 -0.0080 0.3600
vn -0.3652 0.2990 -0.8816
vn -0.8816 0.2990 -0.3652
vn -0.8816 0.2990 0.3652
vn -0.3652 0.2990 0.8816
vn 0.3652 0.2990 0.8816
vn 0.8816 0.2990 0.3652
vn 0.8816 0.2990 -0.3652
vn 0.3652 0.2990 -0.8816
vn 0.6719 -0.5811 -0.4592
vn 0.6651 0.6044 -0.4386
vn 0.3995 0.0361 0.9160
vn 0.1991 0.0055 0.9800
vn -0.7554 0.6501 0.0822
vn -0.4083 0.1105 0.9061
vn -0.3757 0.0958 -0.9218
vn 0.3889 0.0332 -0.9207
vn -0.5260 0.8420 0.1199
vn -0.4696 0.6482 -0.5993
vn -0.7095 -0.4866 0.5097
vn 0.7959 0.5379 0.2779
vn -0.2149 0.1018 -0.9713
vn -0.7854 -0.3610 -0.5028
vn -0.6880 -0.5065 -0.5197
vn -0.2300 0.0813 -0.9698
vn 0.6558 0.6777 0.3326
vn -0.5792 -0.6269 0.5210
vn 0.1655 0.0383 0.9855
vn 0.5181 0.7302 -0.4454
vn -0.9134 -0.0042 -0.4070
vn -0.9119 -0.0048 0.4104
vn -0.3827 0.0000 0.9239
vn 0.3827 0.0000 0.9239
vn 0.3827 0.5008 0.7764
vn -0.3827 0.5008 0.7764
vn -0.9997 -0.0036 -0.0223
vn 0.9826 0.0296 0.1833
vn 0.3880 -0.3949 0.8328
vn -0.0618 0.4895 -0.8698
vn -0.3013 0.8142 -0.4962
vn 0.3707 -0.6947 0.6165
vn 0.9944 0.0000 -0.1053
vn -0.9671 0.0000 0.2545
vn -0.3862 -0.6179 0.6849
vn 0.2461 0.7790 -0.5767
vn 0.9257 -0.0063 0.3782
vn 0.9257 -0.0063 -0.3782
vn -0.8071 0.5763 -0.1281
vn 0.8382 -0.3149 0.4452
vn -0.5367 0.0601 -0.8416
vn 0.5865 0.0240 0.8096
vn 0.3171 0.0394 0.9476
vn -0.2041 0.0569 -0.9773
vn 0.6215 -0.6372 0.4558
vn -0.3386 0.9239 0.1784
vn -0.4160 0.8987 -0.1387
vn 0.4744 -0.7655 -0.4347
vn 0.9300 -0.0077 0.3676
vn -0.9233 0.1796 0.3394
vn 0.4017 0.0321 0.9152
vn -0.9120 0.1809 -0.3682
vn 0.9300 -0.0077 -0.3676
vn -0.3742 0.0990 0.9220
vn -0.3742 0.0990 -0.9220
vn 0.4017 0.0321 -0.9152
vn -0.3761 0.0973 -0.9215
vn -0.9210 0.1433 -0.3623
vn 0.5253 0.7226 0.4492
vn -0.4409 -0.6501 -0.6189
vn 0.7573 0.6275 0.1809
vn -0.7945 0.1079 0.5977
vn -0.9236 0.1300 0.3607
vn 0.4739 0.8800 0.0311
vn -0.3518 -0.8972 -0.2669
vn 0.4270 0.9025 0.0557
vn -0.8187 -0.5714 0.0559
vn 0.8986 -0.0481 -0.4362
usemtl WhiteTreeWood
s off
f 61//1 2//1 4//1 62//1
f 62//2 4//2 6//2 63//2
f 63//3 6//3 8//3 64//3
f 78//4 77//4 70//4 69//4
f 76//5 75//5 73//5 74//5
f 66//6 12//6 14//6 67//6
f 26//7 25//7 19//7 20//7
f 67//8 14//8 16//8 68//8
f 68//9 16//9 2//9 61//9
f 1//10 3//10 5//10 7//10 9//10 11//10 13//10 15//10
f 17//11 18//11 24//11 23//11 22//11 21//11 20//11 19//11
f 28//12 27//12 22//12 23//12
f 29//13 26//13 20//13 21//13
f 30//14 28//14 23//14 24//14
f 25//15 31//15 17//15 19//15
f 27//16 29//16 21//16 22//16
f 32//17 30//17 24//17 18//17
f 31//18 32//18 18//18 17//18
f 95//19 100//19 32//19 31//19
f 110//20 109//20 106//20 103//20
f 94//21 98//21 29//21 27//21
f 93//22 95//22 31//22 25//22
f 108//23 107//23 104//23 105//23
f 98//24 96//24 26//24 29//24
f 97//25 94//25 27//25 28//25
f 96//26 93//26 25//26 26//26
f 15//27 40//27 33//27 1//27
f 13//28 39//28 40//28 15//28
f 11//29 38//29 39//29 13//29
f 9//30 37//30 38//30 11//30
f 7//31 36//31 37//31 9//31
f 5//32 35//32 36//32 7//32
f 3//33 34//33 35//33 5//33
f 1//34 33//34 34//34 3//34
f 90//35 89//35 81//35 82//35
f 58//36 57//36 53//36 52//36
f 10//37 8//37 41//37 43//37
f 56//38 55//38 54//38 49//38
f 88//39 87//39 85//39 86//39
f 12//40 10//40 43//40 47//40
f 2//41 16//41 44//41 45//41
f 4//42 2//42 45//42 48//42
f 50//43 49//43 54//43 52//43
f 51//44 50//44 52//44 53//44
f 59//45 56//45 49//45 50//45
f 55//46 58//46 52//46 54//46
f 57//47 60//47 51//47 53//47
f 60//48 59//48 50//48 51//48
f 16//49 14//49 59//49 60//49
f 44//50 16//50 60//50 57//50
f 47//51 42//51 58//51 55//51
f 14//52 12//52 56//52 59//52
f 12//53 47//53 55//53 56//53
f 42//54 44//54 57//54 58//54
f 40//9 68//9 61//9 33//9
f 39//55 67//55 68//55 40//55
f 38//56 66//56 67//56 39//56
f 37//57 65//57 66//57 38//57
f 36//58 64//58 65//58 37//58
f 35//3 63//3 64//3 36//3
f 34//2 62//2 63//2 35//2
f 33//1 61//1 62//1 34//1
f 72//59 69//59 70//59 73//59
f 73//60 70//60 71//60 74//60
f 79//61 76//61 74//61 71//61
f 80//62 78//62 69//62 72//62
f 75//63 80//63 72//63 73//63
f 77//64 79//64 71//64 70//64
f 10//65 12//65 79//65 77//65
f 65//66 64//66 80//66 75//66
f 64//67 8//67 78//67 80//67
f 12//68 66//68 76//68 79//68
f 66//69 65//69 75//69 76//69
f 8//70 10//70 77//70 78//70
f 83//71 82//71 85//71 84//71
f 82//72 81//72 86//72 85//72
f 87//73 91//73 84//73 85//73
f 92//74 90//74 82//74 83//74
f 89//75 88//75 86//75 81//75
f 91//76 92//76 83//76 84//76
f 41//77 8//77 92//77 91//77
f 4//78 48//78 88//78 89//78
f 8//79 6//79 90//79 92//79
f 46//80 41//80 91//80 87//80
f 48//81 46//81 87//81 88//81
f 6//82 4//82 89//82 90//82
f 41//83 46//83 93//83 96//83
f 42//84 47//84 94//84 97//84
f 43//85 41//85 96//85 98//85
f 44//86 42//86 97//86 99//86
f 46//87 48//87 95//87 93//87
f 47//88 43//88 98//88 94//88
f 45//89 44//89 99//89 100//89
f 48//90 45//90 100//90 95//90
f 106//91 105//91 102//91 103//91
f 105//92 104//92 101//92 102//92
f 111//93 110//93 103//93 102//93
f 109//94 108//94 105//94 106//94
f 112//95 111//95 102//95 101//95
f 107//96 112//96 101//96 104//96
f 97//97 28//97 112//97 107//97
f 28//98 30//98 111//98 112//98
f 100//99 99//99 108//99 109//99
f 30//100 32//100 110//100 111//100
f 99//101 97//101 107//101 108//101
f 32//102 100//102 109//102 110//102
o Icosphere.004
v -0.046753 3.528370 -0.806101
v 0.584393 3.388331 -1.511784
v -0.276705 3.665450 -1.557709
v -0.826862 3.501662 -0.659819
v -0.602988 3.102804 -0.173108
v 0.418467 2.973898 -0.795175
v -0.497666 3.142092 -2.000533
v -1.013131 3.340147 -1.731724
v -1.389429 3.070338 -0.747463
v -0.642130 2.736999 -0.778019
v 0.308446 2.818977 -1.549130
v -0.974275 2.859865 -1.759222
v -0.240007 3.675247 -1.203707
v 0.457552 3.544180 -1.273380
v 0.344782 3.565867 -1.664155
v 0.591767 3.140367 -1.145251
v 0.226976 3.300000 -0.765167
v -0.486315 3.557020 -0.735440
v -0.629651 3.645462 -1.185948
v -0.419423 3.306082 -0.320555
v -0.747737 3.324290 -0.245959
v -0.153374 3.087856 -0.434025
v 0.464163 3.088491 -1.552946
v 0.474216 2.876089 -1.182853
v -0.327227 3.409911 -1.957198
v 0.286979 3.348492 -1.882372
v -0.982405 3.539983 -1.240441
v -0.665414 3.525535 -1.741228
v -1.004240 3.082897 -0.300638
v -1.106511 3.351446 -0.618515
v 0.090631 2.740942 -0.757938
v -0.676720 2.886448 -0.346703
v 0.006253 3.005749 -1.890401
v -0.694718 3.191943 -2.067614
v -1.270684 3.180791 -1.280511
v -1.073520 2.866412 -0.624591
v 0.039937 2.707088 -1.154079
v -0.635450 2.905694 -1.974181
v -0.506898 2.755092 -1.498865
v -0.816420 2.955096 -1.967180
v -1.208199 2.889406 -1.356606
v -0.835189 2.738974 -1.051115
vn 0.2029 0.9465 0.2510
vn 0.8979 0.3727 0.2341
vn 0.1096 0.9485 0.2971
vn 0.1357 0.8573 0.4966
vn 0.4396 0.6399 0.6303
vn 0.9114 -0.3321 -0.2430
vn 0.0416 0.8393 -0.5421
vn -0.3038 0.9419 0.1436
vn -0.3060 0.1110 0.9455
vn 0.4106 -0.4511 0.7924
vn 0.7712 -0.2276 -0.5945
vn -0.0520 0.8442 -0.5334
vn -0.4453 0.8777 0.1772
vn -0.2251 -0.5619 0.7960
vn 0.5773 -0.7682 0.2768
vn 0.1574 -0.1995 -0.9672
vn -0.7092 0.0668 -0.7018
vn -0.9595 -0.1422 -0.2432
vn -0.2321 -0.9599 0.1571
vn 0.0617 -0.9705 -0.2330
vn -0.1420 -0.9800 -0.1394
vn -0.0444 -0.9967 -0.0684
vn -0.0344 -0.9993 0.0171
vn -0.2980 -0.9490 -0.1035
vn -0.4058 -0.9128 0.0460
vn -0.5618 -0.8236 0.0775
vn -0.8223 0.2756 -0.4980
vn -0.8391 -0.0383 -0.5426
vn -0.8453 -0.1125 -0.5223
vn -0.2398 -0.8008 -0.5488
vn -0.1266 -0.3314 -0.9350
vn 0.2541 -0.2522 -0.9337
vn -0.0537 -0.9560 -0.2884
vn 0.1882 -0.9204 -0.3426
vn 0.0365 -0.8627 -0.5044
vn 0.3615 -0.9322 -0.0183
vn 0.3644 -0.9307 0.0329
vn 0.0030 -0.9964 0.0848
vn -0.1702 -0.9352 0.3104
vn -0.3621 -0.7374 0.5702
vn -0.5957 -0.6032 0.5305
vn -0.7027 0.7114 -0.0091
vn -0.7813 0.6233 0.0331
vn -0.7514 0.6263 -0.2077
vn -0.3725 0.6655 -0.6468
vn -0.2039 0.6937 -0.6907
vn 0.3118 -0.0448 -0.9491
vn 0.1796 -0.1243 -0.9758
vn 0.5794 -0.4588 -0.6737
vn 0.5954 -0.3542 -0.7211
vn -0.0039 -0.9450 0.3271
vn 0.3290 -0.5104 0.7945
vn 0.3627 -0.6553 0.6626
vn -0.6906 0.4275 0.5833
vn -0.6044 0.5021 0.6186
vn -0.3789 0.8222 0.4248
vn -0.4537 0.8350 -0.3113
vn -0.2545 0.9485 -0.1885
vn -0.2525 0.9490 -0.1887
vn 0.1283 0.0783 -0.9886
vn 0.1553 0.6790 -0.7175
vn 0.6870 0.4157 -0.5960
vn 0.8246 -0.4807 -0.2983
vn 0.9001 -0.3669 -0.2350
vn 0.8759 -0.4227 0.2326
vn 0.5521 0.2511 0.7950
vn 0.5494 0.2563 0.7953
vn 0.4991 0.1662 0.8505
vn 0.2225 0.4328 0.8736
vn 0.1593 0.8559 0.4920
vn -0.0590 0.9134 0.4028
vn -0.1076 0.9685 0.2244
vn -0.0649 0.9751 0.2121
vn -0.0771 0.9968 -0.0196
vn 0.7413 0.3847 0.5499
vn 0.7373 0.4144 0.5336
vn 0.4862 0.6809 0.5477
vn 0.1509 0.9876 -0.0430
vn 0.1848 0.9828 0.0012
vn 0.6470 0.7486 -0.1452
usemtl WhiteTreeMedium
s off
f 113//103 126//103 125//103
f 114//104 126//104 128//104
f 113//105 125//105 130//105
f 113//106 130//106 132//106
f 113//107 132//107 129//107
f 114//108 128//108 135//108
f 115//109 127//109 137//109
f 116//110 131//110 139//110
f 117//111 133//111 141//111
f 118//112 134//112 143//112
f 114//113 135//113 138//113
f 115//114 137//114 140//114
f 116//115 139//115 142//115
f 117//116 141//116 144//116
f 118//117 143//117 136//117
f 119//118 145//118 150//118
f 120//119 146//119 152//119
f 121//120 147//120 153//120
f 122//121 148//121 154//121
f 123//122 149//122 151//122
f 151//123 154//123 124//123
f 151//124 149//124 154//124
f 149//125 122//125 154//125
f 154//126 153//126 124//126
f 154//127 148//127 153//127
f 148//128 121//128 153//128
f 153//129 152//129 124//129
f 153//130 147//130 152//130
f 147//131 120//131 152//131
f 152//132 150//132 124//132
f 152//133 146//133 150//133
f 146//134 119//134 150//134
f 150//135 151//135 124//135
f 150//136 145//136 151//136
f 145//137 123//137 151//137
f 136//138 149//138 123//138
f 136//139 143//139 149//139
f 143//140 122//140 149//140
f 144//141 148//141 122//141
f 144//142 141//142 148//142
f 141//143 121//143 148//143
f 142//144 147//144 121//144
f 142//145 139//145 147//145
f 139//146 120//146 147//146
f 140//147 146//147 120//147
f 140//148 137//148 146//148
f 137//149 119//149 146//149
f 138//150 145//150 119//150
f 138//151 135//151 145//151
f 135//152 123//152 145//152
f 143//153 144//153 122//153
f 143//154 134//154 144//154
f 134//155 117//155 144//155
f 141//156 142//156 121//156
f 141//157 133//157 142//157
f 133//158 116//158 142//158
f 139//159 140//159 120//159
f 139//160 131//160 140//160
f 131//161 115//161 140//161
f 137//162 138//162 119//162
f 137//163 127//163 138//163
f 127//164 114//164 138//164
f 135//165 136//165 123//165
f 135//166 128//166 136//166
f 128//167 118//167 136//167
f 129//168 134//168 118//168
f 129//169 132//169 134//169
f 132//170 117//170 134//170
f 132//171 133//171 117//171
f 132//172 130//172 133//172
f 130//173 116//173 133//173
f 130//174 131//174 116//174
f 130//175 125//175 131//175
f 125//176 115//176 131//176
f 128//177 129//177 118//177
f 128//178 126//178 129//178
f 126//179 113//179 129//179
f 125//180 127//180 115//180
f 125//181 126//181 127//181
f 126//182 114//182 127//182
o Icosphere.003
v 0.666820 2.103619 1.148035
v 1.137374 2.742207 1.950506
v 0.221285 2.191815 1.768319
v -0.087052 2.086149 0.807797
v 0.306483 2.624285 0.418211
v 1.166138 2.946331 1.301486
v -0.070608 2.946494 2.099040
v -0.543968 2.601575 1.723037
v -0.642238 2.743607 0.728679
v 0.188152 3.033137 0.886561
v 0.887447 3.160916 1.876624
v -0.457970 3.256256 1.762076
v 0.351052 2.047370 1.458588
v 1.056064 2.370961 1.704544
v 0.836076 2.510043 2.027864
v 1.262232 2.941246 1.611447
v 0.978371 2.615778 1.179384
v 0.234766 1.926391 0.967814
v -0.038493 2.022335 1.338267
v 0.436258 2.367051 0.605964
v 0.119609 2.322530 0.451588
v 0.698317 2.747923 0.774909
v 1.018041 2.848549 1.924549
v 1.151766 3.142404 1.598519
v 0.088917 2.636489 2.110576
v 0.740420 2.792356 2.205238
v -0.402257 2.195338 1.291510
v -0.209838 2.387247 1.827832
v -0.133136 2.657510 0.427918
v -0.346794 2.320661 0.693095
v 0.878441 3.036583 1.097376
v 0.205568 2.858424 0.543220
v 0.484969 3.151475 2.130982
v -0.293859 2.877953 2.108168
v -0.672279 2.686715 1.243854
v -0.270822 2.924509 0.692865
v 0.728878 3.353867 1.446608
v -0.181489 3.202168 2.033886
v 0.089181 3.403732 1.635861
v -0.368783 3.125233 1.980383
v -0.600823 3.071144 1.323423
v -0.111057 3.201555 1.128232
vn 0.3529 -0.9155 0.1930
vn 0.9362 -0.3121 0.1616
vn 0.3189 -0.9350 0.1549
vn 0.5024 -0.6742 -0.5413
vn 0.7433 -0.4203 -0.5204
vn 0.4747 0.6715 0.5690
vn -0.0163 -0.6129 0.7900
vn -0.4211 -0.9043 -0.0702
vn -0.0289 -0.0922 -0.9953
vn 0.6111 0.3889 -0.6894
vn 0.4621 0.6624 0.5896
vn -0.1833 -0.6333 0.7519
vn -0.5997 -0.7703 -0.2169
vn 0.0166 0.4765 -0.8790
vn 0.5400 0.7142 -0.4453
vn -0.1271 0.1928 0.9730
vn -0.8450 0.0201 0.5343
vn -0.9811 0.1899 -0.0362
vn 0.0316 0.8380 -0.5448
vn 0.1749 0.9208 0.3487
vn -0.3048 0.9200 -0.2462
vn -0.0333 0.9330 -0.3584
vn 0.0477 0.8462 -0.5307
vn -0.3459 0.8995 -0.2669
vn -0.3797 0.8373 -0.3934
vn -0.4308 0.8028 -0.4121
vn -0.9382 -0.0761 0.3376
vn -0.9402 0.1079 0.3232
vn -0.9426 0.1759 0.2837
vn -0.4454 0.6757 0.5875
vn -0.3822 0.3302 0.8631
vn -0.0320 0.2337 0.9718
vn -0.1668 0.9207 0.3528
vn 0.0019 0.8916 0.4528
vn 0.1839 0.9275 0.3255
vn 0.3500 0.8961 0.2730
vn 0.5230 0.7303 -0.4395
vn 0.1844 0.7655 -0.6165
vn -0.0191 0.8907 -0.4542
vn -0.1403 0.6600 -0.7380
vn -0.3471 0.5643 -0.7491
vn -0.8191 -0.5630 -0.1099
vn -0.8544 -0.4871 -0.1812
vn -0.8724 -0.4648 0.1510
vn -0.5302 -0.4872 0.6939
vn -0.3270 -0.5104 0.7954
vn 0.0254 0.0502 0.9984
vn -0.1045 0.1296 0.9861
vn 0.5500 0.5254 0.6492
vn 0.4985 0.3313 0.8011
vn 0.1313 0.8862 -0.4443
vn 0.4561 0.5212 -0.7213
vn 0.4516 0.5638 -0.6915
vn -0.5224 -0.2977 -0.7991
vn -0.4244 -0.3784 -0.8226
vn -0.3327 -0.6853 -0.6478
vn -0.5778 -0.6804 0.4508
vn -0.4315 -0.7891 0.4372
vn -0.2991 -0.8123 0.5008
vn -0.1359 -0.0331 0.9902
vn 0.0039 -0.5310 0.8473
vn 0.4751 -0.3471 0.8086
vn 0.6827 0.3811 0.6235
vn 0.6599 0.4031 0.6340
vn 0.8539 0.4524 -0.2573
vn 0.7689 -0.2143 -0.6024
vn 0.7554 -0.2513 -0.6051
vn 0.6919 -0.1642 -0.7031
vn 0.4488 -0.3680 -0.8144
vn 0.3951 -0.6841 -0.6131
vn -0.1034 -0.8001 -0.5909
vn -0.4149 -0.9071 -0.0711
vn -0.0124 -0.9702 0.2421
vn -0.0646 -0.9145 0.3994
vn 0.8757 -0.3948 -0.2780
vn 0.8799 -0.3673 -0.3014
vn 0.8123 -0.4733 -0.3408
vn 0.2294 -0.8418 0.4887
vn 0.2093 -0.8385 0.5031
vn 0.5725 -0.5363 0.6202
usemtl WhiteTreeMedium
s off
f 155//183 168//183 167//183
f 156//184 168//184 170//184
f 155//185 167//185 172//185
f 155//186 172//186 174//186
f 155//187 174//187 171//187
f 156//188 170//188 177//188
f 157//189 169//189 179//189
f 158//190 173//190 181//190
f 159//191 175//191 183//191
f 160//192 176//192 185//192
f 156//193 177//193 180//193
f 157//194 179//194 182//194
f 158//195 181//195 184//195
f 159//196 183//196 186//196
f 160//197 185//197 178//197
f 161//198 187//198 192//198
f 162//199 188//199 194//199
f 163//200 189//200 195//200
f 164//201 190//201 196//201
f 165//202 191//202 193//202
f 193//203 196//203 166//203
f 193//204 191//204 196//204
f 191//205 164//205 196//205
f 196//206 195//206 166//206
f 196//207 190//207 195//207
f 190//208 163//208 195//208
f 195//209 194//209 166//209
f 195//210 189//210 194//210
f 189//211 162//211 194//211
f 194//212 192//212 166//212
f 194//213 188//213 192//213
f 188//214 161//214 192//214
f 192//215 193//215 166//215
f 192//216 187//216 193//216
f 187//217 165//217 193//217
f 178//218 191//218 165//218
f 178//219 185//219 191//219
f 185//220 164//220 191//220
f 186//221 190//221 164//221
f 186//222 183//222 190//222
f 183//223 163//223 190//223
f 184//224 189//224 163//224
f 184//225 181//225 189//225
f 181//226 162//226 189//226
f 182//227 188//227 162//227
f 182//228 179//228 188//228
f 179//229 161//229 188//229
f 180//230 187//230 161//230
f 180//231 177//231 187//231
f 177//232 165//232 187//232
f 185//233 186//233 164//233
f 185//234 176//234 186//234
f 176//235 159//235 186//235
f 183//236 184//236 163//236
f 183//237 175//237 184//237
f 175//238 158//238 184//238
f 181//239 182//239 162//239
f 181//240 173//240 182//240
f 173//241 157//241 182//241
f 179//242 180//242 161//242
f 179//243 169//243 180//243
f 169//244 156//244 180//244
f 177//245 178//245 165//245
f 177//246 170//246 178//246
f 170//247 160//247 178//247
f 171//248 176//248 160//248
f 171//249 174//249 176//249
f 174//250 159//250 176//250
f 174//251 175//251 159//251
f 174//252 172//252 175//252
f 172//253 158//253 175//253
f 172//254 173//254 158//254
f 172//255 167//255 173//255
f 167//256 157//256 173//256
f 170//257 171//257 160//257
f 170//258 168//258 171//258
f 168//259 155//259 171//259
f 167//260 169//260 157//260
f 167//261 168//261 169//261
f 168//262 156//262 169//262
o Icosphere.002
v 0.935586 2.815315 -0.211692
v 1.561702 2.621203 -0.107772
v 1.293765 2.866594 -0.733763
v 0.694961 2.696666 -0.602478
v 0.575161 2.446165 -0.097516
v 1.226043 2.403388 0.312310
v 1.657119 2.486369 -0.867966
v 1.362616 2.493675 -1.091773
v 0.759110 2.288162 -0.820552
v 0.943866 2.154394 -0.282985
v 1.625440 2.232847 -0.118910
v 1.512164 2.258595 -0.940288
v 1.081485 2.893109 -0.566521
v 1.321323 2.809028 -0.137286
v 1.524341 2.736466 -0.411446
v 1.417493 2.525873 0.182821
v 1.049138 2.616535 0.057599
v 0.794890 2.796329 -0.451639
v 1.005250 2.824602 -0.766853
v 0.643419 2.636267 -0.117787
v 0.511692 2.587111 -0.303154
v 0.846172 2.431398 0.063862
v 1.696473 2.393571 -0.191337
v 1.447459 2.326277 0.148748
v 1.617568 2.615848 -0.837694
v 1.727074 2.479846 -0.462117
v 1.002610 2.669327 -0.952275
v 1.378772 2.706541 -0.968067
v 0.583492 2.325706 -0.405571
v 0.659524 2.515018 -0.703139
v 1.095779 2.287336 0.098237
v 0.731199 2.229195 -0.172394
v 1.765668 2.304433 -0.517637
v 1.664779 2.515417 -0.984575
v 1.075549 2.381095 -1.005916
v 0.826904 2.201413 -0.526905
v 1.314007 2.143452 -0.122587
v 1.659985 2.358182 -0.857428
v 1.415709 2.209969 -0.626476
v 1.610886 2.384418 -0.957225
v 1.184891 2.235031 -0.949585
v 1.117065 2.121845 -0.554925
vn -0.0236 0.9785 0.2048
vn 0.5011 0.7174 0.4840
vn -0.2853 0.9540 0.0918
vn -0.4632 0.8626 0.2034
vn -0.2412 0.7294 0.6401
vn 0.8128 0.2973 0.5009
vn 0.5895 0.8018 -0.0980
vn -0.5480 0.6451 -0.5324
vn -0.9508 -0.2965 0.0902
vn -0.4539 -0.6380 0.6221
vn 0.8717 0.4297 0.2354
vn 0.4964 0.7901 -0.3596
vn -0.6477 0.4621 -0.6058
vn -0.7538 -0.6186 0.2215
vn 0.0319 -0.8867 0.4613
vn 0.9547 -0.0031 -0.2974
vn 0.3370 -0.3233 -0.8843
vn -0.3056 -0.5330 -0.7890
vn -0.2691 -0.9615 -0.0563
vn 0.2760 -0.9585 -0.0708
vn 0.2677 -0.9612 -0.0667
vn 0.2661 -0.9612 -0.0732
vn -0.0635 -0.9949 0.0786
vn 0.0767 -0.9618 -0.2627
vn -0.2792 -0.9093 -0.3087
vn -0.1908 -0.9525 -0.2373
vn 0.0398 -0.1639 -0.9857
vn 0.0882 -0.3002 -0.9498
vn 0.0682 -0.7092 -0.7017
vn 0.6591 -0.5814 -0.4771
vn 0.7672 -0.4173 -0.4871
vn 0.9970 0.0282 0.0725
vn 0.5439 -0.8383 0.0373
vn 0.3230 -0.9141 -0.2450
vn 0.2810 -0.9569 -0.0730
vn 0.2402 -0.8557 0.4584
vn 0.0125 -0.8321 0.5545
vn -0.1963 -0.8989 0.3917
vn -0.3401 -0.9402 -0.0181
vn -0.4776 -0.8765 -0.0602
vn -0.5034 -0.8533 -0.1359
vn -0.5371 0.1896 -0.8219
vn -0.5881 0.0017 -0.8088
vn -0.3192 0.0947 -0.9430
vn 0.2650 0.4694 -0.8423
vn 0.5005 0.7812 -0.3733
vn 0.9565 0.2622 0.1281
vn 0.9522 0.2601 -0.1600
vn 0.9733 0.1629 0.1619
vn 0.9194 -0.2836 0.2724
vn -0.1297 -0.9191 0.3722
vn -0.4273 -0.5736 0.6989
vn -0.4458 -0.5613 0.6973
vn -0.9072 -0.2093 -0.3650
vn -0.9373 -0.1310 -0.3228
vn -0.8453 0.3755 -0.3801
vn -0.0860 0.5055 -0.8585
vn -0.1023 0.7634 -0.6378
vn -0.0526 0.8156 -0.5762
vn 0.9339 0.3217 -0.1558
vn 0.7843 0.6204 -0.0040
vn 0.7903 0.5987 0.1300
vn 0.8121 -0.0999 0.5749
vn 0.8048 0.0196 0.5932
vn 0.5818 -0.0512 0.8117
vn -0.4437 0.5113 0.7360
vn -0.3456 0.4075 0.8453
vn -0.4831 0.2625 0.8353
vn -0.8066 0.3411 0.4827
vn -0.5321 0.8319 0.1575
vn -0.6242 0.7750 -0.0985
vn -0.4768 0.8449 -0.2424
vn -0.3754 0.9114 -0.1688
vn -0.1059 0.9525 -0.2854
vn -0.0378 0.7533 0.6566
vn -0.0451 0.7415 0.6694
vn -0.1068 0.7779 0.6192
vn 0.2676 0.9446 0.1899
vn 0.3341 0.9425 -0.0021
vn 0.5827 0.7810 0.2248
usemtl WhiteTree
s off
f 197//263 210//263 209//263
f 198//264 210//264 212//264
f 197//265 209//265 214//265
f 197//266 214//266 216//266
f 197//267 216//267 213//267
f 198//268 212//268 219//268
f 199//269 211//269 221//269
f 200//270 215//270 223//270
f 201//271 217//271 225//271
f 202//272 218//272 227//272
f 198//273 219//273 222//273
f 199//274 221//274 224//274
f 200//275 223//275 226//275
f 201//276 225//276 228//276
f 202//277 227//277 220//277
f 203//278 229//278 234//278
f 204//279 230//279 236//279
f 205//280 231//280 237//280
f 206//281 232//281 238//281
f 207//282 233//282 235//282
f 235//283 238//283 208//283
f 235//284 233//284 238//284
f 233//285 206//285 238//285
f 238//286 237//286 208//286
f 238//287 232//287 237//287
f 232//288 205//288 237//288
f 237//289 236//289 208//289
f 237//290 231//290 236//290
f 231//291 204//291 236//291
f 236//292 234//292 208//292
f 236//293 230//293 234//293
f 230//294 203//294 234//294
f 234//295 235//295 208//295
f 234//296 229//296 235//296
f 229//297 207//297 235//297
f 220//298 233//298 207//298
f 220//299 227//299 233//299
f 227//300 206//300 233//300
f 228//301 232//301 206//301
f 228//302 225//302 232//302
f 225//303 205//303 232//303
f 226//304 231//304 205//304
f 226//305 223//305 231//305
f 223//306 204//306 231//306
f 224//307 230//307 204//307
f 224//308 221//308 230//308
f 221//309 203//309 230//309
f 222//310 229//310 203//310
f 222//311 219//311 229//311
f 219//312 207//312 229//312
f 227//313 228//313 206//313
f 227//314 218//314 228//314
f 218//315 201//315 228//315
f 225//316 226//316 205//316
f 225//317 217//317 226//317
f 217//318 200//318 226//318
f 223//319 224//319 204//319
f 223//320 215//320 224//320
f 215//321 199//321 224//321
f 221//322 222//322 203//322
f 221//323 211//323 222//323
f 211//324 198//324 222//324
f 219//325 220//325 207//325
f 219//326 212//326 220//326
f 212//327 202//327 220//327
f 213//328 218//328 202//328
f 213//329 216//329 218//329
f 216//330 201//330 218//330
f 216//331 217//331 201//331
f 216//332 214//332 217//332
f 214//333 200//333 217//333
f 214//334 215//334 200//334
f 214//335 209//335 215//335
f 209//336 199//336 215//336
f 212//337 213//337 202//337
f 212//338 210//338 213//338
f 210//339 197//339 213//339
f 209//340 211//340 199//340
f 209//341 210//341 211//341
f 210//342 198//342 211//342
o Icosphere.001
v -0.769103 3.058892 -0.319023
v -1.630645 2.944011 0.191136
v -0.723109 3.275709 0.429855
v -0.270630 3.004843 -0.371003
v -0.765349 2.506583 -0.787884
v -1.779327 2.545336 -0.483709
v -0.979778 2.677906 1.061256
v -0.585052 2.758101 0.964155
v -0.336858 2.316031 0.078249
v -0.943317 2.084343 -0.094777
v -1.406859 2.256183 0.442629
v -0.938531 2.128928 0.895208
v -0.703626 3.254861 0.057541
v -1.370576 3.153026 -0.066351
v -1.274030 3.118466 0.402173
v -1.808852 2.761106 -0.197427
v -1.341067 2.820436 -0.479260
v -0.472063 3.065392 -0.480571
v -0.349974 3.254907 0.065243
v -0.792550 2.780145 -0.739414
v -0.485126 2.702410 -0.696922
v -1.177725 2.527629 -0.653535
v -1.555755 2.641071 0.308805
v -1.821223 2.401702 -0.059348
v -0.925097 3.007619 0.906042
v -1.258319 2.806964 0.731252
v -0.248088 2.967526 0.370231
v -0.567750 3.095224 0.760320
v -0.461719 2.370586 -0.477507
v -0.208366 2.667926 -0.171658
v -1.454662 2.286291 -0.366015
v -0.843247 2.249759 -0.516521
v -1.112081 2.422233 0.837489
v -0.852670 2.754510 1.158207
v -0.373368 2.506396 0.573694
v -0.572952 2.128907 -0.046164
v -1.296939 2.098017 0.153506
v -1.041551 2.389066 1.123891
v -1.062373 2.114706 0.687594
v -0.891228 2.431161 1.155178
v -0.610026 2.129958 0.524706
v -0.844005 2.007471 0.336306
vn -0.0515 0.8895 -0.4540
vn -0.6568 0.7522 -0.0528
vn -0.2443 0.8769 -0.4139
vn -0.2981 0.8031 -0.5159
vn -0.1932 0.8227 -0.5347
vn -0.8981 -0.0524 0.4366
vn -0.2713 0.8833 0.3822
vn 0.9466 0.3223 -0.0126
vn 0.5394 -0.4377 -0.7194
vn -0.2289 -0.6257 -0.7457
vn -0.8210 0.0187 0.5707
vn -0.0165 0.8742 0.4852
vn 0.9853 0.1694 -0.0214
vn 0.2952 -0.7348 -0.6107
vn -0.5174 -0.7938 -0.3197
vn -0.9315 0.2554 0.2590
vn 0.5859 -0.0774 0.8066
vn 0.8003 -0.5377 0.2656
vn 0.1435 -0.9680 -0.2057
vn -0.5155 -0.8190 0.2520
vn -0.1877 -0.9659 0.1782
vn -0.2477 -0.9589 0.1387
vn -0.1382 -0.9800 -0.1429
vn 0.2840 -0.9259 0.2492
vn 0.4442 -0.8954 0.0305
vn 0.6073 -0.7934 0.0409
vn 0.6175 -0.5662 0.5459
vn 0.6789 -0.4971 0.5403
vn 0.7263 -0.3270 0.6046
vn 0.0259 -0.6542 0.7559
vn -0.2079 0.0156 0.9780
vn -0.6849 0.2913 0.6678
vn -0.6456 -0.6322 0.4284
vn -0.9460 -0.2522 0.2037
vn -0.6342 -0.4192 0.6497
vn -0.5554 -0.8001 0.2265
vn -0.4342 -0.8811 -0.1875
vn -0.2261 -0.9358 -0.2705
vn 0.1552 -0.9316 -0.3286
vn 0.3136 -0.8606 -0.4013
vn 0.6746 -0.7044 -0.2207
vn 0.9584 -0.2355 0.1611
vn 0.9671 -0.1861 0.1738
vn 0.8729 -0.0221 0.4874
vn 0.5293 0.4189 0.7378
vn 0.1053 0.7168 0.6893
vn -0.6958 0.3971 0.5985
vn -0.7821 -0.1289 0.6097
vn -0.7855 -0.1316 0.6047
vn -0.7805 -0.0867 0.6191
vn -0.1507 -0.9077 -0.3917
vn -0.2206 -0.6319 -0.7430
vn -0.2625 -0.6621 -0.7020
vn 0.8462 -0.4773 -0.2370
vn 0.8505 -0.2470 -0.4643
vn 0.8756 -0.1157 -0.4690
vn 0.7845 0.2909 0.5477
vn 0.6904 0.6273 0.3604
vn 0.3556 0.8804 0.3137
vn -0.6066 0.4187 0.6758
vn -0.6231 0.5529 0.5532
vn -0.6072 0.5623 0.5613
vn -0.8529 0.2125 0.4768
vn -0.9950 -0.0040 -0.0996
vn -0.2388 0.3948 -0.8872
vn -0.3907 0.3000 -0.8703
vn -0.3005 0.1374 -0.9438
vn 0.1812 0.1890 -0.9651
vn 0.2399 0.4907 -0.8377
vn 0.5278 0.4208 -0.7378
vn 0.4500 0.8076 -0.3811
vn 0.0071 0.9442 -0.3294
vn 0.0011 0.9984 -0.0559
vn -0.4324 0.6981 -0.5707
vn -0.4379 0.6846 -0.5827
vn -0.1436 0.7657 -0.6270
vn -0.2707 0.9603 -0.0679
vn -0.1695 0.9797 0.1072
vn -0.5115 0.8428 0.1676
usemtl WhiteTree
s off
f 239//343 252//343 251//343
f 240//344 252//344 254//344
f 239//345 251//345 256//345
f 239//346 256//346 258//346
f 239//347 258//347 255//347
f 240//348 254//348 261//348
f 241//349 253//349 263//349
f 242//350 257//350 265//350
f 243//351 259//351 267//351
f 244//352 260//352 269//352
f 240//353 261//353 264//353
f 241//354 263//354 266//354
f 242//355 265//355 268//355
f 243//356 267//356 270//356
f 244//357 269//357 262//357
f 245//358 271//358 276//358
f 246//359 272//359 278//359
f 247//360 273//360 279//360
f 248//361 274//361 280//361
f 249//362 275//362 277//362
f 277//363 280//363 250//363
f 277//364 275//364 280//364
f 275//365 248//365 280//365
f 280//366 279//366 250//366
f 280//367 274//367 279//367
f 274//368 247//368 279//368
f 279//369 278//369 250//369
f 279//370 273//370 278//370
f 273//371 246//371 278//371
f 278//372 276//372 250//372
f 278//373 272//373 276//373
f 272//374 245//374 276//374
f 276//375 277//375 250//375
f 276//376 271//376 277//376
f 271//377 249//377 277//377
f 262//378 275//378 249//378
f 262//379 269//379 275//379
f 269//380 248//380 275//380
f 270//381 274//381 248//381
f 270//382 267//382 274//382
f 267//383 247//383 274//383
f 268//384 273//384 247//384
f 268//385 265//385 273//385
f 265//386 246//386 273//386
f 266//387 272//387 246//387
f 266//388 263//388 272//388
f 263//389 245//389 272//389
f 264//390 271//390 245//390
f 264//391 261//391 271//391
f 261//392 249//392 271//392
f 269//393 270//393 248//393
f 269//394 260//394 270//394
f 260//395 243//395 270//395
f 267//396 268//396 247//396
f 267//397 259//397 268//397
f 259//398 242//398 268//398
f 265//399 266//399 246//399
f 265//400 257//400 266//400
f 257//401 241//401 266//401
f 263//402 264//402 245//402
f 263//403 253//403 264//403
f 253//404 240//404 264//404
f 261//392 262//392 249//392
f 261//405 254//405 262//405
f 254//406 244//406 262//406
f 255//407 260//407 244//407
f 255//408 258//408 260//408
f 258//409 243//409 260//409
f 258//410 259//410 243//410
f 258//411 256//411 259//411
f 256//412 242//412 259//412
f 256//413 257//413 242//413
f 256//414 251//414 257//414
f 251//415 241//415 257//415
f 254//416 255//416 244//416
f 254//417 252//417 255//417
f 252//418 239//418 255//418
f 251//419 253//419 241//419
f 251//420 252//420 253//420
f 252//421 240//421 253//421
o Icosphere
v 0.186844 2.572782 0.074259
v 1.343106 2.943748 0.778335
v 0.245198 2.894395 1.167122
v -1.001047 2.977034 -0.205835
v -0.370548 3.061036 -1.134805
v 1.295989 2.897879 -0.341683
v 0.592866 4.373511 1.133039
v -0.110663 4.426715 1.029141
v -0.537995 4.296929 -0.519163
v 0.426660 4.185456 -0.770052
v 1.251985 4.172721 0.149158
v 0.410890 5.227034 0.398991
v 0.233779 2.619050 0.731426
v 1.062451 2.671673 0.540265
v 1.021987 2.955351 1.090173
v 1.420188 2.836021 0.222138
v 0.849877 2.660405 -0.198023
v -0.639890 2.647583 -0.176636
v -0.609050 2.830546 0.673968
v -0.247328 2.707240 -0.742677
v -0.839159 3.012801 -0.906256
v 0.487941 2.969764 -0.797151
v 1.394761 3.423308 0.498764
v 1.532730 3.414027 -0.056519
v 0.543568 3.647039 1.351909
v 1.107322 3.614201 1.027918
v -0.614426 3.545870 0.581376
v -0.096653 3.527388 1.252726
v -0.683480 3.661078 -1.053183
v -0.907415 3.636872 -0.439140
v 1.031055 3.457437 -0.652280
v 0.017147 3.613377 -1.093896
v 0.911409 4.417774 0.638791
v 0.202241 4.578176 1.314127
v -0.273140 4.454404 0.237582
v -0.200613 4.346062 -0.788057
v 1.021973 4.234438 -0.363545
v 0.541706 5.040101 0.949414
v 0.723871 4.862602 0.161394
v 0.225941 5.154569 1.001712
v -0.021322 4.930734 -0.125931
v 0.334467 4.795254 -0.398209
vn 0.0780 -0.9949 0.0645
vn 0.5686 -0.7893 0.2317
vn -0.1132 -0.9905 0.0778
vn -0.0478 -0.9894 -0.1374
vn 0.0520 -0.9806 -0.1890
vn 0.9896 -0.0239 0.1418
vn 0.1164 -0.2801 0.9529
vn -0.9095 0.0466 0.4130
vn -0.4277 -0.1009 -0.8983
vn 0.4572 -0.2562 -0.8516
vn 0.8905 0.1537 0.4283
vn -0.1147 -0.1937 0.9743
vn -0.9289 0.2335 0.2875
vn -0.0503 0.1088 -0.9928
vn 0.7651 0.0048 -0.6439
vn 0.8127 0.2119 0.5428
vn -0.7176 0.3545 0.5995
vn -0.8126 0.5580 0.1683
vn 0.1599 0.5314 -0.8319
vn 0.7620 0.5881 -0.2711
vn 0.5143 0.7325 -0.4460
vn 0.5698 0.6691 -0.4771
vn 0.4550 0.5127 -0.7281
vn -0.0276 0.8801 -0.4740
vn -0.1859 0.7610 -0.6216
vn -0.4978 0.7126 -0.4944
vn -0.5173 0.8540 -0.0561
vn -0.8527 0.5154 0.0847
vn -0.8871 0.4176 0.1967
vn 0.3645 0.9047 0.2206
vn 0.3010 0.4448 0.8435
vn 0.5161 0.2641 0.8148
vn 0.7690 0.6383 0.0340
vn 0.8761 0.4725 0.0961
vn 0.7722 0.5868 0.2434
vn 0.8513 0.4053 -0.3331
vn 0.7515 0.2375 -0.6155
vn 0.5203 0.3028 -0.7985
vn 0.1321 0.4150 -0.9002
vn -0.0280 0.3779 -0.9254
vn -0.5470 0.6082 -0.5752
vn -0.8461 0.4969 0.1927
vn -0.8571 0.4296 0.2844
vn -0.8909 0.4093 0.1972
vn -0.7060 0.1605 0.6898
vn -0.1503 -0.0150 0.9885
vn 0.5022 0.2180 0.8368
vn 0.7407 0.4304 0.5159
vn 0.8650 0.3732 0.3352
vn 0.8418 0.3515 0.4096
vn 0.4171 0.2029 -0.8859
vn 0.3759 -0.1469 -0.9149
vn 0.3444 -0.1734 -0.9226
vn -0.8492 0.4398 -0.2923
vn -0.9310 0.1479 -0.3337
vn -0.9732 0.0596 -0.2219
vn -0.7823 0.1388 0.6072
vn -0.7888 0.0731 0.6103
vn -0.4479 -0.3530 0.8215
vn 0.4957 0.2195 0.8403
vn 0.4990 0.0172 0.8665
vn 0.6961 -0.0223 0.7176
vn 0.9318 0.2833 0.2268
vn 0.9677 -0.0719 0.2416
vn 0.9261 -0.2942 -0.2363
vn 0.2433 -0.7941 -0.5570
vn 0.2424 -0.7945 -0.5567
vn 0.1974 -0.6962 -0.6902
vn -0.2215 -0.7576 -0.6140
vn -0.3560 -0.8709 -0.3387
vn -0.6535 -0.7331 -0.1885
vn -0.6709 -0.7196 0.1791
vn -0.2514 -0.9443 0.2122
vn -0.2408 -0.8176 0.5230
vn 0.4134 -0.8908 -0.1888
vn 0.3511 -0.9323 -0.0869
vn 0.1228 -0.9922 -0.0202
vn 0.1183 -0.8408 0.5283
vn 0.1619 -0.8721 0.4618
vn 0.4013 -0.8017 0.4431
usemtl WhiteTreeDark
s off
f 281//422 294//422 293//422
f 282//423 294//423 296//423
f 281//424 293//424 298//424
f 281//425 298//425 300//425
f 281//426 300//426 297//426
f 282//427 296//427 303//427
f 283//428 295//428 305//428
f 284//429 299//429 307//429
f 285//430 301//430 309//430
f 286//431 302//431 311//431
f 282//432 303//432 306//432
f 283//433 305//433 308//433
f 284//434 307//434 310//434
f 285//435 309//435 312//435
f 286//436 311//436 304//436
f 287//437 313//437 318//437
f 288//438 314//438 320//438
f 289//439 315//439 321//439
f 290//440 316//440 322//440
f 291//441 317//441 319//441
f 319//442 322//442 292//442
f 319//443 317//443 322//443
f 317//444 290//444 322//444
f 322//445 321//445 292//445
f 322//446 316//446 321//446
f 316//447 289//447 321//447
f 321//448 320//448 292//448
f 321//449 315//449 320//449
f 315//450 288//450 320//450
f 320//451 318//451 292//451
f 320//452 314//452 318//452
f 314//453 287//453 318//453
f 318//454 319//454 292//454
f 318//455 313//455 319//455
f 313//456 291//456 319//456
f 304//457 317//457 291//457
f 304//458 311//458 317//458
f 311//459 290//459 317//459
f 312//460 316//460 290//460
f 312//461 309//461 316//461
f 309//462 289//462 316//462
f 310//463 315//463 289//463
f 310//464 307//464 315//464
f 307//465 288//465 315//465
f 308//466 314//466 288//466
f 308//467 305//467 314//467
f 305//468 287//468 314//468
f 306//469 313//469 287//469
f 306//470 303//470 313//470
f 303//471 291//471 313//471
f 311//472 312//472 290//472
f 311//473 302//473 312//473
f 302//474 285//474 312//474
f 309//475 310//475 289//475
f 309//476 301//476 310//476
f 301//477 284//477 310//477
f 307//478 308//478 288//478
f 307//479 299//479 308//479
f 299//480 283//480 308//480
f 305//481 306//481 287//481
f 305//482 295//482 306//482
f 295//483 282//483 306//483
f 303//484 304//484 291//484
f 303//485 296//485 304//485
f 296//486 286//486 304//486
f 297//487 302//487 286//487
f 297//488 300//488 302//488
f 300//489 285//489 302//489
f 300//490 301//490 285//490
f 300//491 298//491 301//491
f 298//492 284//492 301//492
f 298//493 299//493 284//493
f 298//494 293//494 299//494
f 293//495 283//495 299//495
f 296//496 297//496 286//496
f 296//497 294//497 297//497
f 294//498 281//498 297//498
f 293//499 295//499 283//499
f 293//500 294//500 295//500
f 294//501 282//501 295//501
