# Blender MTL File: 'rock.blend'
# Material Count: 3

newmtl Rock2
Ns 96.078431
Ka 1.000000 1.000000 1.000000
Kd 0.365940 0.338774 0.389517
Ks 0.500000 0.500000 0.500000
Ke 0.000000 0.000000 0.000000
Ni 1.000000
d 1.000000
illum 2

newmtl Rock3
Ns 96.078431
Ka 1.000000 1.000000 1.000000
Kd 0.557323 0.550592 0.598720
Ks 0.500000 0.500000 0.500000
Ke 0.000000 0.000000 0.000000
Ni 1.000000
d 1.000000
illum 2

newmtl Rock_1
Ns 96.078431
Ka 1.000000 1.000000 1.000000
Kd 0.307499 0.283912 0.302694
Ks 0.500000 0.500000 0.500000
Ke 0.000000 0.000000 0.000000
Ni 1.000000
d 1.000000
illum 2
