# Blender v2.77 (sub 0) OBJ File: 'tank_wheels_l.blend'
# www.blender.org
mtllib tank_wheels_l.mtl
o Wheel_l_front_Cylinder.012
v -0.778039 0.656124 -0.624960
v -1.579176 0.656123 -0.624960
v -0.778039 0.374753 -0.549567
v -1.579176 0.374753 -0.549567
v -0.778039 0.168776 -0.343590
v -1.579176 0.168776 -0.343590
v -0.778039 0.093383 -0.062220
v -1.579176 0.093383 -0.062220
v -0.778039 0.168776 0.219150
v -1.579176 0.168776 0.219150
v -0.778039 0.374753 0.425128
v -1.579176 0.374753 0.425128
v -0.778039 0.656123 0.500521
v -1.579176 0.656123 0.500521
v -0.778039 0.937494 0.425128
v -1.579176 0.937493 0.425128
v -0.778039 1.143471 0.219151
v -1.579176 1.143471 0.219151
v -0.778039 1.218864 -0.062219
v -1.579176 1.218864 -0.062219
v -0.778039 1.143471 -0.343589
v -1.579176 1.143471 -0.343589
v -0.778039 0.937494 -0.549567
v -1.579176 0.937494 -0.549567
v -0.816066 0.656124 -0.571537
v -0.816066 0.401465 -0.503302
v -1.541149 0.401465 -0.503302
v -1.541149 0.656124 -0.571537
v -0.816066 0.215041 -0.316878
v -1.541149 0.215041 -0.316878
v -0.816066 0.146806 -0.062220
v -1.541149 0.146806 -0.062220
v -0.816066 0.215041 0.192439
v -1.541149 0.215041 0.192439
v -0.816066 0.401465 0.378863
v -1.541149 0.401465 0.378863
v -0.816066 0.656123 0.447098
v -1.541149 0.656123 0.447098
v -0.816066 0.910782 0.378863
v -1.541149 0.910782 0.378863
v -0.816066 1.097206 0.192439
v -1.541149 1.097206 0.192439
v -0.816066 1.165441 -0.062219
v -1.541149 1.165441 -0.062219
v -0.816066 1.097206 -0.316878
v -1.541149 1.097206 -0.316878
v -0.816066 0.910783 -0.503302
v -1.541149 0.910783 -0.503302
v -0.905060 0.656124 -0.446514
v -0.905060 0.463977 -0.395028
v -1.452155 0.463977 -0.395028
v -1.452155 0.656124 -0.446514
v -0.905060 0.323315 -0.254367
v -1.452155 0.323315 -0.254367
v -0.905060 0.271830 -0.062220
v -1.452155 0.271829 -0.062220
v -0.905060 0.323315 0.129927
v -1.452155 0.323315 0.129927
v -0.905060 0.463977 0.270589
v -1.452155 0.463976 0.270589
v -0.905060 0.656123 0.322074
v -1.452155 0.656123 0.322074
v -0.905060 0.848270 0.270589
v -1.452155 0.848270 0.270589
v -0.905060 0.988932 0.129928
v -1.452155 0.988932 0.129928
v -0.905060 1.040418 -0.062219
v -1.452155 1.040417 -0.062219
v -0.905060 0.988932 -0.254366
v -1.452155 0.988932 -0.254366
v -0.905060 0.848271 -0.395028
v -1.452155 0.848271 -0.395028
v -0.956355 0.656124 -0.446514
v -0.956355 0.463977 -0.395028
v -1.400860 0.463977 -0.395028
v -1.400860 0.656124 -0.446514
v -0.956355 0.323315 -0.254367
v -1.400860 0.323315 -0.254367
v -0.956355 0.271830 -0.062220
v -1.400860 0.271829 -0.062220
v -0.956355 0.323315 0.129927
v -1.400860 0.323315 0.129927
v -0.956355 0.463977 0.270589
v -1.400860 0.463976 0.270589
v -0.956355 0.656123 0.322074
v -1.400860 0.656123 0.322074
v -0.956355 0.848270 0.270589
v -1.400860 0.848270 0.270589
v -0.956355 0.988932 0.129928
v -1.400860 0.988932 0.129928
v -0.956355 1.040418 -0.062219
v -1.400860 1.040417 -0.062219
v -0.956355 0.988932 -0.254366
v -1.400860 0.988932 -0.254366
v -0.956355 0.848271 -0.395028
v -1.400860 0.848271 -0.395028
v -0.969605 0.656124 -0.423602
v -0.969605 0.475432 -0.375186
v -1.387609 0.475432 -0.375186
v -1.387609 0.656124 -0.423602
v -0.969605 0.343157 -0.242911
v -1.387609 0.343157 -0.242911
v -0.969605 0.294741 -0.062220
v -1.387609 0.294741 -0.062220
v -0.969605 0.343157 0.118472
v -1.387609 0.343157 0.118472
v -0.969605 0.475432 0.250747
v -1.387609 0.475432 0.250747
v -0.969605 0.656123 0.299163
v -1.387609 0.656123 0.299163
v -0.969606 0.836815 0.250747
v -1.387609 0.836815 0.250747
v -0.969606 0.969090 0.118472
v -1.387609 0.969090 0.118472
v -0.969606 1.017506 -0.062219
v -1.387609 1.017506 -0.062219
v -0.969606 0.969090 -0.242911
v -1.387609 0.969090 -0.242911
v -0.969606 0.836815 -0.375186
v -1.387609 0.836815 -0.375186
vn -0.8050 -0.5730 -0.1535
vn 0.8050 -0.1535 0.5730
vn 0.8050 0.5730 -0.1535
vn -0.8050 0.1535 0.5730
vn 0.8050 -0.5730 -0.1535
vn -0.8050 0.4195 -0.4195
vn 0.8050 0.1535 0.5730
vn -0.8050 -0.5730 0.1535
vn 0.8050 0.4195 -0.4195
vn -0.8050 0.4195 0.4195
vn 0.8050 -0.5730 0.1535
vn -0.8050 0.1535 -0.5730
vn -0.8050 -0.1535 -0.5730
vn 0.8050 0.4195 0.4195
vn -0.8050 -0.4195 0.4195
vn 0.8050 0.1535 -0.5730
vn 0.8050 -0.1535 -0.5730
vn -0.8050 0.5730 0.1535
vn 0.8050 -0.4195 0.4195
vn -0.8050 -0.4195 -0.4195
vn 0.8050 0.5730 0.1535
vn -0.8050 -0.1535 0.5730
vn 0.8050 -0.4195 -0.4195
vn -0.8050 0.5730 -0.1535
vn 1.0000 0.0000 0.0000
vn -1.0000 -0.0000 -0.0000
vn 0.0000 0.2588 0.9659
vn -0.0000 0.7071 0.7071
vn -0.0000 0.9659 0.2588
vn -0.0000 0.9659 -0.2588
vn -0.0000 0.7071 -0.7071
vn -0.0000 0.2588 -0.9659
vn 0.0000 -0.2588 -0.9659
vn 0.0000 -0.7071 -0.7071
vn 0.0000 -0.9659 -0.2588
vn 0.0000 -0.9659 0.2588
vn 0.0000 -0.7071 0.7071
vn -0.0000 -0.2588 0.9659
vn 0.8580 0.4962 -0.1330
vn -0.8580 -0.4962 -0.1330
vn -0.8580 0.1330 0.4962
vn 0.8580 -0.4962 -0.1330
vn -0.8580 0.3632 -0.3632
vn 0.8580 0.1330 0.4962
vn -0.8580 -0.4962 0.1330
vn 0.8580 0.3632 -0.3632
vn -0.8580 0.3632 0.3632
vn 0.8580 -0.4962 0.1330
vn -0.8580 0.1330 -0.4962
vn -0.8580 -0.1330 -0.4962
vn 0.8580 0.3632 0.3632
vn -0.8580 -0.3632 0.3632
vn 0.8580 0.1330 -0.4962
vn 0.8580 -0.1330 -0.4962
vn -0.8580 0.4962 0.1330
vn 0.8580 -0.3632 0.3632
vn -0.8580 -0.3632 -0.3632
vn 0.8580 0.4962 0.1330
vn -0.8580 -0.1330 0.4962
vn 0.8580 -0.3632 -0.3632
vn -0.8580 0.4962 -0.1330
vn 0.8580 -0.1330 0.4962
usemtl Wheels
s off
f 29//1 31//1 55//1 53//1
f 38//2 36//2 60//2 62//2
f 46//3 44//3 68//3 70//3
f 37//4 39//4 63//4 61//4
f 32//5 30//5 54//5 56//5
f 45//6 47//6 71//6 69//6
f 40//7 38//7 62//7 64//7
f 31//8 33//8 57//8 55//8
f 48//9 46//9 70//9 72//9
f 39//10 41//10 65//10 63//10
f 34//11 32//11 56//11 58//11
f 47//12 25//12 49//12 71//12
f 25//13 26//13 50//13 49//13
f 42//14 40//14 64//14 66//14
f 33//15 35//15 59//15 57//15
f 28//16 48//16 72//16 52//16
f 27//17 28//17 52//17 51//17
f 41//18 43//18 67//18 65//18
f 36//19 34//19 58//19 60//19
f 26//20 29//20 53//20 50//20
f 44//21 42//21 66//21 68//21
f 35//22 37//22 61//22 59//22
f 30//23 27//23 51//23 54//23
f 43//24 45//24 69//24 67//24
f 99//25 100//25 120//25 118//25 116//25 114//25 112//25 110//25 108//25 106//25 104//25 102//25
f 97//26 98//26 101//26 103//26 105//26 107//26 109//26 111//26 113//26 115//26 117//26 119//26
usemtl WheelsOut
f 1//27 2//27 4//27 3//27
f 3//28 4//28 6//28 5//28
f 5//29 6//29 8//29 7//29
f 7//30 8//30 10//30 9//30
f 9//31 10//31 12//31 11//31
f 11//32 12//32 14//32 13//32
f 13//33 14//33 16//33 15//33
f 15//34 16//34 18//34 17//34
f 17//35 18//35 20//35 19//35
f 19//36 20//36 22//36 21//36
f 17//18 19//18 43//18 41//18
f 21//37 22//37 24//37 23//37
f 23//38 24//38 2//38 1//38
f 7//8 9//8 33//8 31//8
f 10//11 8//11 32//11 34//11
f 20//21 18//21 42//21 44//21
f 3//20 5//20 29//20 26//20
f 13//4 15//4 39//4 37//4
f 23//12 1//12 25//12 47//12
f 6//23 4//23 27//23 30//23
f 16//7 14//7 38//7 40//7
f 2//16 24//16 48//16 28//16
f 9//15 11//15 35//15 33//15
f 19//24 21//24 45//24 43//24
f 12//19 10//19 34//19 36//19
f 22//3 20//3 44//3 46//3
f 5//1 7//1 31//1 29//1
f 15//10 17//10 41//10 39//10
f 1//13 3//13 26//13 25//13
f 8//5 6//5 30//5 32//5
f 18//14 16//14 40//14 42//14
f 4//17 2//17 28//17 27//17
f 11//22 13//22 37//22 35//22
f 21//6 23//6 47//6 45//6
f 14//2 12//2 36//2 38//2
f 24//9 22//9 46//9 48//9
usemtl WheelsIn
f 66//28 64//28 88//28 90//28
f 49//33 50//33 74//33 73//33
f 94//39 92//39 116//39 118//39
f 77//40 79//40 103//40 101//40
f 57//37 59//37 83//37 81//37
f 52//32 72//32 96//32 76//32
f 51//33 52//33 76//33 75//33
f 65//29 67//29 91//29 89//29
f 60//37 58//37 82//37 84//37
f 50//34 53//34 77//34 74//34
f 68//29 66//29 90//29 92//29
f 59//38 61//38 85//38 83//38
f 54//34 51//34 75//34 78//34
f 67//30 69//30 93//30 91//30
f 62//38 60//38 84//38 86//38
f 53//35 55//35 79//35 77//35
f 70//30 68//30 92//30 94//30
f 61//27 63//27 87//27 85//27
f 56//35 54//35 78//35 80//35
f 69//31 71//31 95//31 93//31
f 64//27 62//27 86//27 88//27
f 55//36 57//36 81//36 79//36
f 72//31 70//31 94//31 96//31
f 63//28 65//28 89//28 87//28
f 58//36 56//36 80//36 82//36
f 71//32 49//32 73//32 95//32
f 85//41 87//41 111//41 109//41
f 80//42 78//42 102//42 104//42
f 93//43 95//43 119//43 117//43
f 88//44 86//44 110//44 112//44
f 79//45 81//45 105//45 103//45
f 96//46 94//46 118//46 120//46
f 87//47 89//47 113//47 111//47
f 82//48 80//48 104//48 106//48
f 95//49 73//49 97//49 119//49
f 73//50 74//50 98//50 97//50
f 90//51 88//51 112//51 114//51
f 81//52 83//52 107//52 105//52
f 76//53 96//53 120//53 100//53
f 75//54 76//54 100//54 99//54
f 89//55 91//55 115//55 113//55
f 84//56 82//56 106//56 108//56
f 74//57 77//57 101//57 98//57
f 92//58 90//58 114//58 116//58
f 83//59 85//59 109//59 107//59
f 78//60 75//60 99//60 102//60
f 91//61 93//61 117//61 115//61
f 86//62 84//62 108//62 110//62
o Wheel_l_back_Cylinder.009
v -0.778039 0.656124 -3.100938
v -1.579176 0.656123 -3.100938
v -0.778039 0.374753 -3.025545
v -1.579176 0.374753 -3.025545
v -0.778039 0.168776 -2.819568
v -1.579176 0.168776 -2.819568
v -0.778039 0.093383 -2.538198
v -1.579176 0.093383 -2.538198
v -0.778039 0.168776 -2.256828
v -1.579176 0.168776 -2.256828
v -0.778039 0.374753 -2.050851
v -1.579176 0.374753 -2.050851
v -0.778039 0.656123 -1.975458
v -1.579176 0.656123 -1.975458
v -0.778039 0.937494 -2.050851
v -1.579176 0.937493 -2.050851
v -0.778039 1.143471 -2.256828
v -1.579176 1.143471 -2.256828
v -0.778039 1.218864 -2.538198
v -1.579176 1.218864 -2.538198
v -0.778039 1.143471 -2.819568
v -1.579176 1.143471 -2.819568
v -0.778039 0.937494 -3.025545
v -1.579176 0.937494 -3.025545
v -0.816066 0.656124 -3.047516
v -0.816066 0.401465 -2.979280
v -1.541149 0.401465 -2.979280
v -1.541149 0.656124 -3.047516
v -0.816066 0.215041 -2.792857
v -1.541149 0.215041 -2.792857
v -0.816066 0.146806 -2.538198
v -1.541149 0.146806 -2.538198
v -0.816066 0.215041 -2.283539
v -1.541149 0.215041 -2.283539
v -0.816066 0.401465 -2.097116
v -1.541149 0.401465 -2.097116
v -0.816066 0.656123 -2.028880
v -1.541149 0.656123 -2.028880
v -0.816066 0.910782 -2.097116
v -1.541149 0.910782 -2.097116
v -0.816066 1.097206 -2.283539
v -1.541149 1.097206 -2.283539
v -0.816066 1.165441 -2.538198
v -1.541149 1.165441 -2.538198
v -0.816066 1.097206 -2.792857
v -1.541149 1.097206 -2.792857
v -0.816066 0.910783 -2.979280
v -1.541149 0.910783 -2.979280
v -0.905060 0.656124 -2.922492
v -0.905060 0.463977 -2.871006
v -1.452155 0.463977 -2.871006
v -1.452155 0.656124 -2.922492
v -0.905060 0.323315 -2.730345
v -1.452155 0.323315 -2.730345
v -0.905060 0.271830 -2.538198
v -1.452155 0.271829 -2.538198
v -0.905060 0.323315 -2.346051
v -1.452155 0.323315 -2.346051
v -0.905060 0.463977 -2.205389
v -1.452155 0.463976 -2.205389
v -0.905060 0.656123 -2.153904
v -1.452155 0.656123 -2.153904
v -0.905060 0.848270 -2.205389
v -1.452155 0.848270 -2.205389
v -0.905060 0.988932 -2.346051
v -1.452155 0.988932 -2.346051
v -0.905060 1.040418 -2.538198
v -1.452155 1.040417 -2.538198
v -0.905060 0.988932 -2.730345
v -1.452155 0.988932 -2.730345
v -0.905060 0.848271 -2.871006
v -1.452155 0.848271 -2.871006
v -0.956355 0.656124 -2.922492
v -0.956355 0.463977 -2.871006
v -1.400860 0.463977 -2.871006
v -1.400860 0.656124 -2.922492
v -0.956355 0.323315 -2.730345
v -1.400860 0.323315 -2.730345
v -0.956355 0.271830 -2.538198
v -1.400860 0.271829 -2.538198
v -0.956355 0.323315 -2.346051
v -1.400860 0.323315 -2.346051
v -0.956355 0.463977 -2.205389
v -1.400860 0.463976 -2.205389
v -0.956355 0.656123 -2.153904
v -1.400860 0.656123 -2.153904
v -0.956355 0.848270 -2.205389
v -1.400860 0.848270 -2.205389
v -0.956355 0.988932 -2.346051
v -1.400860 0.988932 -2.346051
v -0.956355 1.040418 -2.538198
v -1.400860 1.040417 -2.538198
v -0.956355 0.988932 -2.730345
v -1.400860 0.988932 -2.730345
v -0.956355 0.848271 -2.871006
v -1.400860 0.848271 -2.871006
v -0.969605 0.656124 -2.899580
v -0.969605 0.475432 -2.851164
v -1.387609 0.475432 -2.851164
v -1.387609 0.656124 -2.899580
v -0.969605 0.343157 -2.718889
v -1.387609 0.343157 -2.718889
v -0.969605 0.294741 -2.538198
v -1.387609 0.294741 -2.538198
v -0.969605 0.343157 -2.357507
v -1.387609 0.343157 -2.357507
v -0.969605 0.475432 -2.225232
v -1.387609 0.475432 -2.225232
v -0.969605 0.656123 -2.176816
v -1.387609 0.656123 -2.176816
v -0.969606 0.836815 -2.225232
v -1.387609 0.836815 -2.225232
v -0.969606 0.969090 -2.357507
v -1.387609 0.969090 -2.357507
v -0.969606 1.017506 -2.538198
v -1.387609 1.017506 -2.538198
v -0.969606 0.969090 -2.718889
v -1.387609 0.969090 -2.718889
v -0.969606 0.836815 -2.851164
v -1.387609 0.836815 -2.851164
vn -0.8050 -0.5730 -0.1535
vn 0.8050 -0.1535 0.5730
vn 0.8050 0.5730 -0.1535
vn -0.8050 0.1535 0.5730
vn 0.8050 -0.5730 -0.1535
vn -0.8050 0.4195 -0.4195
vn 0.8050 0.1535 0.5730
vn -0.8050 -0.5730 0.1535
vn 0.8050 0.4195 -0.4195
vn -0.8050 0.4195 0.4195
vn 0.8050 -0.5730 0.1535
vn -0.8050 0.1535 -0.5730
vn -0.8050 -0.1535 -0.5730
vn 0.8050 0.4195 0.4195
vn -0.8050 -0.4195 0.4195
vn 0.8050 0.1535 -0.5730
vn 0.8050 -0.1535 -0.5730
vn -0.8050 0.5730 0.1535
vn 0.8050 -0.4195 0.4195
vn -0.8050 -0.4195 -0.4195
vn 0.8050 0.5730 0.1535
vn -0.8050 -0.1535 0.5730
vn 0.8050 -0.4195 -0.4195
vn -0.8050 0.5730 -0.1535
vn 1.0000 0.0000 0.0000
vn -1.0000 -0.0000 -0.0000
vn 0.0000 0.2588 0.9659
vn -0.0000 0.7071 0.7071
vn -0.0000 0.9659 0.2588
vn -0.0000 0.9659 -0.2588
vn -0.0000 0.7071 -0.7071
vn -0.0000 0.2588 -0.9659
vn 0.0000 -0.2588 -0.9659
vn 0.0000 -0.7071 -0.7071
vn 0.0000 -0.9659 -0.2588
vn 0.0000 -0.9659 0.2588
vn -0.0000 -0.7071 0.7071
vn -0.0000 -0.2588 0.9659
vn 0.8580 0.4962 -0.1330
vn -0.8580 -0.4962 -0.1330
vn -0.8580 0.1330 0.4962
vn 0.8580 -0.4962 -0.1330
vn -0.8580 0.3632 -0.3632
vn 0.8580 0.1330 0.4962
vn -0.8580 -0.4962 0.1330
vn 0.8580 0.3632 -0.3632
vn -0.8580 0.3632 0.3632
vn 0.8580 -0.4962 0.1330
vn -0.8580 0.1330 -0.4962
vn -0.8580 -0.1330 -0.4962
vn 0.8580 0.3632 0.3632
vn -0.8580 -0.3632 0.3632
vn 0.8580 0.1330 -0.4962
vn 0.8580 -0.1330 -0.4962
vn -0.8580 0.4962 0.1330
vn 0.8580 -0.3632 0.3632
vn -0.8580 -0.3632 -0.3632
vn 0.8580 0.4962 0.1330
vn -0.8580 -0.1330 0.4962
vn 0.8580 -0.3632 -0.3632
vn -0.8580 0.4962 -0.1330
vn 0.8580 -0.1330 0.4962
usemtl Wheels
s off
f 149//63 151//63 175//63 173//63
f 158//64 156//64 180//64 182//64
f 166//65 164//65 188//65 190//65
f 157//66 159//66 183//66 181//66
f 152//67 150//67 174//67 176//67
f 165//68 167//68 191//68 189//68
f 160//69 158//69 182//69 184//69
f 151//70 153//70 177//70 175//70
f 168//71 166//71 190//71 192//71
f 159//72 161//72 185//72 183//72
f 154//73 152//73 176//73 178//73
f 167//74 145//74 169//74 191//74
f 145//75 146//75 170//75 169//75
f 162//76 160//76 184//76 186//76
f 153//77 155//77 179//77 177//77
f 148//78 168//78 192//78 172//78
f 147//79 148//79 172//79 171//79
f 161//80 163//80 187//80 185//80
f 156//81 154//81 178//81 180//81
f 146//82 149//82 173//82 170//82
f 164//83 162//83 186//83 188//83
f 155//84 157//84 181//84 179//84
f 150//85 147//85 171//85 174//85
f 163//86 165//86 189//86 187//86
f 219//87 220//87 240//87 238//87 236//87 234//87 232//87 230//87 228//87 226//87 224//87 222//87
f 217//88 218//88 221//88 223//88 225//88 227//88 229//88 231//88 233//88 235//88 237//88 239//88
usemtl WheelsOut
f 121//89 122//89 124//89 123//89
f 123//90 124//90 126//90 125//90
f 125//91 126//91 128//91 127//91
f 127//92 128//92 130//92 129//92
f 129//93 130//93 132//93 131//93
f 131//94 132//94 134//94 133//94
f 133//95 134//95 136//95 135//95
f 135//96 136//96 138//96 137//96
f 137//97 138//97 140//97 139//97
f 139//98 140//98 142//98 141//98
f 137//80 139//80 163//80 161//80
f 141//99 142//99 144//99 143//99
f 143//100 144//100 122//100 121//100
f 127//70 129//70 153//70 151//70
f 130//73 128//73 152//73 154//73
f 140//83 138//83 162//83 164//83
f 123//82 125//82 149//82 146//82
f 133//66 135//66 159//66 157//66
f 143//74 121//74 145//74 167//74
f 126//85 124//85 147//85 150//85
f 136//69 134//69 158//69 160//69
f 122//78 144//78 168//78 148//78
f 129//77 131//77 155//77 153//77
f 139//86 141//86 165//86 163//86
f 132//81 130//81 154//81 156//81
f 142//65 140//65 164//65 166//65
f 125//63 127//63 151//63 149//63
f 135//72 137//72 161//72 159//72
f 121//75 123//75 146//75 145//75
f 128//67 126//67 150//67 152//67
f 138//76 136//76 160//76 162//76
f 124//79 122//79 148//79 147//79
f 131//84 133//84 157//84 155//84
f 141//68 143//68 167//68 165//68
f 134//64 132//64 156//64 158//64
f 144//71 142//71 166//71 168//71
usemtl WheelsIn
f 186//90 184//90 208//90 210//90
f 169//95 170//95 194//95 193//95
f 214//101 212//101 236//101 238//101
f 197//102 199//102 223//102 221//102
f 177//99 179//99 203//99 201//99
f 172//94 192//94 216//94 196//94
f 171//95 172//95 196//95 195//95
f 185//91 187//91 211//91 209//91
f 180//99 178//99 202//99 204//99
f 170//96 173//96 197//96 194//96
f 188//91 186//91 210//91 212//91
f 179//100 181//100 205//100 203//100
f 174//96 171//96 195//96 198//96
f 187//92 189//92 213//92 211//92
f 182//100 180//100 204//100 206//100
f 173//97 175//97 199//97 197//97
f 190//92 188//92 212//92 214//92
f 181//89 183//89 207//89 205//89
f 176//97 174//97 198//97 200//97
f 189//93 191//93 215//93 213//93
f 184//89 182//89 206//89 208//89
f 175//98 177//98 201//98 199//98
f 192//93 190//93 214//93 216//93
f 183//90 185//90 209//90 207//90
f 178//98 176//98 200//98 202//98
f 191//94 169//94 193//94 215//94
f 205//103 207//103 231//103 229//103
f 200//104 198//104 222//104 224//104
f 213//105 215//105 239//105 237//105
f 208//106 206//106 230//106 232//106
f 199//107 201//107 225//107 223//107
f 216//108 214//108 238//108 240//108
f 207//109 209//109 233//109 231//109
f 202//110 200//110 224//110 226//110
f 215//111 193//111 217//111 239//111
f 193//112 194//112 218//112 217//112
f 210//113 208//113 232//113 234//113
f 201//114 203//114 227//114 225//114
f 196//115 216//115 240//115 220//115
f 195//116 196//116 220//116 219//116
f 209//117 211//117 235//117 233//117
f 204//118 202//118 226//118 228//118
f 194//119 197//119 221//119 218//119
f 212//120 210//120 234//120 236//120
f 203//121 205//121 229//121 227//121
f 198//122 195//122 219//122 222//122
f 211//123 213//123 237//123 235//123
f 206//124 204//124 228//124 230//124
o Esteira_D_Curva.001_BezierCircle.002
v -1.200934 1.041016 -1.315657
v -1.200934 1.046920 -1.495708
v -1.200934 1.061542 -1.685503
v -1.200934 1.080244 -1.880199
v -1.200934 1.098391 -2.074956
v -1.200934 1.111347 -2.264931
v -1.200934 1.114476 -2.445285
v -1.200934 1.103140 -2.611175
v -1.200934 1.072705 -2.757759
v -1.200934 1.018533 -2.880197
v -1.200934 0.935989 -2.973646
v -1.200934 0.820436 -3.033266
v -1.200934 0.667239 -3.054215
v -1.200934 0.514041 -3.033266
v -1.200934 0.398488 -2.973646
v -1.200934 0.315944 -2.880197
v -1.200934 0.261772 -2.757759
v -1.200934 0.231337 -2.611175
v -1.200934 0.220001 -2.445285
v -1.200934 0.223130 -2.264932
v -1.200934 0.236086 -2.074956
v -1.200934 0.254233 -1.880199
v -1.200934 0.272936 -1.685503
v -1.200934 0.287557 -1.495709
v -1.200934 0.293461 -1.315657
v -1.200934 0.287557 -1.135606
v -1.200934 0.272936 -0.945812
v -1.200934 0.254233 -0.751116
v -1.200934 0.236086 -0.556359
v -1.200934 0.223130 -0.366383
v -1.200934 0.220001 -0.186030
v -1.200934 0.231337 -0.020140
v -1.200934 0.261772 0.126444
v -1.200934 0.315944 0.248882
v -1.200934 0.398488 0.342331
v -1.200934 0.514041 0.401951
v -1.200934 0.667239 0.422901
v -1.200934 0.820436 0.401951
v -1.200934 0.935989 0.342331
v -1.200934 1.018533 0.248882
v -1.200934 1.072705 0.126444
v -1.200934 1.103140 -0.020140
v -1.200934 1.114476 -0.186030
v -1.200934 1.111347 -0.366383
v -1.200934 1.098391 -0.556359
v -1.200934 1.080244 -0.751115
v -1.200934 1.061541 -0.945812
v -1.200934 1.046920 -1.135606
l 241 242
l 242 243
l 243 244
l 244 245
l 245 246
l 246 247
l 247 248
l 248 249
l 249 250
l 250 251
l 251 252
l 252 253
l 253 254
l 254 255
l 255 256
l 256 257
l 257 258
l 258 259
l 259 260
l 260 261
l 261 262
l 262 263
l 263 264
l 264 265
l 265 266
l 266 267
l 267 268
l 268 269
l 269 270
l 270 271
l 271 272
l 272 273
l 273 274
l 274 275
l 275 276
l 276 277
l 277 278
l 278 279
l 279 280
l 280 281
l 281 282
l 282 283
l 283 284
l 284 285
l 285 286
l 286 287
l 287 288
l 288 241
o Tank_Tracks_L_Cube.006
v -0.796386 1.194541 -2.837423
v -0.796386 1.002423 -3.089934
v -1.543941 1.002424 -3.089934
v -1.543941 1.194541 -2.837422
v -0.796386 1.270167 -2.867300
v -0.796386 1.049917 -3.155936
v -1.543941 1.049917 -3.155935
v -1.543941 1.270167 -2.867299
v -0.796386 1.253581 -2.536756
v -0.796386 1.201904 -2.811712
v -1.543941 1.201905 -2.811711
v -1.543941 1.253581 -2.536756
v -0.796386 1.334614 -2.543499
v -0.796386 1.278412 -2.839250
v -1.543942 1.278413 -2.839250
v -1.543941 1.334615 -2.543499
v -0.796386 1.255544 -2.254011
v -0.796386 1.255818 -2.512053
v -1.543941 1.255818 -2.512053
v -1.543941 1.255544 -2.254011
v -0.796386 1.336798 -2.250900
v -0.796387 1.336954 -2.517428
v -1.543941 1.336954 -2.517428
v -1.543941 1.336798 -2.250900
v -0.796386 1.236450 -1.982393
v -0.796386 1.254288 -2.230881
v -1.543941 1.254288 -2.230881
v -1.543941 1.236450 -1.982394
v -0.796386 1.317468 -1.975467
v -0.796386 1.335523 -2.227323
v -1.543941 1.335523 -2.227323
v -1.543941 1.317468 -1.975467
v -0.796386 1.211921 -1.717979
v -0.796386 1.234517 -1.959780
v -1.543941 1.234517 -1.959781
v -1.543941 1.211921 -1.717979
v -0.796386 1.292935 -1.711010
v -0.796386 1.315519 -1.952672
v -1.543941 1.315519 -1.952671
v -1.543941 1.292935 -1.711010
v -0.796386 1.192020 -1.459162
v -0.796386 1.209899 -1.695934
v -1.543941 1.209899 -1.695934
v -1.543941 1.192020 -1.459162
v -0.796386 1.273249 -1.455444
v -0.796387 1.290925 -1.689093
v -1.543941 1.290925 -1.689092
v -1.543941 1.273249 -1.455444
v -0.796386 1.190934 -1.205639
v -0.796386 1.191329 -1.437803
v -1.543941 1.191329 -1.437803
v -1.543941 1.190934 -1.205639
v -0.796386 1.272197 -1.208489
v -0.796387 1.272581 -1.434638
v -1.543941 1.272581 -1.434638
v -1.543941 1.272197 -1.208490
v -0.796386 1.208752 -0.947896
v -0.796386 1.191629 -1.184279
v -1.543941 1.191629 -1.184279
v -1.543941 1.208752 -0.947896
v -0.796386 1.289783 -0.954666
v -0.796386 1.272871 -1.187683
v -1.543941 1.272871 -1.187683
v -1.543941 1.289783 -0.954666
v -0.796386 1.233320 -0.684223
v -0.796386 1.210773 -0.925851
v -1.543941 1.210773 -0.925851
v -1.543941 1.233320 -0.684222
v -0.796386 1.314320 -0.691358
v -0.796387 1.291794 -0.932748
v -1.543941 1.291794 -0.932748
v -1.543941 1.314320 -0.691358
v -0.796386 1.253573 -0.413565
v -0.796386 1.235381 -0.661804
v -1.543941 1.235381 -0.661803
v -1.543941 1.253573 -0.413566
v -0.796386 1.334797 -0.417377
v -0.796387 1.316388 -0.668857
v -1.543942 1.316388 -0.668856
v -1.543941 1.334797 -0.417377
v -0.796386 1.257070 -0.133287
v -0.796386 1.254831 -0.390435
v -1.543941 1.254831 -0.390436
v -1.543941 1.257070 -0.133287
v -0.796386 1.338253 -0.128690
v -0.796386 1.336075 -0.393800
v -1.543941 1.336075 -0.393800
v -1.543941 1.338253 -0.128690
v -0.796386 1.206027 0.165777
v -0.796386 1.254856 -0.108584
v -1.543941 1.254856 -0.108583
v -1.543941 1.206027 0.165777
v -0.796386 1.283004 0.191976
v -0.796386 1.335951 -0.102617
v -1.543941 1.335950 -0.102616
v -1.543941 1.283004 0.191976
v -0.796386 1.016951 0.448710
v -0.796386 1.198737 0.191516
v -1.543941 1.198737 0.191516
v -1.543941 1.016951 0.448710
v -0.796386 1.066705 0.513026
v -0.796387 1.274873 0.220069
v -1.543941 1.274873 0.220069
v -1.543941 1.066704 0.513026
v -0.796386 0.690477 0.566174
v -0.796386 0.991293 0.466066
v -1.543941 0.991293 0.466066
v -1.543941 0.690477 0.566174
v -0.796386 0.693473 0.647432
v -0.796387 1.037028 0.533298
v -1.543941 1.037028 0.533298
v -1.543941 0.693473 0.647432
v -0.796386 0.359311 0.476642
v -0.796386 0.661830 0.568462
v -1.543941 0.661830 0.568461
v -1.543941 0.359311 0.476642
v -0.796386 0.316164 0.545564
v -0.796387 0.661133 0.649772
v -1.543941 0.661133 0.649772
v -1.543941 0.316164 0.545564
v -0.796386 0.140342 0.207509
v -0.796386 0.333457 0.459563
v -1.543941 0.333457 0.459563
v -1.543941 0.140342 0.207509
v -0.796386 0.064767 0.237514
v -0.796386 0.286184 0.525723
v -1.543941 0.286184 0.525723
v -1.543941 0.064766 0.237513
v -0.796386 0.081020 -0.093211
v -0.796386 0.132971 0.181801
v -1.543941 0.132971 0.181801
v -1.543941 0.081019 -0.093211
v -0.796386 -0.000007 -0.086391
v -0.796386 0.056510 0.209467
v -1.543941 0.056509 0.209467
v -1.543941 -0.000008 -0.086393
v -0.796386 0.078865 -0.376040
v -0.796386 0.078780 -0.117913
v -1.543941 0.078780 -0.117913
v -1.543941 0.078865 -0.376041
v -0.796386 -0.002390 -0.379127
v -0.796386 -0.002350 -0.112463
v -1.543941 -0.002351 -0.112463
v -1.543941 -0.002390 -0.379128
v -0.796386 0.097924 -0.647682
v -0.796386 0.080121 -0.399170
v -1.543941 0.080121 -0.399171
v -1.543941 0.097924 -0.647683
v -0.796386 0.016905 -0.654596
v -0.796386 -0.001116 -0.402703
v -1.543941 -0.001116 -0.402704
v -1.543941 0.016905 -0.654597
v -0.796386 0.122446 -0.912132
v -0.796386 0.099845 -0.670314
v -1.543941 0.099845 -0.670314
v -1.543941 0.122446 -0.912132
v -0.796386 0.041432 -0.919107
v -0.796386 0.018843 -0.677421
v -1.543941 0.018843 -0.677421
v -1.543941 0.041432 -0.919107
v -0.796386 0.142420 -1.170987
v -0.796386 0.124467 -0.934177
v -1.543941 0.124467 -0.934177
v -1.543941 0.142419 -1.170987
v -0.796386 0.061193 -1.174734
v -0.796386 0.043443 -0.941026
v -1.543941 0.043443 -0.941026
v -1.543941 0.061192 -1.174735
v -0.796386 0.143581 -1.424510
v -0.796386 0.143110 -1.192346
v -1.543941 0.143110 -1.192346
v -1.543941 0.143581 -1.424510
v -0.796386 0.062317 -1.421690
v -0.796386 0.061859 -1.195541
v -1.543941 0.061859 -1.195541
v -1.543941 0.062317 -1.421690
v -0.796386 0.125836 -1.682215
v -0.796386 0.142886 -1.445869
v -1.543941 0.142886 -1.445869
v -1.543941 0.125836 -1.682215
v -0.796386 0.044804 -1.675452
v -0.796386 0.061643 -1.442495
v -1.543941 0.061643 -1.442496
v -1.543941 0.044804 -1.675452
v -0.796386 0.101273 -1.945871
v -0.796386 0.123814 -1.704259
v -1.543941 0.123814 -1.704259
v -1.543941 0.101273 -1.945872
v -0.796386 0.020273 -1.938734
v -0.796386 0.042793 -1.697369
v -1.543941 0.042793 -1.697370
v -1.543941 0.020273 -1.938734
v -0.796386 0.080973 -2.216486
v -0.796386 0.099199 -1.968273
v -1.543941 0.099198 -1.968273
v -1.543941 0.080973 -2.216486
v -0.796386 -0.000250 -2.212651
v -0.796386 0.018193 -1.961208
v -1.543941 0.018192 -1.961208
v -1.543941 -0.000250 -2.212651
v -0.796386 0.077288 -2.496677
v -0.796386 0.079715 -2.239615
v -1.543941 0.079715 -2.239616
v -1.543941 0.077287 -2.496678
v -0.796386 -0.003900 -2.501200
v -0.796386 -0.001528 -2.236226
v -1.543941 -0.001528 -2.236227
v -1.543941 -0.003900 -2.501200
v -0.796386 0.128056 -2.795687
v -0.796386 0.079499 -2.521384
v -1.543941 0.079499 -2.521384
v -1.543941 0.128056 -2.795687
v -0.796386 0.051035 -2.821757
v -0.796386 -0.001601 -2.527275
v -1.543941 -0.001601 -2.527276
v -1.543941 0.051035 -2.821757
v -0.796386 0.316135 -3.079066
v -0.796386 0.135339 -2.821428
v -1.543941 0.135339 -2.821428
v -1.543941 0.316135 -3.079067
v -0.796386 0.266168 -3.143215
v -0.796386 0.059155 -2.849853
v -1.543941 0.059155 -2.849853
v -1.543941 0.266168 -3.143216
v -0.796386 0.642438 -3.197283
v -0.796386 0.341776 -3.096446
v -1.543941 0.341776 -3.096446
v -1.543941 0.642438 -3.197284
v -0.796386 0.639240 -3.278533
v -0.796386 0.295817 -3.163525
v -1.543941 0.295817 -3.163526
v -1.543941 0.639240 -3.278534
v -0.796386 0.973749 -3.108875
v -0.796386 0.671085 -3.199972
v -1.543941 0.671085 -3.199972
v -1.543941 0.973749 -3.108875
v -0.796386 1.016666 -3.177940
v -0.796386 0.671581 -3.281284
v -1.543941 0.671581 -3.281284
v -1.543941 1.016667 -3.177940
vn 0.0000 0.7958 -0.6055
vn -0.0000 -0.7950 0.6066
vn -1.0000 0.0000 0.0000
vn 0.0000 0.8117 0.5841
vn 1.0000 0.0000 -0.0000
vn -0.0000 -0.3674 -0.9300
vn 0.0000 0.9828 -0.1847
vn -0.0000 -0.9824 0.1867
vn 0.0000 0.3387 0.9409
vn -0.0000 -0.0829 -0.9966
vn 0.0000 1.0000 0.0011
vn -0.0000 -1.0000 -0.0006
vn 0.0000 0.0661 0.9978
vn 0.0000 0.0383 -0.9993
vn -0.0000 0.9974 0.0716
vn -0.0000 -0.9974 -0.0715
vn 0.0000 -0.0437 0.9990
vn 0.0000 0.0852 -0.9964
vn -0.0000 0.9957 0.0930
vn -0.0000 -0.9957 -0.0930
vn 0.0000 -0.0874 0.9962
vn 0.0000 0.0857 -0.9963
vn 0.0000 0.9972 0.0753
vn 0.0000 -0.9972 -0.0754
vn 0.0000 -0.0841 0.9965
vn 0.0000 0.0457 -0.9990
vn -0.0000 1.0000 0.0017
vn -0.0000 -1.0000 -0.0017
vn -0.0000 -0.0389 0.9992
vn 0.0000 -0.0351 -0.9994
vn -0.0000 0.9974 -0.0722
vn -0.0000 -0.9974 0.0724
vn 0.0000 0.0419 0.9991
vn 0.0000 -0.0833 -0.9965
vn 0.0000 0.9957 -0.0929
vn -0.0000 -0.9957 0.0929
vn 0.0000 0.0848 0.9964
vn -0.0000 -0.0878 -0.9961
vn 0.0000 0.9973 -0.0731
vn 0.0000 -0.9973 0.0730
vn 0.0000 0.0867 0.9962
vn 0.0000 -0.0469 -0.9989
vn 0.0000 1.0000 -0.0087
vn 0.0000 -1.0000 0.0082
vn 0.0000 0.0414 0.9991
vn -0.0000 0.0565 -0.9984
vn 0.0000 0.9845 0.1752
vn 0.0000 -0.9842 -0.1769
vn 0.0000 -0.0734 0.9973
vn 0.0000 0.3222 -0.9467
vn -0.0000 0.8166 0.5772
vn 0.0000 -0.8152 -0.5792
vn 0.0000 -0.3511 0.9363
vn -0.0000 0.7910 -0.6119
vn 0.0000 0.3158 0.9488
vn 0.0000 -0.3153 -0.9490
vn 0.0000 -0.8268 0.5625
vn 0.0000 0.9993 -0.0369
vn -0.0000 -0.2904 0.9569
vn 0.0000 0.2892 -0.9573
vn -0.0000 -1.0000 -0.0086
vn 0.0000 0.8476 0.5306
vn -0.0000 -0.7938 0.6082
vn 0.0000 0.7930 -0.6092
vn 0.0000 -0.8136 -0.5814
vn -0.0000 0.3690 0.9294
vn 0.0000 -0.9826 0.1856
vn -0.0000 0.9822 -0.1876
vn 0.0000 -0.3402 -0.9403
vn -0.0000 0.0839 0.9965
vn 0.0000 -1.0000 -0.0003
vn -0.0000 1.0000 -0.0001
vn 0.0000 -0.0670 -0.9978
vn -0.0000 -0.0380 0.9993
vn -0.0000 0.9975 0.0714
vn 0.0000 0.0434 -0.9991
vn -0.0000 -0.0850 0.9964
vn 0.0000 -0.9957 -0.0931
vn -0.0000 0.9957 0.0931
vn 0.0000 0.0874 -0.9962
vn -0.0000 -0.0858 0.9963
vn 0.0000 -0.9971 -0.0756
vn -0.0000 0.9971 0.0757
vn 0.0000 0.0842 -0.9964
vn -0.0000 -0.0461 0.9989
vn 0.0000 -1.0000 -0.0020
vn -0.0000 1.0000 0.0020
vn 0.0000 0.0393 -0.9992
vn -0.0000 0.0347 0.9994
vn 0.0000 -0.9974 0.0720
vn -0.0000 0.9974 -0.0721
vn 0.0000 -0.0415 -0.9991
vn -0.0000 0.0832 0.9965
vn 0.0000 -0.0847 -0.9964
vn -0.0000 0.0878 0.9961
vn 0.0000 -0.9973 0.0732
vn 0.0000 -0.0869 -0.9962
vn -0.0000 0.0472 0.9989
vn 0.0000 -1.0000 0.0094
vn -0.0000 1.0000 -0.0090
vn 0.0000 -0.0417 -0.9991
vn -0.0000 -0.0556 0.9985
vn 0.0000 -0.9847 -0.1743
vn -0.0000 0.9844 0.1760
vn 0.0000 0.0725 -0.9974
vn 0.0000 -0.3206 0.9472
vn 0.0000 -0.8186 -0.5744
vn -0.0000 0.8171 0.5766
vn -0.0000 0.3496 -0.9369
vn -0.0000 -0.7889 0.6145
vn 0.0000 -0.3180 -0.9481
vn -0.0000 0.3176 0.9482
vn 0.0000 0.8250 -0.5652
vn 0.0000 -0.9992 0.0393
vn 0.0000 0.2882 -0.9576
vn -0.0000 -0.2869 0.9580
vn -0.0000 1.0000 0.0061
vn 0.0000 -0.8494 -0.5278
usemtl Tracks
s off
f 289//125 290//125 291//125 292//125
f 293//126 296//126 295//126 294//126
f 289//127 293//127 294//127 290//127
f 290//128 294//128 295//128 291//128
f 291//129 295//129 296//129 292//129
f 293//130 289//130 292//130 296//130
f 297//131 298//131 299//131 300//131
f 301//132 304//132 303//132 302//132
f 297//127 301//127 302//127 298//127
f 298//133 302//133 303//133 299//133
f 299//129 303//129 304//129 300//129
f 301//134 297//134 300//134 304//134
f 305//135 306//135 307//135 308//135
f 309//136 312//136 311//136 310//136
f 305//127 309//127 310//127 306//127
f 306//137 310//137 311//137 307//137
f 307//129 311//129 312//129 308//129
f 309//138 305//138 308//138 312//138
f 313//139 314//139 315//139 316//139
f 317//140 320//140 319//140 318//140
f 313//127 317//127 318//127 314//127
f 314//141 318//141 319//141 315//141
f 315//129 319//129 320//129 316//129
f 317//142 313//142 316//142 320//142
f 321//143 322//143 323//143 324//143
f 325//144 328//144 327//144 326//144
f 321//127 325//127 326//127 322//127
f 322//145 326//145 327//145 323//145
f 323//129 327//129 328//129 324//129
f 325//146 321//146 324//146 328//146
f 329//147 330//147 331//147 332//147
f 333//148 336//148 335//148 334//148
f 329//127 333//127 334//127 330//127
f 330//149 334//149 335//149 331//149
f 331//129 335//129 336//129 332//129
f 333//150 329//150 332//150 336//150
f 337//151 338//151 339//151 340//151
f 341//152 344//152 343//152 342//152
f 337//127 341//127 342//127 338//127
f 338//153 342//153 343//153 339//153
f 339//129 343//129 344//129 340//129
f 341//154 337//154 340//154 344//154
f 345//155 346//155 347//155 348//155
f 349//156 352//156 351//156 350//156
f 345//127 349//127 350//127 346//127
f 346//157 350//157 351//157 347//157
f 347//129 351//129 352//129 348//129
f 349//158 345//158 348//158 352//158
f 353//159 354//159 355//159 356//159
f 357//160 360//160 359//160 358//160
f 353//127 357//127 358//127 354//127
f 354//161 358//161 359//161 355//161
f 355//129 359//129 360//129 356//129
f 357//162 353//162 356//162 360//162
f 361//163 362//163 363//163 364//163
f 365//164 368//164 367//164 366//164
f 361//127 365//127 366//127 362//127
f 362//165 366//165 367//165 363//165
f 363//129 367//129 368//129 364//129
f 365//166 361//166 364//166 368//166
f 369//167 370//167 371//167 372//167
f 373//168 376//168 375//168 374//168
f 369//127 373//127 374//127 370//127
f 370//169 374//169 375//169 371//169
f 371//129 375//129 376//129 372//129
f 373//170 369//170 372//170 376//170
f 377//171 378//171 379//171 380//171
f 381//172 384//172 383//172 382//172
f 377//127 381//127 382//127 378//127
f 378//173 382//173 383//173 379//173
f 379//129 383//129 384//129 380//129
f 381//174 377//174 380//174 384//174
f 385//175 386//175 387//175 388//175
f 389//176 392//176 391//176 390//176
f 385//127 389//127 390//127 386//127
f 386//177 390//177 391//177 387//177
f 387//129 391//129 392//129 388//129
f 389//178 385//178 388//178 392//178
f 393//179 394//179 395//179 396//179
f 397//180 400//180 399//180 398//180
f 393//127 397//127 398//127 394//127
f 394//181 398//181 399//181 395//181
f 395//129 399//129 400//129 396//129
f 397//182 393//182 396//182 400//182
f 401//183 402//183 403//183 404//183
f 405//184 408//184 407//184 406//184
f 401//127 405//127 406//127 402//127
f 402//185 406//185 407//185 403//185
f 403//129 407//129 408//129 404//129
f 405//186 401//186 404//186 408//186
f 409//187 410//187 411//187 412//187
f 413//188 416//188 415//188 414//188
f 409//127 413//127 414//127 410//127
f 410//189 414//189 415//189 411//189
f 411//129 415//129 416//129 412//129
f 413//190 409//190 412//190 416//190
f 417//191 418//191 419//191 420//191
f 421//192 424//192 423//192 422//192
f 417//127 421//127 422//127 418//127
f 418//193 422//193 423//193 419//193
f 419//129 423//129 424//129 420//129
f 421//194 417//194 420//194 424//194
f 425//195 426//195 427//195 428//195
f 429//196 432//196 431//196 430//196
f 425//127 429//127 430//127 426//127
f 426//197 430//197 431//197 427//197
f 427//129 431//129 432//129 428//129
f 429//198 425//198 428//198 432//198
f 433//140 434//140 435//140 436//140
f 437//199 440//199 439//199 438//199
f 433//127 437//127 438//127 434//127
f 434//200 438//200 439//200 435//200
f 435//129 439//129 440//129 436//129
f 437//201 433//201 436//201 440//201
f 441//202 442//202 443//202 444//202
f 445//203 448//203 447//203 446//203
f 441//127 445//127 446//127 442//127
f 442//204 446//204 447//204 443//204
f 443//129 447//129 448//129 444//129
f 445//205 441//205 444//205 448//205
f 449//206 450//206 451//206 452//206
f 453//207 456//207 455//207 454//207
f 449//127 453//127 454//127 450//127
f 450//208 454//208 455//208 451//208
f 451//129 455//129 456//129 452//129
f 453//209 449//209 452//209 456//209
f 457//210 458//210 459//210 460//210
f 461//211 464//211 463//211 462//211
f 457//127 461//127 462//127 458//127
f 458//212 462//212 463//212 459//212
f 459//129 463//129 464//129 460//129
f 461//213 457//213 460//213 464//213
f 465//214 466//214 467//214 468//214
f 469//215 472//215 471//215 470//215
f 465//127 469//127 470//127 466//127
f 466//216 470//216 471//216 467//216
f 467//129 471//129 472//129 468//129
f 469//217 465//217 468//217 472//217
f 473//160 474//160 475//160 476//160
f 477//159 480//159 479//159 478//159
f 473//127 477//127 478//127 474//127
f 474//218 478//218 479//218 475//218
f 475//129 479//129 480//129 476//129
f 477//219 473//219 476//219 480//219
f 481//220 482//220 483//220 484//220
f 485//163 488//163 487//163 486//163
f 481//127 485//127 486//127 482//127
f 482//221 486//221 487//221 483//221
f 483//129 487//129 488//129 484//129
f 485//222 481//222 484//222 488//222
f 489//223 490//223 491//223 492//223
f 493//224 496//224 495//224 494//224
f 489//127 493//127 494//127 490//127
f 490//225 494//225 495//225 491//225
f 491//129 495//129 496//129 492//129
f 493//226 489//226 492//226 496//226
f 497//227 498//227 499//227 500//227
f 501//228 504//228 503//228 502//228
f 497//127 501//127 502//127 498//127
f 498//229 502//229 503//229 499//229
f 499//129 503//129 504//129 500//129
f 501//230 497//230 500//230 504//230
f 505//231 506//231 507//231 508//231
f 509//232 512//232 511//232 510//232
f 505//127 509//127 510//127 506//127
f 506//233 510//233 511//233 507//233
f 507//129 511//129 512//129 508//129
f 509//234 505//234 508//234 512//234
f 513//235 514//235 515//235 516//235
f 517//236 520//236 519//236 518//236
f 513//127 517//127 518//127 514//127
f 514//237 518//237 519//237 515//237
f 515//129 519//129 520//129 516//129
f 517//238 513//238 516//238 520//238
f 521//239 522//239 523//239 524//239
f 525//240 528//240 527//240 526//240
f 521//127 525//127 526//127 522//127
f 522//241 526//241 527//241 523//241
f 523//129 527//129 528//129 524//129
f 525//242 521//242 524//242 528//242
