# Blender v2.77 (sub 0) OBJ File: 'tank_body.blend'
# www.blender.org
mtllib tank_body.mtl
o Tank_WhellProtector.001_Cube.005
v -0.746946 0.875896 -0.328327
v -0.740459 1.482282 -0.328327
v -0.746946 0.875896 -2.317995
v -0.740459 1.482282 -2.317995
v -1.624939 0.875896 -0.328327
v -1.631426 1.482282 -0.328327
v -1.624939 0.875896 -2.317995
v -1.631426 1.482282 -2.317995
v -0.746946 1.474977 -0.991550
v -0.746946 1.474977 -1.654773
v -0.746946 0.541138 -1.654773
v -0.746946 0.541138 -0.991550
v -1.624939 1.474977 -1.654773
v -1.624939 1.474977 -0.991550
v -1.624939 0.541138 -0.991550
v -1.624939 0.541138 -1.654773
v -0.636208 0.875896 -0.328327
v -0.636208 1.599673 -0.328327
v -0.636208 0.875896 -2.317995
v -0.636208 1.599673 -2.317995
v -1.735677 0.875896 -0.328327
v -1.735677 1.599673 -0.328327
v -1.735677 0.875896 -2.317995
v -1.735677 1.599673 -2.317995
v -0.636208 1.599673 -0.991550
v -0.636208 1.599673 -1.654773
v -0.636208 0.541138 -1.654773
v -0.636208 0.541138 -0.991550
v -1.735677 1.597761 -1.653575
v -1.735677 1.597761 -0.992747
v -1.735677 0.543049 -0.992748
v -1.735677 0.543049 -1.653575
v -1.763449 1.490417 -1.586319
v -1.763449 1.490417 -1.060004
v -1.763449 0.650393 -1.060004
v -1.763449 0.650393 -1.586319
vn 1.0000 -0.0042 0.0038
vn -1.0000 -0.0042 0.0038
vn -1.0000 -0.0042 -0.0038
vn 0.0000 1.0000 0.0000
vn 0.0000 0.9999 -0.0110
vn 0.0000 0.9999 0.0110
vn -1.0000 0.0000 0.0000
vn 1.0000 -0.0042 -0.0038
vn 1.0000 0.0000 0.0000
vn 0.0017 -1.0000 0.0000
vn 0.0009 -1.0000 0.0014
vn 0.0009 -1.0000 -0.0014
vn 0.9681 0.2505 0.0000
vn 0.0000 0.0000 1.0000
vn 0.0101 0.8934 0.4492
vn 0.0101 0.8934 -0.4492
vn 0.0000 0.8927 -0.4506
vn 0.0000 0.0000 -1.0000
vn 0.0173 0.9999 0.0000
vn 0.0000 0.8927 0.4506
vn 0.9681 -0.2505 0.0000
vn 0.9243 0.0000 0.3817
vn 0.9243 0.0000 -0.3817
usemtl TankBody
s off
f 10//1 11//1 3//1 4//1
f 8//2 7//2 16//2 13//2
f 14//3 15//3 5//3 6//3
f 14//4 9//4 10//4 13//4
f 6//5 2//5 9//5 14//5
f 13//6 10//6 4//6 8//6
f 13//7 16//7 15//7 14//7
f 2//8 1//8 12//8 9//8
f 9//9 12//9 11//9 10//9
f 26//7 20//7 19//7 27//7
f 24//9 29//9 32//9 23//9
f 30//9 22//9 21//9 31//9
f 30//10 29//10 26//10 25//10
f 22//11 30//11 25//11 18//11
f 29//12 24//12 20//12 26//12
f 31//13 32//13 36//13 35//13
f 18//7 25//7 28//7 17//7
f 25//7 26//7 27//7 28//7
f 4//14 3//14 19//14 20//14
f 16//15 7//15 23//15 32//15
f 5//16 15//16 31//16 21//16
f 11//4 12//4 28//4 27//4
f 12//17 1//17 17//17 28//17
f 2//18 6//18 22//18 18//18
f 15//19 16//19 32//19 31//19
f 1//18 2//18 18//18 17//18
f 8//14 4//14 20//14 24//14
f 6//18 5//18 21//18 22//18
f 7//14 8//14 24//14 23//14
f 3//20 11//20 27//20 19//20
f 33//9 34//9 35//9 36//9
f 29//21 30//21 34//21 33//21
f 32//22 29//22 33//22 36//22
f 30//23 31//23 35//23 34//23
o Tank_Protectors.001_Cylinder.010
v -1.711317 1.056612 -2.119577
v -1.828746 1.056612 -2.119577
v -1.711317 1.025163 -2.116479
v -1.828746 1.025163 -2.116479
v -1.711317 0.994923 -2.107306
v -1.828746 0.994923 -2.107306
v -1.711317 0.967054 -2.092409
v -1.828746 0.967054 -2.092409
v -1.711317 0.942626 -2.072362
v -1.828746 0.942626 -2.072362
v -1.711317 0.922578 -2.047934
v -1.828746 0.922578 -2.047934
v -1.711317 0.907682 -2.020064
v -1.828746 0.907682 -2.020064
v -1.711317 0.898508 -1.989824
v -1.828746 0.898508 -1.989824
v -1.711317 0.895411 -1.958375
v -1.828746 0.895411 -1.958375
v -1.711317 0.898508 -1.926926
v -1.828746 0.898508 -1.926926
v -1.711317 0.907682 -1.896686
v -1.828746 0.907682 -1.896686
v -1.711317 0.922578 -1.868816
v -1.828746 0.922578 -1.868816
v -1.711317 0.942626 -1.844389
v -1.828746 0.942626 -1.844389
v -1.711317 0.967054 -1.824341
v -1.828746 0.967054 -1.824341
v -1.711317 0.994923 -1.809445
v -1.828746 0.994923 -1.809445
v -1.711317 1.025163 -1.800271
v -1.828746 1.025163 -1.800271
v -1.711317 1.056612 -1.797174
v -1.828746 1.056612 -1.797174
v -1.711317 1.088061 -1.800271
v -1.828746 1.088061 -1.800271
v -1.711317 1.118301 -1.809445
v -1.828746 1.118301 -1.809445
v -1.711317 1.146171 -1.824341
v -1.828746 1.146171 -1.824341
v -1.711317 1.170599 -1.844389
v -1.828746 1.170599 -1.844389
v -1.711317 1.190646 -1.868817
v -1.828746 1.190646 -1.868817
v -1.711317 1.205543 -1.896686
v -1.828746 1.205543 -1.896686
v -1.711317 1.214716 -1.926926
v -1.828746 1.214716 -1.926926
v -1.711317 1.217814 -1.958375
v -1.828746 1.217814 -1.958375
v -1.711317 1.214716 -1.989824
v -1.828746 1.214716 -1.989824
v -1.711317 1.205543 -2.020065
v -1.828746 1.205543 -2.020065
v -1.711317 1.190646 -2.047934
v -1.828746 1.190646 -2.047934
v -1.711317 1.170599 -2.072362
v -1.828746 1.170599 -2.072362
v -1.711317 1.146171 -2.092409
v -1.828746 1.146171 -2.092409
v -1.711317 1.118301 -2.107306
v -1.828746 1.118301 -2.107306
v -1.711317 1.088061 -2.116479
v -1.828746 1.088061 -2.116479
v -1.828746 1.036490 -2.059538
v -1.828746 1.056612 -2.061519
v -1.828746 1.017141 -2.053668
v -1.828746 0.999308 -2.044137
v -1.828746 0.983678 -2.031309
v -1.828746 0.970851 -2.015679
v -1.828746 0.961319 -1.997847
v -1.828746 0.955450 -1.978498
v -1.828746 0.953468 -1.958375
v -1.828746 0.955450 -1.938253
v -1.828746 0.961319 -1.918904
v -1.828746 0.970851 -1.901071
v -1.828746 0.983678 -1.885441
v -1.828746 0.999308 -1.872614
v -1.828746 1.017141 -1.863082
v -1.828746 1.036490 -1.857213
v -1.828746 1.056612 -1.855231
v -1.828746 1.076735 -1.857213
v -1.828746 1.096084 -1.863082
v -1.828746 1.113916 -1.872614
v -1.828746 1.129546 -1.885441
v -1.828746 1.142374 -1.901071
v -1.828746 1.151905 -1.918904
v -1.828746 1.157775 -1.938253
v -1.828746 1.159756 -1.958375
v -1.828746 1.157775 -1.978498
v -1.828746 1.151905 -1.997847
v -1.828746 1.142373 -2.015679
v -1.828746 1.129546 -2.031309
v -1.828746 1.113916 -2.044137
v -1.828746 1.096084 -2.053668
v -1.828746 1.076735 -2.059538
v -1.724435 1.036490 -2.059538
v -1.724435 1.056612 -2.061519
v -1.724435 1.017141 -2.053668
v -1.724435 0.999308 -2.044137
v -1.724435 0.983678 -2.031309
v -1.724435 0.970851 -2.015679
v -1.724435 0.961319 -1.997847
v -1.724435 0.955450 -1.978498
v -1.724435 0.953468 -1.958375
v -1.724435 0.955450 -1.938253
v -1.724435 0.961319 -1.918904
v -1.724435 0.970851 -1.901071
v -1.724435 0.983678 -1.885441
v -1.724435 0.999308 -1.872614
v -1.724435 1.017141 -1.863082
v -1.724435 1.036490 -1.857213
v -1.724435 1.056612 -1.855231
v -1.724435 1.076735 -1.857213
v -1.724435 1.096084 -1.863082
v -1.724435 1.113916 -1.872614
v -1.724435 1.129546 -1.885441
v -1.724435 1.142374 -1.901071
v -1.724435 1.151905 -1.918904
v -1.724435 1.157775 -1.938253
v -1.724435 1.159757 -1.958375
v -1.724435 1.157775 -1.978498
v -1.724435 1.151905 -1.997847
v -1.724435 1.142373 -2.015679
v -1.724435 1.129546 -2.031309
v -1.724435 1.113916 -2.044137
v -1.724435 1.096084 -2.053668
v -1.724435 1.076735 -2.059538
vn 0.0000 0.0980 0.9952
vn 0.0000 0.2903 0.9569
vn 0.0000 0.4714 0.8819
vn 0.0000 0.6344 0.7730
vn 0.0000 0.7730 0.6344
vn 0.0000 0.8819 0.4714
vn 0.0000 0.9569 0.2903
vn 0.0000 0.9952 0.0980
vn 0.0000 0.9952 -0.0980
vn 0.0000 0.9569 -0.2903
vn 0.0000 0.8819 -0.4714
vn 0.0000 0.7730 -0.6344
vn 0.0000 0.6344 -0.7730
vn 0.0000 0.4714 -0.8819
vn 0.0000 0.2903 -0.9569
vn 0.0000 0.0980 -0.9952
vn 0.0000 -0.0980 -0.9952
vn -0.0000 -0.2903 -0.9569
vn 0.0000 -0.4714 -0.8819
vn 0.0000 -0.6344 -0.7730
vn 0.0000 -0.7730 -0.6344
vn 0.0000 -0.8819 -0.4714
vn 0.0000 -0.9569 -0.2903
vn 0.0000 -0.9952 -0.0980
vn 0.0000 -0.9952 0.0980
vn 0.0000 -0.9569 0.2903
vn 0.0000 -0.8819 0.4714
vn 0.0000 -0.7730 0.6344
vn 0.0000 -0.6344 0.7730
vn 0.0000 -0.4714 0.8819
vn 1.0000 0.0000 0.0000
vn 0.0000 -0.2903 0.9569
vn 0.0000 -0.0980 0.9952
vn -1.0000 -0.0000 0.0000
usemtl Pins
s off
f 37//24 38//24 40//24 39//24
f 39//25 40//25 42//25 41//25
f 41//26 42//26 44//26 43//26
f 43//27 44//27 46//27 45//27
f 45//28 46//28 48//28 47//28
f 47//29 48//29 50//29 49//29
f 49//30 50//30 52//30 51//30
f 51//31 52//31 54//31 53//31
f 53//32 54//32 56//32 55//32
f 55//33 56//33 58//33 57//33
f 57//34 58//34 60//34 59//34
f 59//35 60//35 62//35 61//35
f 61//36 62//36 64//36 63//36
f 63//37 64//37 66//37 65//37
f 65//38 66//38 68//38 67//38
f 67//39 68//39 70//39 69//39
f 69//40 70//40 72//40 71//40
f 71//41 72//41 74//41 73//41
f 73//42 74//42 76//42 75//42
f 75//43 76//43 78//43 77//43
f 77//44 78//44 80//44 79//44
f 79//45 80//45 82//45 81//45
f 81//46 82//46 84//46 83//46
f 83//47 84//47 86//47 85//47
f 85//48 86//48 88//48 87//48
f 87//49 88//49 90//49 89//49
f 89//50 90//50 92//50 91//50
f 91//51 92//51 94//51 93//51
f 93//52 94//52 96//52 95//52
f 95//53 96//53 98//53 97//53
f 58//54 56//54 110//54 111//54
f 97//55 98//55 100//55 99//55
f 99//56 100//56 38//56 37//56
f 37//57 39//57 41//57 43//57 45//57 47//57 49//57 51//57 53//57 55//57 57//57 59//57 61//57 63//57 65//57 67//57 69//57 71//57 73//57 75//57 77//57 79//57 81//57 83//57 85//57 87//57 89//57 91//57 93//57 95//57 97//57 99//57
f 128//34 127//34 159//34 160//34
f 76//54 74//54 119//54 120//54
f 94//54 92//54 128//54 129//54
f 50//54 48//54 106//54 107//54
f 68//54 66//54 115//54 116//54
f 86//54 84//54 124//54 125//54
f 42//54 40//54 101//54 103//54
f 60//54 58//54 111//54 112//54
f 78//54 76//54 120//54 121//54
f 96//54 94//54 129//54 130//54
f 52//54 50//54 107//54 108//54
f 70//54 68//54 116//54 117//54
f 88//54 86//54 125//54 126//54
f 44//54 42//54 103//54 104//54
f 62//54 60//54 112//54 113//54
f 80//54 78//54 121//54 122//54
f 98//54 96//54 130//54 131//54
f 54//54 52//54 108//54 109//54
f 72//54 70//54 117//54 118//54
f 90//54 88//54 126//54 127//54
f 46//54 44//54 104//54 105//54
f 64//54 62//54 113//54 114//54
f 82//54 80//54 122//54 123//54
f 100//54 98//54 131//54 132//54
f 56//54 54//54 109//54 110//54
f 74//54 72//54 118//54 119//54
f 92//54 90//54 127//54 128//54
f 48//54 46//54 105//54 106//54
f 66//54 64//54 114//54 115//54
f 84//54 82//54 123//54 124//54
f 40//54 38//54 102//54 101//54
f 38//54 100//54 132//54 102//54
f 133//54 134//54 164//54 163//54 162//54 161//54 160//54 159//54 158//54 157//54 156//54 155//54 154//54 153//54 152//54 151//54 150//54 149//54 148//54 147//54 146//54 145//54 144//54 143//54 142//54 141//54 140//54 139//54 138//54 137//54 136//54 135//54
f 115//53 114//53 146//53 147//53
f 101//40 102//40 134//40 133//40
f 129//35 128//35 160//35 161//35
f 116//55 115//55 147//55 148//55
f 103//41 101//41 133//41 135//41
f 130//36 129//36 161//36 162//36
f 117//56 116//56 148//56 149//56
f 104//42 103//42 135//42 136//42
f 131//37 130//37 162//37 163//37
f 118//24 117//24 149//24 150//24
f 105//43 104//43 136//43 137//43
f 132//38 131//38 163//38 164//38
f 119//25 118//25 150//25 151//25
f 106//44 105//44 137//44 138//44
f 102//39 132//39 164//39 134//39
f 120//26 119//26 151//26 152//26
f 107//45 106//45 138//45 139//45
f 121//27 120//27 152//27 153//27
f 108//46 107//46 139//46 140//46
f 122//28 121//28 153//28 154//28
f 109//47 108//47 140//47 141//47
f 123//29 122//29 154//29 155//29
f 110//48 109//48 141//48 142//48
f 124//30 123//30 155//30 156//30
f 111//49 110//49 142//49 143//49
f 125//31 124//31 156//31 157//31
f 112//50 111//50 143//50 144//50
f 126//32 125//32 157//32 158//32
f 113//51 112//51 144//51 145//51
f 127//33 126//33 158//33 159//33
f 114//52 113//52 145//52 146//52
o Cylinder.002_Cylinder.011
v -1.711317 1.056612 -0.835031
v -1.828746 1.056612 -0.835031
v -1.711317 1.025164 -0.831934
v -1.828746 1.025164 -0.831934
v -1.711317 0.994923 -0.822760
v -1.828746 0.994923 -0.822760
v -1.711317 0.967054 -0.807864
v -1.828746 0.967054 -0.807864
v -1.711317 0.942626 -0.787816
v -1.828746 0.942626 -0.787816
v -1.711317 0.922578 -0.763388
v -1.828746 0.922578 -0.763388
v -1.711317 0.907682 -0.735519
v -1.828746 0.907682 -0.735519
v -1.711317 0.898508 -0.705278
v -1.828746 0.898508 -0.705278
v -1.711317 0.895411 -0.673830
v -1.828746 0.895411 -0.673830
v -1.711317 0.898508 -0.642381
v -1.828746 0.898508 -0.642381
v -1.711317 0.907682 -0.612141
v -1.828746 0.907682 -0.612141
v -1.711317 0.922578 -0.584271
v -1.828746 0.922578 -0.584271
v -1.711317 0.942626 -0.559843
v -1.828746 0.942626 -0.559843
v -1.711317 0.967054 -0.539796
v -1.828746 0.967054 -0.539796
v -1.711317 0.994923 -0.524899
v -1.828746 0.994923 -0.524899
v -1.711317 1.025164 -0.515726
v -1.828746 1.025164 -0.515726
v -1.711317 1.056612 -0.512628
v -1.828746 1.056612 -0.512628
v -1.711317 1.088061 -0.515726
v -1.828746 1.088061 -0.515726
v -1.711317 1.118302 -0.524899
v -1.828746 1.118302 -0.524899
v -1.711317 1.146171 -0.539796
v -1.828746 1.146171 -0.539796
v -1.711317 1.170599 -0.559843
v -1.828746 1.170599 -0.559843
v -1.711317 1.190647 -0.584271
v -1.828746 1.190647 -0.584271
v -1.711317 1.205543 -0.612141
v -1.828746 1.205543 -0.612141
v -1.711317 1.214716 -0.642381
v -1.828746 1.214716 -0.642381
v -1.711317 1.217814 -0.673830
v -1.828746 1.217814 -0.673830
v -1.711317 1.214716 -0.705279
v -1.828746 1.214716 -0.705279
v -1.711317 1.205543 -0.735519
v -1.828746 1.205543 -0.735519
v -1.711317 1.190646 -0.763389
v -1.828746 1.190646 -0.763389
v -1.711317 1.170599 -0.787816
v -1.828746 1.170599 -0.787816
v -1.711317 1.146171 -0.807864
v -1.828746 1.146171 -0.807864
v -1.711317 1.118301 -0.822760
v -1.828746 1.118301 -0.822760
v -1.711317 1.088061 -0.831934
v -1.828746 1.088061 -0.831934
v -1.828746 1.036490 -0.774992
v -1.828746 1.056612 -0.776974
v -1.828746 1.017141 -0.769122
v -1.828746 0.999308 -0.759591
v -1.828746 0.983678 -0.746764
v -1.828746 0.970851 -0.731134
v -1.828746 0.961320 -0.713301
v -1.828746 0.955450 -0.693952
v -1.828746 0.953468 -0.673830
v -1.828746 0.955450 -0.653707
v -1.828746 0.961320 -0.634358
v -1.828746 0.970851 -0.616526
v -1.828746 0.983678 -0.600896
v -1.828746 0.999308 -0.588068
v -1.828746 1.017141 -0.578537
v -1.828746 1.036490 -0.572667
v -1.828746 1.056612 -0.570685
v -1.828746 1.076735 -0.572667
v -1.828746 1.096084 -0.578537
v -1.828746 1.113916 -0.588068
v -1.828746 1.129546 -0.600896
v -1.828746 1.142374 -0.616526
v -1.828746 1.151905 -0.634358
v -1.828746 1.157775 -0.653707
v -1.828746 1.159757 -0.673830
v -1.828746 1.157775 -0.693952
v -1.828746 1.151905 -0.713301
v -1.828746 1.142374 -0.731134
v -1.828746 1.129546 -0.746764
v -1.828746 1.113916 -0.759591
v -1.828746 1.096084 -0.769123
v -1.828746 1.076735 -0.774992
v -1.724435 1.036490 -0.774992
v -1.724435 1.056612 -0.776974
v -1.724435 1.017141 -0.769122
v -1.724435 0.999309 -0.759591
v -1.724435 0.983678 -0.746764
v -1.724435 0.970851 -0.731134
v -1.724435 0.961320 -0.713301
v -1.724435 0.955450 -0.693952
v -1.724435 0.953468 -0.673830
v -1.724435 0.955450 -0.653707
v -1.724435 0.961320 -0.634358
v -1.724435 0.970851 -0.616526
v -1.724435 0.983678 -0.600896
v -1.724435 0.999309 -0.588068
v -1.724435 1.017141 -0.578537
v -1.724435 1.036490 -0.572667
v -1.724435 1.056612 -0.570685
v -1.724435 1.076735 -0.572667
v -1.724435 1.096084 -0.578537
v -1.724435 1.113916 -0.588068
v -1.724435 1.129546 -0.600896
v -1.724435 1.142374 -0.616526
v -1.724435 1.151905 -0.634358
v -1.724435 1.157775 -0.653707
v -1.724435 1.159757 -0.673830
v -1.724435 1.157775 -0.693952
v -1.724435 1.151905 -0.713301
v -1.724435 1.142374 -0.731134
v -1.724435 1.129546 -0.746764
v -1.724435 1.113916 -0.759591
v -1.724435 1.096084 -0.769123
v -1.724435 1.076735 -0.774992
vn 0.0000 0.0980 0.9952
vn 0.0000 0.2903 0.9569
vn 0.0000 0.4714 0.8819
vn 0.0000 0.6344 0.7730
vn 0.0000 0.7730 0.6344
vn 0.0000 0.8819 0.4714
vn 0.0000 0.9569 0.2903
vn 0.0000 0.9952 0.0980
vn 0.0000 0.9952 -0.0980
vn 0.0000 0.9569 -0.2903
vn 0.0000 0.8819 -0.4714
vn 0.0000 0.7730 -0.6344
vn 0.0000 0.6344 -0.7730
vn 0.0000 0.4714 -0.8819
vn 0.0000 0.2903 -0.9569
vn 0.0000 0.0980 -0.9952
vn 0.0000 -0.0980 -0.9952
vn 0.0000 -0.2903 -0.9569
vn 0.0000 -0.4714 -0.8819
vn 0.0000 -0.6344 -0.7730
vn 0.0000 -0.7730 -0.6344
vn 0.0000 -0.8819 -0.4714
vn 0.0000 -0.9569 -0.2903
vn 0.0000 -0.9952 -0.0980
vn 0.0000 -0.9952 0.0980
vn 0.0000 -0.9569 0.2903
vn 0.0000 -0.8819 0.4714
vn 0.0000 -0.7730 0.6344
vn 0.0000 -0.6344 0.7730
vn 0.0000 -0.4714 0.8819
vn 1.0000 0.0000 0.0000
vn 0.0000 -0.2903 0.9569
vn 0.0000 -0.0980 0.9952
vn -1.0000 0.0000 0.0000
usemtl Pins
s off
f 165//58 166//58 168//58 167//58
f 167//59 168//59 170//59 169//59
f 169//60 170//60 172//60 171//60
f 171//61 172//61 174//61 173//61
f 173//62 174//62 176//62 175//62
f 175//63 176//63 178//63 177//63
f 177//64 178//64 180//64 179//64
f 179//65 180//65 182//65 181//65
f 181//66 182//66 184//66 183//66
f 183//67 184//67 186//67 185//67
f 185//68 186//68 188//68 187//68
f 187//69 188//69 190//69 189//69
f 189//70 190//70 192//70 191//70
f 191//71 192//71 194//71 193//71
f 193//72 194//72 196//72 195//72
f 195//73 196//73 198//73 197//73
f 197//74 198//74 200//74 199//74
f 199//75 200//75 202//75 201//75
f 201//76 202//76 204//76 203//76
f 203//77 204//77 206//77 205//77
f 205//78 206//78 208//78 207//78
f 207//79 208//79 210//79 209//79
f 209//80 210//80 212//80 211//80
f 211//81 212//81 214//81 213//81
f 213//82 214//82 216//82 215//82
f 215//83 216//83 218//83 217//83
f 217//84 218//84 220//84 219//84
f 219//85 220//85 222//85 221//85
f 221//86 222//86 224//86 223//86
f 223//87 224//87 226//87 225//87
f 186//88 184//88 238//88 239//88
f 225//89 226//89 228//89 227//89
f 227//90 228//90 166//90 165//90
f 165//91 167//91 169//91 171//91 173//91 175//91 177//91 179//91 181//91 183//91 185//91 187//91 189//91 191//91 193//91 195//91 197//91 199//91 201//91 203//91 205//91 207//91 209//91 211//91 213//91 215//91 217//91 219//91 221//91 223//91 225//91 227//91
f 256//68 255//68 287//68 288//68
f 204//88 202//88 247//88 248//88
f 222//88 220//88 256//88 257//88
f 178//88 176//88 234//88 235//88
f 196//88 194//88 243//88 244//88
f 214//88 212//88 252//88 253//88
f 170//88 168//88 229//88 231//88
f 188//88 186//88 239//88 240//88
f 206//88 204//88 248//88 249//88
f 224//88 222//88 257//88 258//88
f 180//88 178//88 235//88 236//88
f 198//88 196//88 244//88 245//88
f 216//88 214//88 253//88 254//88
f 172//88 170//88 231//88 232//88
f 190//88 188//88 240//88 241//88
f 208//88 206//88 249//88 250//88
f 226//88 224//88 258//88 259//88
f 182//88 180//88 236//88 237//88
f 200//88 198//88 245//88 246//88
f 218//88 216//88 254//88 255//88
f 174//88 172//88 232//88 233//88
f 192//88 190//88 241//88 242//88
f 210//88 208//88 250//88 251//88
f 228//88 226//88 259//88 260//88
f 184//88 182//88 237//88 238//88
f 202//88 200//88 246//88 247//88
f 220//88 218//88 255//88 256//88
f 176//88 174//88 233//88 234//88
f 194//88 192//88 242//88 243//88
f 212//88 210//88 251//88 252//88
f 168//88 166//88 230//88 229//88
f 166//88 228//88 260//88 230//88
f 261//88 262//88 292//88 291//88 290//88 289//88 288//88 287//88 286//88 285//88 284//88 283//88 282//88 281//88 280//88 279//88 278//88 277//88 276//88 275//88 274//88 273//88 272//88 271//88 270//88 269//88 268//88 267//88 266//88 265//88 264//88 263//88
f 243//87 242//87 274//87 275//87
f 229//74 230//74 262//74 261//74
f 257//69 256//69 288//69 289//69
f 244//89 243//89 275//89 276//89
f 231//75 229//75 261//75 263//75
f 258//70 257//70 289//70 290//70
f 245//90 244//90 276//90 277//90
f 232//76 231//76 263//76 264//76
f 259//71 258//71 290//71 291//71
f 246//58 245//58 277//58 278//58
f 233//77 232//77 264//77 265//77
f 260//72 259//72 291//72 292//72
f 247//59 246//59 278//59 279//59
f 234//78 233//78 265//78 266//78
f 230//73 260//73 292//73 262//73
f 248//60 247//60 279//60 280//60
f 235//79 234//79 266//79 267//79
f 249//61 248//61 280//61 281//61
f 236//80 235//80 267//80 268//80
f 250//62 249//62 281//62 282//62
f 237//81 236//81 268//81 269//81
f 251//63 250//63 282//63 283//63
f 238//82 237//82 269//82 270//82
f 252//64 251//64 283//64 284//64
f 239//83 238//83 270//83 271//83
f 253//65 252//65 284//65 285//65
f 240//84 239//84 271//84 272//84
f 254//66 253//66 285//66 286//66
f 241//85 240//85 272//85 273//85
f 255//67 254//67 286//67 287//67
f 242//86 241//86 273//86 274//86
o Tank_Protectors_Cylinder.002
v 1.711317 1.056612 -2.119577
v 1.828746 1.056612 -2.119577
v 1.711317 1.025163 -2.116479
v 1.828746 1.025163 -2.116479
v 1.711317 0.994923 -2.107306
v 1.828746 0.994923 -2.107306
v 1.711317 0.967054 -2.092409
v 1.828746 0.967054 -2.092409
v 1.711317 0.942626 -2.072362
v 1.828746 0.942626 -2.072362
v 1.711317 0.922578 -2.047934
v 1.828746 0.922578 -2.047934
v 1.711317 0.907682 -2.020064
v 1.828746 0.907682 -2.020064
v 1.711317 0.898508 -1.989824
v 1.828746 0.898508 -1.989824
v 1.711317 0.895411 -1.958375
v 1.828746 0.895411 -1.958375
v 1.711317 0.898508 -1.926926
v 1.828746 0.898508 -1.926926
v 1.711317 0.907682 -1.896686
v 1.828746 0.907682 -1.896686
v 1.711317 0.922578 -1.868816
v 1.828746 0.922578 -1.868816
v 1.711317 0.942626 -1.844389
v 1.828746 0.942626 -1.844389
v 1.711317 0.967054 -1.824341
v 1.828746 0.967054 -1.824341
v 1.711317 0.994923 -1.809445
v 1.828746 0.994923 -1.809445
v 1.711317 1.025163 -1.800271
v 1.828746 1.025163 -1.800271
v 1.711317 1.056612 -1.797174
v 1.828746 1.056612 -1.797174
v 1.711317 1.088061 -1.800271
v 1.828746 1.088061 -1.800271
v 1.711317 1.118301 -1.809445
v 1.828746 1.118301 -1.809445
v 1.711317 1.146171 -1.824341
v 1.828746 1.146171 -1.824341
v 1.711317 1.170599 -1.844389
v 1.828746 1.170599 -1.844389
v 1.711317 1.190646 -1.868817
v 1.828746 1.190646 -1.868817
v 1.711317 1.205543 -1.896686
v 1.828746 1.205543 -1.896686
v 1.711317 1.214716 -1.926926
v 1.828746 1.214716 -1.926926
v 1.711317 1.217814 -1.958375
v 1.828746 1.217814 -1.958375
v 1.711317 1.214716 -1.989824
v 1.828746 1.214716 -1.989824
v 1.711317 1.205543 -2.020065
v 1.828746 1.205543 -2.020065
v 1.711317 1.190646 -2.047934
v 1.828746 1.190646 -2.047934
v 1.711317 1.170599 -2.072362
v 1.828746 1.170599 -2.072362
v 1.711317 1.146171 -2.092409
v 1.828746 1.146171 -2.092409
v 1.711317 1.118301 -2.107306
v 1.828746 1.118301 -2.107306
v 1.711317 1.088061 -2.116479
v 1.828746 1.088061 -2.116479
v 1.828746 1.036490 -2.059538
v 1.828746 1.056612 -2.061519
v 1.828746 1.017141 -2.053668
v 1.828746 0.999308 -2.044137
v 1.828746 0.983678 -2.031309
v 1.828746 0.970851 -2.015679
v 1.828746 0.961319 -1.997847
v 1.828746 0.955450 -1.978498
v 1.828746 0.953468 -1.958375
v 1.828746 0.955450 -1.938253
v 1.828746 0.961319 -1.918904
v 1.828746 0.970851 -1.901071
v 1.828746 0.983678 -1.885441
v 1.828746 0.999308 -1.872614
v 1.828746 1.017141 -1.863082
v 1.828746 1.036490 -1.857213
v 1.828746 1.056612 -1.855231
v 1.828746 1.076735 -1.857213
v 1.828746 1.096084 -1.863082
v 1.828746 1.113916 -1.872614
v 1.828746 1.129546 -1.885441
v 1.828746 1.142374 -1.901071
v 1.828746 1.151905 -1.918904
v 1.828746 1.157775 -1.938253
v 1.828746 1.159756 -1.958375
v 1.828746 1.157775 -1.978498
v 1.828746 1.151905 -1.997847
v 1.828746 1.142373 -2.015679
v 1.828746 1.129546 -2.031309
v 1.828746 1.113916 -2.044137
v 1.828746 1.096084 -2.053668
v 1.828746 1.076735 -2.059538
v 1.724435 1.036490 -2.059538
v 1.724435 1.056612 -2.061519
v 1.724435 1.017141 -2.053668
v 1.724435 0.999308 -2.044137
v 1.724435 0.983678 -2.031309
v 1.724435 0.970851 -2.015679
v 1.724435 0.961319 -1.997847
v 1.724435 0.955450 -1.978498
v 1.724435 0.953468 -1.958375
v 1.724435 0.955450 -1.938253
v 1.724435 0.961319 -1.918904
v 1.724435 0.970851 -1.901071
v 1.724435 0.983678 -1.885441
v 1.724435 0.999308 -1.872614
v 1.724435 1.017141 -1.863082
v 1.724435 1.036490 -1.857213
v 1.724435 1.056612 -1.855231
v 1.724435 1.076735 -1.857213
v 1.724435 1.096084 -1.863082
v 1.724435 1.113916 -1.872614
v 1.724435 1.129546 -1.885441
v 1.724435 1.142374 -1.901071
v 1.724435 1.151905 -1.918904
v 1.724435 1.157775 -1.938253
v 1.724435 1.159757 -1.958375
v 1.724435 1.157775 -1.978498
v 1.724435 1.151905 -1.997847
v 1.724435 1.142373 -2.015679
v 1.724435 1.129546 -2.031309
v 1.724435 1.113916 -2.044137
v 1.724435 1.096084 -2.053668
v 1.724435 1.076735 -2.059538
vn 0.0000 -0.0980 -0.9952
vn 0.0000 -0.2903 -0.9569
vn 0.0000 -0.4714 -0.8819
vn 0.0000 -0.6344 -0.7730
vn 0.0000 -0.7730 -0.6344
vn 0.0000 -0.8819 -0.4714
vn 0.0000 -0.9569 -0.2903
vn 0.0000 -0.9952 -0.0980
vn 0.0000 -0.9952 0.0980
vn 0.0000 -0.9569 0.2903
vn 0.0000 -0.8819 0.4714
vn 0.0000 -0.7730 0.6344
vn 0.0000 -0.6344 0.7730
vn 0.0000 -0.4714 0.8819
vn 0.0000 -0.2903 0.9569
vn 0.0000 -0.0980 0.9952
vn -0.0000 0.0980 0.9952
vn 0.0000 0.2903 0.9569
vn 0.0000 0.4714 0.8819
vn 0.0000 0.6344 0.7730
vn 0.0000 0.7730 0.6344
vn 0.0000 0.8819 0.4714
vn 0.0000 0.9569 0.2903
vn 0.0000 0.9952 0.0980
vn 0.0000 0.9952 -0.0980
vn 0.0000 0.9569 -0.2903
vn 0.0000 0.8819 -0.4714
vn 0.0000 0.7730 -0.6344
vn -0.0000 0.6344 -0.7730
vn 0.0000 0.4714 -0.8819
vn 1.0000 0.0000 0.0000
vn 0.0000 0.2903 -0.9569
vn 0.0000 0.0980 -0.9952
vn -1.0000 -0.0000 0.0000
usemtl Pins
s off
f 293//92 294//92 296//92 295//92
f 295//93 296//93 298//93 297//93
f 297//94 298//94 300//94 299//94
f 299//95 300//95 302//95 301//95
f 301//96 302//96 304//96 303//96
f 303//97 304//97 306//97 305//97
f 305//98 306//98 308//98 307//98
f 307//99 308//99 310//99 309//99
f 309//100 310//100 312//100 311//100
f 311//101 312//101 314//101 313//101
f 313//102 314//102 316//102 315//102
f 315//103 316//103 318//103 317//103
f 317//104 318//104 320//104 319//104
f 319//105 320//105 322//105 321//105
f 321//106 322//106 324//106 323//106
f 323//107 324//107 326//107 325//107
f 325//108 326//108 328//108 327//108
f 327//109 328//109 330//109 329//109
f 329//110 330//110 332//110 331//110
f 331//111 332//111 334//111 333//111
f 333//112 334//112 336//112 335//112
f 335//113 336//113 338//113 337//113
f 337//114 338//114 340//114 339//114
f 339//115 340//115 342//115 341//115
f 341//116 342//116 344//116 343//116
f 343//117 344//117 346//117 345//117
f 345//118 346//118 348//118 347//118
f 347//119 348//119 350//119 349//119
f 349//120 350//120 352//120 351//120
f 351//121 352//121 354//121 353//121
f 314//122 312//122 366//122 367//122
f 353//123 354//123 356//123 355//123
f 355//124 356//124 294//124 293//124
f 293//125 295//125 297//125 299//125 301//125 303//125 305//125 307//125 309//125 311//125 313//125 315//125 317//125 319//125 321//125 323//125 325//125 327//125 329//125 331//125 333//125 335//125 337//125 339//125 341//125 343//125 345//125 347//125 349//125 351//125 353//125 355//125
f 384//102 383//102 415//102 416//102
f 332//122 330//122 375//122 376//122
f 350//122 348//122 384//122 385//122
f 306//122 304//122 362//122 363//122
f 324//122 322//122 371//122 372//122
f 342//122 340//122 380//122 381//122
f 298//122 296//122 357//122 359//122
f 316//122 314//122 367//122 368//122
f 334//122 332//122 376//122 377//122
f 352//122 350//122 385//122 386//122
f 308//122 306//122 363//122 364//122
f 326//122 324//122 372//122 373//122
f 344//122 342//122 381//122 382//122
f 300//122 298//122 359//122 360//122
f 318//122 316//122 368//122 369//122
f 336//122 334//122 377//122 378//122
f 354//122 352//122 386//122 387//122
f 310//122 308//122 364//122 365//122
f 328//122 326//122 373//122 374//122
f 346//122 344//122 382//122 383//122
f 302//122 300//122 360//122 361//122
f 320//122 318//122 369//122 370//122
f 338//122 336//122 378//122 379//122
f 356//122 354//122 387//122 388//122
f 312//122 310//122 365//122 366//122
f 330//122 328//122 374//122 375//122
f 348//122 346//122 383//122 384//122
f 304//122 302//122 361//122 362//122
f 322//122 320//122 370//122 371//122
f 340//122 338//122 379//122 380//122
f 296//122 294//122 358//122 357//122
f 294//122 356//122 388//122 358//122
f 389//122 390//122 420//122 419//122 418//122 417//122 416//122 415//122 414//122 413//122 412//122 411//122 410//122 409//122 408//122 407//122 406//122 405//122 404//122 403//122 402//122 401//122 400//122 399//122 398//122 397//122 396//122 395//122 394//122 393//122 392//122 391//122
f 371//121 370//121 402//121 403//121
f 357//108 358//108 390//108 389//108
f 385//103 384//103 416//103 417//103
f 372//123 371//123 403//123 404//123
f 359//109 357//109 389//109 391//109
f 386//104 385//104 417//104 418//104
f 373//124 372//124 404//124 405//124
f 360//110 359//110 391//110 392//110
f 387//105 386//105 418//105 419//105
f 374//92 373//92 405//92 406//92
f 361//111 360//111 392//111 393//111
f 388//106 387//106 419//106 420//106
f 375//93 374//93 406//93 407//93
f 362//112 361//112 393//112 394//112
f 358//107 388//107 420//107 390//107
f 376//94 375//94 407//94 408//94
f 363//113 362//113 394//113 395//113
f 377//95 376//95 408//95 409//95
f 364//114 363//114 395//114 396//114
f 378//96 377//96 409//96 410//96
f 365//115 364//115 396//115 397//115
f 379//97 378//97 410//97 411//97
f 366//116 365//116 397//116 398//116
f 380//98 379//98 411//98 412//98
f 367//117 366//117 398//117 399//117
f 381//99 380//99 412//99 413//99
f 368//118 367//118 399//118 400//118
f 382//100 381//100 413//100 414//100
f 369//119 368//119 400//119 401//119
f 383//101 382//101 414//101 415//101
f 370//120 369//120 401//120 402//120
o Cylinder
v 1.711317 1.056612 -0.835031
v 1.828747 1.056612 -0.835031
v 1.711317 1.025164 -0.831934
v 1.828747 1.025164 -0.831934
v 1.711317 0.994923 -0.822760
v 1.828747 0.994923 -0.822760
v 1.711317 0.967054 -0.807864
v 1.828747 0.967054 -0.807864
v 1.711317 0.942626 -0.787816
v 1.828747 0.942626 -0.787816
v 1.711317 0.922578 -0.763388
v 1.828747 0.922578 -0.763388
v 1.711317 0.907682 -0.735519
v 1.828747 0.907682 -0.735519
v 1.711317 0.898508 -0.705278
v 1.828747 0.898508 -0.705278
v 1.711317 0.895411 -0.673830
v 1.828747 0.895411 -0.673830
v 1.711317 0.898508 -0.642381
v 1.828747 0.898508 -0.642381
v 1.711317 0.907682 -0.612141
v 1.828747 0.907682 -0.612141
v 1.711317 0.922578 -0.584271
v 1.828747 0.922578 -0.584271
v 1.711317 0.942626 -0.559843
v 1.828747 0.942626 -0.559843
v 1.711317 0.967054 -0.539796
v 1.828747 0.967054 -0.539796
v 1.711317 0.994923 -0.524899
v 1.828747 0.994923 -0.524899
v 1.711317 1.025164 -0.515726
v 1.828747 1.025164 -0.515726
v 1.711317 1.056612 -0.512628
v 1.828747 1.056612 -0.512628
v 1.711317 1.088061 -0.515726
v 1.828746 1.088061 -0.515726
v 1.711317 1.118302 -0.524899
v 1.828746 1.118302 -0.524899
v 1.711317 1.146171 -0.539796
v 1.828746 1.146171 -0.539796
v 1.711317 1.170599 -0.559843
v 1.828746 1.170599 -0.559843
v 1.711317 1.190647 -0.584271
v 1.828746 1.190647 -0.584271
v 1.711317 1.205543 -0.612141
v 1.828746 1.205543 -0.612141
v 1.711317 1.214717 -0.642381
v 1.828746 1.214717 -0.642381
v 1.711317 1.217814 -0.673830
v 1.828746 1.217814 -0.673830
v 1.711317 1.214716 -0.705279
v 1.828746 1.214716 -0.705279
v 1.711317 1.205543 -0.735519
v 1.828746 1.205543 -0.735519
v 1.711317 1.190647 -0.763389
v 1.828746 1.190647 -0.763389
v 1.711317 1.170599 -0.787816
v 1.828746 1.170599 -0.787816
v 1.711317 1.146171 -0.807864
v 1.828746 1.146171 -0.807864
v 1.711317 1.118301 -0.822760
v 1.828746 1.118301 -0.822760
v 1.711317 1.088061 -0.831934
v 1.828746 1.088061 -0.831934
v 1.828747 1.036490 -0.774992
v 1.828747 1.056612 -0.776974
v 1.828747 1.017141 -0.769122
v 1.828747 0.999309 -0.759591
v 1.828747 0.983679 -0.746764
v 1.828747 0.970851 -0.731134
v 1.828747 0.961320 -0.713301
v 1.828747 0.955450 -0.693952
v 1.828747 0.953468 -0.673830
v 1.828747 0.955450 -0.653707
v 1.828747 0.961320 -0.634358
v 1.828747 0.970851 -0.616526
v 1.828747 0.983679 -0.600896
v 1.828747 0.999309 -0.588068
v 1.828747 1.017141 -0.578537
v 1.828747 1.036490 -0.572667
v 1.828747 1.056612 -0.570685
v 1.828747 1.076735 -0.572667
v 1.828746 1.096084 -0.578537
v 1.828746 1.113916 -0.588068
v 1.828746 1.129547 -0.600896
v 1.828746 1.142374 -0.616526
v 1.828746 1.151905 -0.634358
v 1.828746 1.157775 -0.653707
v 1.828746 1.159757 -0.673830
v 1.828746 1.157775 -0.693952
v 1.828746 1.151905 -0.713301
v 1.828746 1.142374 -0.731134
v 1.828746 1.129546 -0.746764
v 1.828746 1.113916 -0.759591
v 1.828746 1.096084 -0.769123
v 1.828747 1.076735 -0.774992
v 1.724435 1.036490 -0.774992
v 1.724435 1.056612 -0.776974
v 1.724435 1.017141 -0.769122
v 1.724435 0.999309 -0.759591
v 1.724435 0.983679 -0.746764
v 1.724435 0.970851 -0.731134
v 1.724435 0.961320 -0.713301
v 1.724435 0.955450 -0.693952
v 1.724435 0.953468 -0.673830
v 1.724435 0.955450 -0.653707
v 1.724435 0.961320 -0.634358
v 1.724435 0.970851 -0.616526
v 1.724435 0.983679 -0.600896
v 1.724435 0.999309 -0.588068
v 1.724435 1.017141 -0.578537
v 1.724435 1.036490 -0.572667
v 1.724435 1.056612 -0.570685
v 1.724435 1.076735 -0.572667
v 1.724435 1.096084 -0.578537
v 1.724435 1.113916 -0.588068
v 1.724435 1.129547 -0.600896
v 1.724435 1.142374 -0.616526
v 1.724435 1.151905 -0.634358
v 1.724435 1.157775 -0.653707
v 1.724435 1.159757 -0.673830
v 1.724435 1.157775 -0.693952
v 1.724435 1.151905 -0.713301
v 1.724435 1.142374 -0.731134
v 1.724435 1.129546 -0.746764
v 1.724435 1.113916 -0.759591
v 1.724435 1.096084 -0.769123
v 1.724435 1.076735 -0.774992
vn 0.0000 -0.0980 -0.9952
vn 0.0000 -0.2903 -0.9569
vn 0.0000 -0.4714 -0.8819
vn 0.0000 -0.6344 -0.7730
vn 0.0000 -0.7730 -0.6344
vn 0.0000 -0.8819 -0.4714
vn 0.0000 -0.9569 -0.2903
vn 0.0000 -0.9952 -0.0980
vn 0.0000 -0.9952 0.0980
vn 0.0000 -0.9569 0.2903
vn 0.0000 -0.8819 0.4714
vn 0.0000 -0.7730 0.6344
vn 0.0000 -0.6344 0.7730
vn 0.0000 -0.4714 0.8819
vn 0.0000 -0.2903 0.9569
vn 0.0000 -0.0980 0.9952
vn -0.0000 0.0980 0.9952
vn -0.0000 0.2903 0.9569
vn -0.0000 0.4714 0.8819
vn 0.0000 0.6344 0.7730
vn 0.0000 0.7730 0.6344
vn 0.0000 0.8819 0.4714
vn 0.0000 0.9569 0.2903
vn 0.0000 0.9952 0.0980
vn 0.0000 0.9952 -0.0980
vn 0.0000 0.9569 -0.2903
vn 0.0000 0.8819 -0.4714
vn 0.0000 0.7730 -0.6344
vn -0.0000 0.6344 -0.7730
vn -0.0000 0.4714 -0.8819
vn 1.0000 0.0000 0.0000
vn 0.0000 0.2903 -0.9569
vn 0.0000 0.0980 -0.9952
vn -1.0000 -0.0000 0.0000
usemtl Pins
s off
f 421//126 422//126 424//126 423//126
f 423//127 424//127 426//127 425//127
f 425//128 426//128 428//128 427//128
f 427//129 428//129 430//129 429//129
f 429//130 430//130 432//130 431//130
f 431//131 432//131 434//131 433//131
f 433//132 434//132 436//132 435//132
f 435//133 436//133 438//133 437//133
f 437//134 438//134 440//134 439//134
f 439//135 440//135 442//135 441//135
f 441//136 442//136 444//136 443//136
f 443//137 444//137 446//137 445//137
f 445//138 446//138 448//138 447//138
f 447//139 448//139 450//139 449//139
f 449//140 450//140 452//140 451//140
f 451//141 452//141 454//141 453//141
f 453//142 454//142 456//142 455//142
f 455//143 456//143 458//143 457//143
f 457//144 458//144 460//144 459//144
f 459//145 460//145 462//145 461//145
f 461//146 462//146 464//146 463//146
f 463//147 464//147 466//147 465//147
f 465//148 466//148 468//148 467//148
f 467//149 468//149 470//149 469//149
f 469//150 470//150 472//150 471//150
f 471//151 472//151 474//151 473//151
f 473//152 474//152 476//152 475//152
f 475//153 476//153 478//153 477//153
f 477//154 478//154 480//154 479//154
f 479//155 480//155 482//155 481//155
f 442//156 440//156 494//156 495//156
f 481//157 482//157 484//157 483//157
f 483//158 484//158 422//158 421//158
f 421//159 423//159 425//159 427//159 429//159 431//159 433//159 435//159 437//159 439//159 441//159 443//159 445//159 447//159 449//159 451//159 453//159 455//159 457//159 459//159 461//159 463//159 465//159 467//159 469//159 471//159 473//159 475//159 477//159 479//159 481//159 483//159
f 512//136 511//136 543//136 544//136
f 460//156 458//156 503//156 504//156
f 478//156 476//156 512//156 513//156
f 434//156 432//156 490//156 491//156
f 452//156 450//156 499//156 500//156
f 470//156 468//156 508//156 509//156
f 426//156 424//156 485//156 487//156
f 444//156 442//156 495//156 496//156
f 462//156 460//156 504//156 505//156
f 480//156 478//156 513//156 514//156
f 436//156 434//156 491//156 492//156
f 454//156 452//156 500//156 501//156
f 472//156 470//156 509//156 510//156
f 428//156 426//156 487//156 488//156
f 446//156 444//156 496//156 497//156
f 464//156 462//156 505//156 506//156
f 482//156 480//156 514//156 515//156
f 438//156 436//156 492//156 493//156
f 456//156 454//156 501//156 502//156
f 474//156 472//156 510//156 511//156
f 430//156 428//156 488//156 489//156
f 448//156 446//156 497//156 498//156
f 466//156 464//156 506//156 507//156
f 484//156 482//156 515//156 516//156
f 440//156 438//156 493//156 494//156
f 458//156 456//156 502//156 503//156
f 476//156 474//156 511//156 512//156
f 432//156 430//156 489//156 490//156
f 450//156 448//156 498//156 499//156
f 468//156 466//156 507//156 508//156
f 424//156 422//156 486//156 485//156
f 422//156 484//156 516//156 486//156
f 517//156 518//156 548//156 547//156 546//156 545//156 544//156 543//156 542//156 541//156 540//156 539//156 538//156 537//156 536//156 535//156 534//156 533//156 532//156 531//156 530//156 529//156 528//156 527//156 526//156 525//156 524//156 523//156 522//156 521//156 520//156 519//156
f 499//155 498//155 530//155 531//155
f 485//142 486//142 518//142 517//142
f 513//137 512//137 544//137 545//137
f 500//157 499//157 531//157 532//157
f 487//143 485//143 517//143 519//143
f 514//138 513//138 545//138 546//138
f 501//158 500//158 532//158 533//158
f 488//144 487//144 519//144 520//144
f 515//139 514//139 546//139 547//139
f 502//126 501//126 533//126 534//126
f 489//145 488//145 520//145 521//145
f 516//140 515//140 547//140 548//140
f 503//127 502//127 534//127 535//127
f 490//146 489//146 521//146 522//146
f 486//141 516//141 548//141 518//141
f 504//128 503//128 535//128 536//128
f 491//147 490//147 522//147 523//147
f 505//129 504//129 536//129 537//129
f 492//148 491//148 523//148 524//148
f 506//130 505//130 537//130 538//130
f 493//149 492//149 524//149 525//149
f 507//131 506//131 538//131 539//131
f 494//150 493//150 525//150 526//150
f 508//132 507//132 539//132 540//132
f 495//151 494//151 526//151 527//151
f 509//133 508//133 540//133 541//133
f 496//152 495//152 527//152 528//152
f 510//134 509//134 541//134 542//134
f 497//153 496//153 528//153 529//153
f 511//135 510//135 542//135 543//135
f 498//154 497//154 529//154 530//154
o Tank_WhellProtector_Cube.004
v 0.746946 0.875896 -0.328327
v 0.740459 1.482282 -0.328327
v 0.746946 0.875896 -2.317995
v 0.740459 1.482282 -2.317995
v 1.624939 0.875896 -0.328327
v 1.631426 1.482282 -0.328327
v 1.624939 0.875896 -2.317995
v 1.631426 1.482282 -2.317995
v 0.746946 1.474977 -0.991550
v 0.746946 1.474977 -1.654773
v 0.746946 0.541138 -1.654773
v 0.746946 0.541138 -0.991550
v 1.624939 1.474977 -1.654773
v 1.624939 1.474977 -0.991550
v 1.624939 0.541138 -0.991550
v 1.624939 0.541138 -1.654773
v 0.636208 0.875896 -0.328327
v 0.636208 1.599673 -0.328327
v 0.636208 0.875896 -2.317995
v 0.636208 1.599673 -2.317995
v 1.735677 0.875896 -0.328327
v 1.735677 1.599673 -0.328327
v 1.735677 0.875896 -2.317995
v 1.735677 1.599673 -2.317995
v 0.636208 1.599673 -0.991550
v 0.636208 1.599673 -1.654773
v 0.636208 0.541138 -1.654773
v 0.636208 0.541138 -0.991550
v 1.735677 1.597761 -1.653575
v 1.735677 1.597761 -0.992747
v 1.735677 0.543049 -0.992748
v 1.735677 0.543049 -1.653575
v 1.763449 1.490417 -1.586319
v 1.763449 1.490417 -1.060004
v 1.763449 0.650393 -1.060004
v 1.763449 0.650393 -1.586319
vn 1.0000 0.0042 -0.0038
vn -1.0000 0.0042 -0.0038
vn -1.0000 0.0042 0.0038
vn 0.0000 -1.0000 0.0000
vn 0.0000 -0.9999 0.0110
vn 0.0000 -0.9999 -0.0110
vn -1.0000 0.0000 0.0000
vn 1.0000 0.0042 0.0038
vn 1.0000 0.0000 0.0000
vn 0.0017 1.0000 0.0000
vn 0.0009 1.0000 -0.0014
vn 0.0009 1.0000 0.0014
vn 0.9681 -0.2505 0.0000
vn 0.0000 0.0000 -1.0000
vn 0.0101 -0.8934 -0.4492
vn 0.0101 -0.8934 0.4492
vn 0.0000 -0.8927 0.4506
vn 0.0000 0.0000 1.0000
vn 0.0173 -0.9999 0.0000
vn 0.0000 -0.8927 -0.4506
vn 0.9681 0.2505 0.0000
vn 0.9243 -0.0000 -0.3817
vn 0.9243 0.0000 0.3817
usemtl TankBody
s off
f 558//160 559//160 551//160 552//160
f 556//161 555//161 564//161 561//161
f 562//162 563//162 553//162 554//162
f 562//163 557//163 558//163 561//163
f 554//164 550//164 557//164 562//164
f 561//165 558//165 552//165 556//165
f 561//166 564//166 563//166 562//166
f 550//167 549//167 560//167 557//167
f 557//168 560//168 559//168 558//168
f 574//166 568//166 567//166 575//166
f 572//168 577//168 580//168 571//168
f 578//168 570//168 569//168 579//168
f 578//169 577//169 574//169 573//169
f 570//170 578//170 573//170 566//170
f 577//171 572//171 568//171 574//171
f 579//172 580//172 584//172 583//172
f 566//166 573//166 576//166 565//166
f 573//166 574//166 575//166 576//166
f 552//173 551//173 567//173 568//173
f 564//174 555//174 571//174 580//174
f 553//175 563//175 579//175 569//175
f 559//163 560//163 576//163 575//163
f 560//176 549//176 565//176 576//176
f 550//177 554//177 570//177 566//177
f 563//178 564//178 580//178 579//178
f 549//177 550//177 566//177 565//177
f 556//173 552//173 568//173 572//173
f 554//177 553//177 569//177 570//177
f 555//173 556//173 572//173 571//173
f 551//179 559//179 575//179 567//179
f 581//168 582//168 583//168 584//168
f 577//180 578//180 582//180 581//180
f 580//181 577//181 581//181 584//181
f 578//182 579//182 583//182 582//182
o Tank_LowerBody_Cube.003
v -1.191705 1.393976 0.635722
v -1.191705 2.377784 0.002415
v -1.191705 1.393976 -2.942787
v -1.191705 2.377784 -3.194352
v 1.234223 1.393976 0.635722
v 1.234223 2.377784 0.002415
v 1.234223 1.393976 -2.942787
v 1.234223 2.377784 -3.194352
v -1.191705 2.377784 -3.194352
v 1.234223 2.377784 -3.194352
v 0.425580 1.393976 -2.942787
v -0.383062 1.393976 -2.942787
v 0.425580 2.377784 0.241625
v -0.383062 2.377784 0.241625
v -0.383062 1.393976 0.874933
v 0.425580 1.393976 0.874933
v 0.425580 0.589192 -2.473599
v -0.383062 0.589192 -2.473599
v -0.383062 0.589192 0.514833
v 0.425580 0.589192 0.514833
v -1.389422 2.377784 -1.063174
v -1.389422 2.377784 -2.128763
v -1.389422 1.393976 -1.749950
v -1.389422 1.393976 -0.557114
v 1.431940 2.377784 -2.128763
v 1.431940 2.377784 -1.063174
v 1.431940 1.393976 -0.557114
v 1.431940 1.393976 -1.749951
v -0.383062 1.393976 -1.749950
v -0.383062 1.393976 -0.557114
v 0.425580 1.393976 -1.749950
v 0.425580 1.393976 -0.557114
v -0.383062 0.589192 -1.557192
v -0.383062 0.589192 -0.640784
v 0.425580 0.589192 -1.557192
v 0.425580 0.589192 -0.640784
v -0.923255 2.232627 -3.157235
v -0.923255 1.466554 -2.961346
v 0.965772 2.232627 -3.157235
v 0.965772 1.466554 -2.961346
v -0.293579 1.466554 -2.961346
v 0.336097 1.466554 -2.961346
v -0.923255 2.232627 -3.157235
v -0.923255 1.466554 -2.961346
v 0.965772 2.232627 -3.157235
v 0.965772 1.466554 -2.961346
v -0.293579 1.466554 -2.961346
v 0.336097 1.466554 -2.961346
v -0.923255 2.232627 -3.219436
v -0.923255 1.466554 -3.023547
v 0.965772 2.232627 -3.219436
v 0.965772 1.466554 -3.023547
v -0.293579 1.466554 -3.023547
v 0.336097 1.466554 -3.023547
v 1.240155 2.348269 -3.085176
v 1.240155 1.423490 -2.848705
v 1.426008 2.348269 -1.081868
v 1.240155 2.348269 -0.080215
v 1.240155 1.423490 0.515094
v 1.426008 1.423490 -1.727438
v 1.426008 2.348269 -2.083522
v 1.426008 1.423490 -0.606172
v 1.240155 2.348269 -3.085176
v 1.240155 1.423490 -2.848705
v 1.426008 2.348269 -1.081868
v 1.240155 2.348269 -0.080215
v 1.240155 1.423490 0.515094
v 1.426008 1.423490 -1.727438
v 1.426008 2.348269 -2.083522
v 1.426008 1.423490 -0.606172
v 1.349436 2.303522 -2.914153
v 1.349436 1.471220 -2.701329
v 1.516704 2.303522 -1.111176
v 1.349436 2.303522 -0.209688
v 1.349436 1.471220 0.326089
v 1.516704 1.471220 -1.692190
v 1.516704 2.303522 -2.012665
v 1.516704 1.471220 -0.683050
v -1.196648 1.418571 0.535199
v -1.196648 2.353188 -0.066443
v -1.384479 2.353188 -2.091062
v -1.196648 2.353188 -3.103372
v -1.196648 1.418571 -2.864385
v -1.384479 1.418571 -0.597996
v -1.384479 2.353188 -1.078753
v -1.384479 1.418571 -1.731190
v -1.306028 1.466793 0.344183
v -1.306028 2.307949 -0.197294
v -1.475076 2.307949 -2.019451
v -1.306028 2.307949 -2.930530
v -1.306028 1.466793 -2.715441
v -1.475076 1.466793 -0.675691
v -1.475076 2.307949 -1.108373
v -1.475076 1.466793 -1.695566
v 0.425580 2.377784 0.241625
v -0.383062 2.377784 0.241625
v -0.383062 1.393976 0.874933
v 0.425580 1.393976 0.874933
vn -0.9388 0.3074 -0.1556
vn 0.0000 -0.2477 -0.9688
vn 0.9383 -0.2988 0.1741
vn -0.2414 0.5253 0.8160
vn 0.0000 -1.0000 -0.0000
vn 0.0000 1.0000 -0.0000
vn 0.0000 0.0000 1.0000
vn 0.0000 -0.5037 -0.8639
vn 0.2414 0.5253 0.8160
vn -1.0000 0.0000 0.0000
vn 1.0000 0.0000 0.0000
vn 0.0000 -0.4084 0.9128
vn 0.9804 0.1970 0.0000
vn 0.9388 0.3074 -0.1556
vn -0.8873 -0.4307 -0.1646
vn -0.9804 -0.1970 0.0000
vn 0.9804 -0.1970 0.0000
vn 0.9982 -0.0149 -0.0583
vn 0.9976 0.0375 0.0582
vn 0.8928 0.4254 0.1480
vn 0.8873 -0.4307 -0.1646
vn 0.4630 0.8822 0.0859
vn 0.4887 -0.8687 -0.0810
vn 0.4425 0.8968 0.0000
vn 0.5202 -0.8497 0.0862
vn 0.4977 0.8624 -0.0923
vn 0.7728 0.3435 0.5336
vn 0.8166 -0.1430 -0.5592
vn 0.4657 -0.8849 0.0000
vn -0.8192 -0.1421 -0.5556
vn -0.4676 0.8797 0.0868
vn -0.4931 -0.8661 -0.0817
vn -0.9982 -0.0149 -0.0583
vn -0.9383 -0.2988 0.1741
vn -0.9976 0.0375 0.0582
vn -0.9804 0.1970 0.0000
vn -0.8928 0.4254 0.1480
vn -0.7759 0.3415 0.5305
vn -0.4699 -0.8827 0.0000
vn -0.4467 0.8947 0.0000
vn -0.5252 -0.8465 0.0871
vn -0.5028 0.8593 -0.0933
vn 0.0000 0.5413 0.8408
vn 0.9801 0.0994 0.1716
vn 0.9835 -0.0552 -0.1722
vn -0.9835 -0.0552 -0.1722
vn -0.9801 0.0994 0.1716
usemtl TankBody
s off
f 587//183 607//183 670//183 667//183
f 596//184 587//184 622//184 625//184
f 610//185 590//185 642//185 641//185
f 598//186 586//186 585//186 599//186
f 615//187 595//187 591//187 612//187
f 609//188 592//188 588//188 606//188
f 588//189 592//189 594//189 593//189
f 607//187 587//187 596//187 613//187
f 596//190 595//190 601//190 602//190
f 590//191 597//191 600//191 589//191
f 598//189 599//189 681//189 680//189
f 617//187 602//187 601//187 619//187
f 613//192 596//192 602//192 617//192
f 616//193 600//193 604//193 620//193
f 600//194 599//194 603//194 604//194
f 595//193 615//193 619//193 601//193
f 615//193 616//193 620//193 619//193
f 599//192 614//192 618//192 603//192
f 614//192 613//192 617//192 618//192
f 603//187 618//187 620//187 604//187
f 618//187 617//187 619//187 620//187
f 585//187 608//187 614//187 599//187
f 608//187 607//187 613//187 614//187
f 590//188 610//188 605//188 586//188 598//188 597//188
f 610//188 609//188 606//188 605//188
f 600//187 616//187 611//187 589//187
f 616//187 615//187 612//187 611//187
f 611//195 612//195 644//195 646//195
f 612//196 591//196 640//196 644//196
f 606//197 588//197 666//197 665//197
f 605//198 606//198 665//198 669//198
f 624//189 626//189 632//189 630//189
f 591//184 595//184 626//184 624//184
f 588//184 592//184 623//184 621//184
f 587//184 588//184 621//184 622//184
f 595//184 596//184 625//184 626//184
f 592//184 591//184 624//184 623//184
f 632//187 631//187 637//187 638//187
f 623//189 624//189 630//189 629//189
f 622//189 621//189 627//189 628//189
f 626//189 625//189 631//189 632//189
f 625//189 622//189 628//189 631//189
f 621//189 623//189 629//189 627//189
f 633//184 635//184 636//184 638//184 637//184 634//184
f 631//187 628//187 634//187 637//187
f 627//188 629//188 635//188 633//188
f 630//187 632//187 638//187 636//187
f 629//193 630//193 636//193 635//193
f 628//192 627//192 633//192 634//192
f 644//189 640//189 648//189 652//189
f 645//189 641//189 649//189 653//189
f 646//189 644//189 652//189 654//189
f 609//199 610//199 641//199 645//199
f 591//200 592//200 639//200 640//200
f 590//201 589//201 643//201 642//201
f 589//202 611//202 646//202 643//202
f 592//203 609//203 645//203 639//203
f 649//204 650//204 658//204 657//204
f 652//205 648//205 656//205 660//205
f 653//206 649//206 657//206 661//206
f 641//189 642//189 650//189 649//189
f 643//189 646//189 654//189 651//189
f 639//189 645//189 653//189 647//189
f 642//189 643//189 651//189 650//189
f 640//189 639//189 647//189 648//189
f 651//207 654//207 662//207 659//207
f 647//208 653//208 661//208 655//208
f 650//209 651//209 659//209 658//209
f 648//210 647//210 655//210 656//210
f 654//211 652//211 660//211 662//211
f 666//212 667//212 675//212 674//212
f 664//213 669//213 677//213 672//213
f 667//214 670//214 678//214 675//214
f 588//215 587//215 667//215 666//215
f 586//216 605//216 669//216 664//216
f 585//217 586//217 664//217 663//217
f 607//218 608//218 668//218 670//218
f 608//219 585//219 663//219 668//219
f 663//220 664//220 672//220 671//220
f 670//221 668//221 676//221 678//221
f 669//222 665//222 673//222 677//222
f 668//223 663//223 671//223 676//223
f 665//224 666//224 674//224 673//224
f 679//225 680//225 681//225 682//225
f 599//189 600//189 682//189 681//189
f 597//189 598//189 680//189 679//189
f 600//189 597//189 679//189 682//189
usemtl Blue_Tank
f 657//226 658//226 659//226 662//226
f 655//227 661//227 660//227 656//227
f 661//193 657//193 662//193 660//193
f 673//228 674//228 675//228 678//228
f 672//229 677//229 676//229 671//229
f 677//192 673//192 678//192 676//192
