# Blender v2.77 (sub 0) OBJ File: 'tank_shootingPipe.blend'
# www.blender.org
mtllib tank_shootingPipe.mtl
o ShootingPipe_Cylinder.007
v 0.019744 0.065282 -0.931225
v 0.019744 0.065282 0.803579
v 0.072921 0.053979 -0.931225
v 0.072921 0.053979 0.803579
v 0.116903 0.022024 -0.931225
v 0.116903 0.022024 0.803579
v 0.144086 -0.025058 -0.931225
v 0.144086 -0.025058 0.803579
v 0.149768 -0.079125 -0.931225
v 0.149768 -0.079125 0.803579
v 0.132969 -0.130830 -0.931225
v 0.132969 -0.130829 0.803579
v 0.096591 -0.171231 -0.931225
v 0.096591 -0.171231 0.803579
v 0.046926 -0.193343 -0.931225
v 0.046926 -0.193343 0.803579
v -0.007439 -0.193343 -0.931225
v -0.007439 -0.193343 0.803579
v -0.057104 -0.171231 -0.931225
v -0.057104 -0.171231 0.803579
v -0.093481 -0.130830 -0.931225
v -0.093481 -0.130829 0.803579
v -0.110281 -0.079125 -0.931225
v -0.110281 -0.079125 0.803579
v -0.104598 -0.025058 -0.931225
v -0.104598 -0.025058 0.803579
v -0.077416 0.022024 -0.931225
v -0.077416 0.022024 0.803579
v -0.033433 0.053979 -0.931225
v -0.033433 0.053979 0.803579
v 0.072921 0.053979 0.803579
v 0.019744 0.065282 0.803579
v 0.116903 0.022024 0.803579
v 0.144086 -0.025058 0.803579
v 0.149768 -0.079125 0.803579
v 0.132969 -0.130829 0.803579
v 0.096591 -0.171231 0.803579
v 0.046926 -0.193343 0.803579
v -0.007439 -0.193343 0.803579
v -0.057104 -0.171231 0.803579
v -0.093481 -0.130829 0.803579
v -0.110281 -0.079125 0.803579
v -0.104598 -0.025058 0.803579
v -0.077416 0.022024 0.803579
v -0.033433 0.053979 0.803579
v 0.072921 0.053979 1.482987
v 0.019744 0.065282 1.482987
v 0.116903 0.022024 1.482987
v 0.144086 -0.025058 1.482987
v 0.149768 -0.079125 1.482987
v 0.132969 -0.130829 1.482987
v 0.096591 -0.171230 1.482987
v 0.046926 -0.193343 1.482987
v -0.007439 -0.193343 1.482987
v -0.057104 -0.171230 1.482987
v -0.093481 -0.130829 1.482987
v -0.110281 -0.079125 1.482987
v -0.104598 -0.025058 1.482987
v -0.077416 0.022024 1.482987
v -0.033434 0.053979 1.482987
v 0.103128 0.121825 1.482986
v 0.019744 0.139549 1.482986
v 0.172094 0.071718 1.482986
v 0.214718 -0.002108 1.482986
v 0.223628 -0.086888 1.482986
v 0.197286 -0.167963 1.482986
v 0.140244 -0.231314 1.482986
v 0.062367 -0.265987 1.482986
v -0.022880 -0.265987 1.482986
v -0.100757 -0.231314 1.482986
v -0.157798 -0.167963 1.482986
v -0.184141 -0.086888 1.482986
v -0.175230 -0.002108 1.482986
v -0.132607 0.071718 1.482986
v -0.063641 0.121825 1.482986
v 0.103128 0.121825 0.805210
v 0.019744 0.139549 0.805210
v 0.172094 0.071718 0.805210
v 0.214718 -0.002108 0.805210
v 0.223628 -0.086888 0.805210
v 0.197286 -0.167963 0.805210
v 0.140244 -0.231314 0.805210
v 0.062367 -0.265987 0.805210
v -0.022880 -0.265987 0.805210
v -0.100757 -0.231314 0.805210
v -0.157798 -0.167963 0.805210
v -0.184141 -0.086888 0.805210
v -0.175230 -0.002108 0.805210
v -0.132607 0.071718 0.805210
v -0.063640 0.121825 0.805210
v 0.103128 0.121825 0.805210
v 0.019744 0.139549 0.805210
v 0.172094 0.071718 0.805210
v 0.214718 -0.002108 0.805210
v 0.223628 -0.086888 0.805210
v 0.197286 -0.167963 0.805210
v 0.140244 -0.231314 0.805210
v 0.062367 -0.265987 0.805210
v -0.022880 -0.265987 0.805210
v -0.100757 -0.231314 0.805210
v -0.157798 -0.167963 0.805210
v -0.184141 -0.086888 0.805210
v -0.175230 -0.002108 0.805210
v -0.132607 0.071718 0.805210
v -0.063640 0.121825 0.805210
vn 0.2079 0.9781 -0.0000
vn 0.5878 0.8090 -0.0000
vn 0.8660 0.5000 -0.0000
vn 0.9945 0.1045 -0.0000
vn 0.9511 -0.3090 0.0000
vn 0.7431 -0.6691 0.0000
vn 0.4067 -0.9135 0.0000
vn -0.0000 -1.0000 0.0000
vn -0.4067 -0.9135 0.0000
vn -0.7431 -0.6691 0.0000
vn -0.9511 -0.3090 0.0000
vn -0.9945 0.1045 -0.0000
vn -0.8660 0.5000 -0.0000
vn 0.0000 0.0000 1.0000
vn -0.5878 0.8090 -0.0000
vn -0.2079 0.9781 -0.0000
vn -0.0000 0.0000 -1.0000
vn -0.9945 -0.1045 -0.0000
vn 0.9945 -0.1045 0.0000
vn -0.9511 0.3090 -0.0000
vn 0.8660 -0.5000 0.0000
vn -0.7431 0.6691 -0.0000
vn 0.5878 -0.8090 0.0000
vn -0.4067 0.9135 -0.0000
vn 0.2079 -0.9781 0.0000
vn 0.0000 1.0000 -0.0000
vn -0.2079 -0.9781 0.0000
vn 0.4067 0.9135 -0.0000
vn -0.5878 -0.8090 0.0000
vn 0.7431 0.6691 0.0000
vn -0.8660 -0.5000 -0.0000
vn 0.9511 0.3090 0.0000
usemtl ShootingPipe2
s off
f 1//1 2//1 4//1 3//1
f 3//2 4//2 6//2 5//2
f 5//3 6//3 8//3 7//3
f 7//4 8//4 10//4 9//4
f 9//5 10//5 12//5 11//5
f 11//6 12//6 14//6 13//6
f 13//7 14//7 16//7 15//7
f 15//8 16//8 18//8 17//8
f 17//9 18//9 20//9 19//9
f 19//10 20//10 22//10 21//10
f 21//11 22//11 24//11 23//11
f 23//12 24//12 26//12 25//12
f 25//13 26//13 28//13 27//13
f 6//14 4//14 31//14 33//14
f 27//15 28//15 30//15 29//15
f 29//16 30//16 2//16 1//16
f 1//17 3//17 5//17 7//17 9//17 11//17 13//17 15//17 17//17 19//17 21//17 23//17 25//17 27//17 29//17
f 16//14 14//14 37//14 38//14
f 26//14 24//14 42//14 43//14
f 12//14 10//14 35//14 36//14
f 22//14 20//14 40//14 41//14
f 2//14 30//14 45//14 32//14
f 8//14 6//14 33//14 34//14
f 18//14 16//14 38//14 39//14
f 4//14 2//14 32//14 31//14
f 28//14 26//14 43//14 44//14
f 14//14 12//14 36//14 37//14
f 24//14 22//14 41//14 42//14
f 10//14 8//14 34//14 35//14
f 20//14 18//14 39//14 40//14
f 30//14 28//14 44//14 45//14
f 87//14 86//14 101//14 102//14
f 91//14 92//14 105//14 104//14 103//14 102//14 101//14 100//14 99//14 98//14 97//14 96//14 95//14 94//14 93//14
f 80//14 79//14 94//14 95//14
f 88//14 87//14 102//14 103//14
f 81//14 80//14 95//14 96//14
f 89//14 88//14 103//14 104//14
f 82//14 81//14 96//14 97//14
f 90//14 89//14 104//14 105//14
f 83//14 82//14 97//14 98//14
f 77//14 90//14 105//14 92//14
f 84//14 83//14 98//14 99//14
f 76//14 77//14 92//14 91//14
f 85//14 84//14 99//14 100//14
f 78//14 76//14 91//14 93//14
f 86//14 85//14 100//14 101//14
f 79//14 78//14 93//14 94//14
usemtl ShootingPipe1
f 36//5 35//5 50//5 51//5
f 58//17 57//17 72//17 73//17
f 44//13 43//13 58//13 59//13
f 37//6 36//6 51//6 52//6
f 45//15 44//15 59//15 60//15
f 38//7 37//7 52//7 53//7
f 32//16 45//16 60//16 47//16
f 39//8 38//8 53//8 54//8
f 31//1 32//1 47//1 46//1
f 40//9 39//9 54//9 55//9
f 33//2 31//2 46//2 48//2
f 41//10 40//10 55//10 56//10
f 34//3 33//3 48//3 49//3
f 42//11 41//11 56//11 57//11
f 35//4 34//4 49//4 50//4
f 43//12 42//12 57//12 58//12
f 65//18 64//18 79//18 80//18
f 51//17 50//17 65//17 66//17
f 59//17 58//17 73//17 74//17
f 52//17 51//17 66//17 67//17
f 60//17 59//17 74//17 75//17
f 53//17 52//17 67//17 68//17
f 47//17 60//17 75//17 62//17
f 54//17 53//17 68//17 69//17
f 46//17 47//17 62//17 61//17
f 55//17 54//17 69//17 70//17
f 48//17 46//17 61//17 63//17
f 56//17 55//17 70//17 71//17
f 49//17 48//17 63//17 64//17
f 57//17 56//17 71//17 72//17
f 50//17 49//17 64//17 65//17
f 73//19 72//19 87//19 88//19
f 66//20 65//20 80//20 81//20
f 74//21 73//21 88//21 89//21
f 67//22 66//22 81//22 82//22
f 75//23 74//23 89//23 90//23
f 68//24 67//24 82//24 83//24
f 62//25 75//25 90//25 77//25
f 69//26 68//26 83//26 84//26
f 61//27 62//27 77//27 76//27
f 70//28 69//28 84//28 85//28
f 63//29 61//29 76//29 78//29
f 71//30 70//30 85//30 86//30
f 64//31 63//31 78//31 79//31
f 72//32 71//32 86//32 87//32
o Cylinder.005_Cylinder.008
v -0.281608 -0.062927 -1.146800
v 0.321095 -0.062927 -1.146800
v -0.281608 -0.161341 -1.125881
v 0.321095 -0.161341 -1.125881
v -0.281608 -0.242739 -1.066742
v 0.321095 -0.242739 -1.066742
v -0.281608 -0.293046 -0.979609
v 0.321095 -0.293046 -0.979609
v -0.281608 -0.303563 -0.879547
v 0.321095 -0.303562 -0.879547
v -0.281608 -0.272471 -0.783858
v 0.321095 -0.272471 -0.783858
v -0.281608 -0.205148 -0.709088
v 0.321095 -0.205148 -0.709088
v -0.281608 -0.113233 -0.668165
v 0.321095 -0.113233 -0.668165
v -0.281608 -0.012620 -0.668165
v 0.321095 -0.012620 -0.668165
v -0.281608 0.079294 -0.709088
v 0.321095 0.079295 -0.709088
v -0.281608 0.146618 -0.783858
v 0.321095 0.146618 -0.783858
v -0.281608 0.177709 -0.879547
v 0.321095 0.177709 -0.879547
v -0.281608 0.167192 -0.979609
v 0.321095 0.167192 -0.979609
v -0.281608 0.116885 -1.066742
v 0.321095 0.116885 -1.066742
v -0.281608 0.035488 -1.125881
v 0.321095 0.035488 -1.125881
vn 0.0000 -0.2079 -0.9781
vn 0.0000 -0.5878 -0.8090
vn 0.0000 -0.8660 -0.5000
vn 0.0000 -0.9945 -0.1045
vn 0.0000 -0.9511 0.3090
vn 0.0000 -0.7431 0.6691
vn 0.0000 -0.4067 0.9135
vn -0.0000 0.0000 1.0000
vn -0.0000 0.4067 0.9135
vn -0.0000 0.7431 0.6691
vn -0.0000 0.9511 0.3090
vn -0.0000 0.9945 -0.1045
vn -0.0000 0.8660 -0.5000
vn 1.0000 0.0000 -0.0000
vn 0.0000 0.5878 -0.8090
vn 0.0000 0.2079 -0.9781
vn -1.0000 -0.0000 0.0000
usemtl ShootingPipe2
s off
f 106//33 107//33 109//33 108//33
f 108//34 109//34 111//34 110//34
f 110//35 111//35 113//35 112//35
f 112//36 113//36 115//36 114//36
f 114//37 115//37 117//37 116//37
f 116//38 117//38 119//38 118//38
f 118//39 119//39 121//39 120//39
f 120//40 121//40 123//40 122//40
f 122//41 123//41 125//41 124//41
f 124//42 125//42 127//42 126//42
f 126//43 127//43 129//43 128//43
f 128//44 129//44 131//44 130//44
f 130//45 131//45 133//45 132//45
f 109//46 107//46 135//46 133//46 131//46 129//46 127//46 125//46 123//46 121//46 119//46 117//46 115//46 113//46 111//46
f 132//47 133//47 135//47 134//47
f 134//48 135//48 107//48 106//48
f 106//49 108//49 110//49 112//49 114//49 116//49 118//49 120//49 122//49 124//49 126//49 128//49 130//49 132//49 134//49
